# bcType	nodeIdx	KinTrX	KinTrY	KinTrZ	KinRotX	KinRotY	KinRotZ	StTrX	StTrY	StTrZ	StRotX	StRotY	StRotZ
NodalBC	3223	0	-1	-1	0	0	0	-1	-1	-1	-1	-1	-1
NodalBC	3224	-1	0   0	0	0	0	0	-1	-1	-1	-1	-1
NodalBC	3225	0 0 0 0	0	0	-1	-1	-1	-1	-1	-1
