# Type	nodeCrdX	nodeCrdY	nodeCrdZ	powRadius
Particle	2.500000000000000e-01	5.000000000000000e-02	5.000000000000000e-02	1.817584259803112e-05
Particle	2.716455348543999e-01	7.289502699975510e-02	1.000000000000000e-07	1.510210057932378e-05
Particle	8.440819643605027e-03	3.303391422361664e-02	1.000000000000000e-07	1.001433091423831e-05
Particle	1.843609386979214e-01	4.830456914215858e-03	1.000000000000000e-07	9.357066877565193e-06
Particle	5.226517318019779e-02	9.743832074133414e-03	1.000000000000000e-07	1.047792725774549e-05
Particle	1.227017081761143e-01	8.734886074801021e-02	1.000000000000000e-07	1.239374139177653e-05
Particle	1.193701090527105e-01	2.036997867472192e-02	1.000000000000000e-07	1.088081515427373e-05
Particle	8.726687545218351e-02	4.153502661221692e-02	1.000000000000000e-07	1.502836244031415e-05
Particle	4.708689707307745e-01	4.669153471269611e-02	1.000000000000000e-07	1.286365372507320e-05
Particle	4.799890105997431e-01	9.998127666767351e-02	1.000000000000000e-07	4.464787279185449e-06
Particle	3.631585314565284e-01	4.842287060849756e-02	1.000000000000000e-07	1.009477380167593e-05
Particle	3.575861376978202e-02	9.955666274588743e-02	1.000000000000000e-07	4.663267134442674e-06
Particle	2.409201590731518e-01	3.411629893085587e-02	1.000000000000000e-07	1.091332084408580e-05
Particle	4.882431168268697e-01	4.275601856524399e-03	1.000000000000000e-07	7.834046352248079e-06
Particle	4.040090358781243e-01	8.666883566860945e-02	1.000000000000000e-07	8.755107216768394e-06
Particle	1.439689076827029e-01	1.343635283214145e-02	1.000000000000000e-07	1.159755292616050e-05
Particle	2.086651220615366e-01	3.765494220542997e-02	1.000000000000000e-07	1.245434639503547e-05
Particle	3.524844430062078e-01	1.198366433925462e-02	1.000000000000000e-07	5.991902973440249e-06
Particle	1.594734344743594e-01	7.776255774614754e-02	1.000000000000000e-07	1.036465676942200e-05
Particle	4.671043832128556e-02	7.645114100918832e-02	1.000000000000000e-07	8.440558191206741e-06
Particle	3.402444462060049e-02	5.919081562678635e-02	1.000000000000000e-07	9.282374199625232e-06
Particle	4.490632602240380e-02	3.988100441492582e-02	1.000000000000000e-07	1.204678882049869e-05
Particle	2.114123671230538e-01	8.013247401309330e-02	1.000000000000000e-07	7.863691944549321e-06
Particle	7.022324454647613e-02	7.661914101763061e-02	1.000000000000000e-07	8.093347604831384e-06
Particle	4.416316845168397e-01	8.548419502145507e-02	1.000000000000000e-07	1.100925560564923e-05
Particle	4.598505667663798e-01	1.952904882427018e-02	1.000000000000000e-07	1.160114568740053e-05
Particle	3.457666157679106e-01	9.262821571724603e-02	1.000000000000000e-07	4.995033744782863e-06
Particle	1.609994661181806e-01	9.847555609446677e-02	1.000000000000000e-07	2.986960637781430e-06
Particle	3.955931398237860e-01	1.191764278060472e-02	1.000000000000000e-07	7.494988234448682e-06
Particle	2.298841252165083e-01	7.356365249601483e-02	1.000000000000000e-07	6.245782473159995e-06
Particle	3.330012468431411e-01	4.794740862087043e-02	1.000000000000000e-07	9.022291566633104e-06
Particle	2.229948727296988e-02	7.627936328068632e-02	1.000000000000000e-07	6.666481731225359e-06
Particle	2.956463812977684e-01	5.011257799875046e-02	1.000000000000000e-07	5.944768564067226e-06
Particle	3.358358466403948e-01	7.615896198026573e-02	1.000000000000000e-07	6.221290152501277e-06
Particle	1.725778714576229e-01	2.745937580060448e-02	1.000000000000000e-07	1.348843442323504e-05
Particle	9.615089966427876e-02	7.314847555956813e-02	1.000000000000000e-07	7.392150725911608e-06
Particle	9.394690672212090e-03	3.198182480192545e-03	1.000000000000000e-07	5.536564145092297e-06
Particle	3.162194839653666e-01	7.044508128774266e-02	1.000000000000000e-07	6.288179587794245e-06
Particle	3.217441229358071e-01	5.765869442175686e-03	1.000000000000000e-07	6.355269731170111e-06
Particle	1.239998517148329e-01	4.589053923731021e-02	1.000000000000000e-07	6.889956780727760e-06
Particle	4.863299254014259e-01	7.471397513409347e-02	1.000000000000000e-07	5.737726626641156e-06
Particle	4.392564490364676e-01	1.011102698711057e-03	1.000000000000000e-07	4.150180594039386e-06
Particle	2.333294800043908e-01	5.596988422372200e-02	1.000000000000000e-07	7.825008409071981e-06
Particle	2.514430409682555e-01	9.757640391161750e-02	1.000000000000000e-07	6.989945065350443e-06
Particle	3.635967725838303e-04	8.336221950027559e-02	1.000000000000000e-07	3.839787713865343e-06
Particle	4.241182674714195e-01	4.503748468698342e-02	1.000000000000000e-07	1.285040810271851e-05
Particle	1.120156864464094e-01	5.852478255109690e-02	1.000000000000000e-07	6.552974992705547e-06
Particle	7.947128707467301e-02	9.970723819133955e-02	1.000000000000000e-07	5.249936417896629e-06
Particle	1.939058446192634e-01	2.601620356216228e-02	1.000000000000000e-07	1.019550958520541e-05
Particle	4.337947348022809e-01	2.115167399912422e-02	1.000000000000000e-07	6.910194011367475e-06
Particle	2.423293543065654e-01	5.304054734894704e-03	1.000000000000000e-07	5.487832231055760e-06
Particle	2.527367206649789e-01	5.120583322039667e-02	1.000000000000000e-07	6.622167209556067e-06
Particle	1.853848300136014e-01	7.586410751357746e-02	1.000000000000000e-07	1.227613480487636e-05
Particle	3.701519070963071e-01	6.948449580826549e-02	1.000000000000000e-07	7.183377933510112e-06
Particle	3.726957877052730e-01	1.909881322268418e-02	1.000000000000000e-07	1.013799900294812e-05
Particle	3.134568977814292e-01	4.115617274585930e-02	1.000000000000000e-07	5.921148799832076e-06
Particle	2.564083591904757e-01	8.090990574748264e-02	9.999990000000000e-02	1.379440563983863e-05
Particle	3.300128303112872e-01	5.310588105215824e-02	9.999990000000000e-02	1.002004762325691e-05
Particle	1.243350891965915e-01	1.334306182101549e-02	9.999990000000000e-02	9.974374616371919e-06
Particle	2.383928157682743e-01	6.160296951234740e-03	9.999990000000000e-02	7.492732510162499e-06
Particle	4.155740658901195e-01	8.659182624397831e-02	9.999990000000000e-02	9.029918277892725e-06
Particle	4.455114781994054e-01	5.820579464551862e-02	9.999990000000000e-02	8.398561112660437e-06
Particle	4.711601299738644e-02	7.432820016282661e-02	9.999990000000000e-02	1.140272624142828e-05
Particle	1.861852046798863e-01	4.998197035403075e-02	9.999990000000000e-02	8.944027831848509e-06
Particle	4.211501330970695e-01	2.068763342559810e-03	9.999990000000000e-02	6.279236964413954e-06
Particle	1.355439940165797e-01	5.418842535119930e-02	9.999990000000000e-02	1.388521566064691e-05
Particle	4.815945981731439e-01	1.546070515749912e-02	9.999990000000000e-02	1.152171842102661e-05
Particle	3.789827837862751e-01	2.651611113951647e-02	9.999990000000000e-02	1.043070458253019e-05
Particle	2.076878095439520e-01	3.935825042744505e-03	9.999990000000000e-02	6.346011175245852e-06
Particle	4.412763798094465e-01	3.278238851571848e-02	9.999990000000000e-02	8.905531025216125e-06
Particle	2.254613992132020e-01	9.788711702482494e-02	9.999990000000000e-02	4.753209900181355e-06
Particle	8.402562100372498e-04	9.864006217549967e-02	9.999990000000000e-02	2.487487018724814e-06
Particle	8.065459087440627e-02	9.056935796009499e-02	9.999990000000000e-02	7.454291724798461e-06
Particle	2.931130767449316e-01	1.615241209532400e-02	9.999990000000000e-02	5.574235397511576e-06
Particle	2.976938996780799e-01	8.541236231271854e-02	9.999990000000000e-02	9.125364588558601e-06
Particle	4.456030787360636e-01	9.225638811335093e-02	9.999990000000000e-02	6.817834327918650e-06
Particle	2.640416151988165e-01	3.048506441394366e-02	9.999990000000000e-02	9.138793474930071e-06
Particle	1.635816578163001e-01	3.093750773252993e-02	9.999990000000000e-02	1.003961290129333e-05
Particle	4.931138045363320e-02	3.252907297221173e-02	9.999990000000000e-02	1.000606602740002e-05
Particle	2.340500097799941e-01	5.288731595049703e-02	9.999990000000000e-02	7.009748200434344e-06
Particle	1.178482827925174e-01	8.136071672954150e-02	9.999990000000000e-02	1.184175714715382e-05
Particle	4.768124899232706e-01	4.393404481494983e-02	9.999990000000000e-02	1.181238908811349e-05
Particle	8.232083947788510e-02	2.390486097849161e-02	9.999990000000000e-02	8.464782714627003e-06
Particle	1.057240413215010e-01	3.482653110889284e-02	9.999990000000000e-02	1.465802684309542e-05
Particle	6.854673806786851e-02	3.733922010160471e-02	9.999990000000000e-02	5.826994802491470e-06
Particle	4.165872153349644e-01	3.182084885622016e-02	9.999990000000000e-02	9.360231220274203e-06
Particle	2.413190067690039e-02	9.044146076119833e-02	9.999990000000000e-02	5.630481835744247e-06
Particle	2.993787859205980e-01	4.697854431697363e-02	9.999990000000000e-02	8.252248217082674e-06
Particle	5.992650029100587e-02	5.551700895908461e-02	9.999990000000000e-02	7.848280423911139e-06
Particle	3.908891250250862e-01	6.533692259537487e-02	9.999990000000000e-02	9.086115577597217e-06
Particle	1.102733287638170e-02	3.105201988242639e-02	9.999990000000000e-02	6.888955506494909e-06
Particle	1.816673254549904e-01	9.333207109856179e-03	9.999990000000000e-02	1.024314932501546e-05
Particle	3.475147782717268e-01	9.418709078495889e-02	9.999990000000000e-02	8.680673495271446e-06
Particle	1.441265236658573e-01	8.680810303936126e-02	9.999990000000000e-02	9.208378818083544e-06
Particle	1.213609694493361e-02	7.603690098257723e-02	9.999990000000000e-02	7.105618302342176e-06
Particle	4.156618895905261e-01	5.724734942077225e-02	9.999990000000000e-02	8.683292034894837e-06
Particle	3.739686650748821e-01	5.440954869308223e-03	9.999990000000000e-02	6.431176190630252e-06
Particle	3.520791357414458e-01	6.440632165658372e-02	9.999990000000000e-02	1.251600398436845e-05
Particle	2.159913806081909e-01	7.808550733205366e-02	9.999990000000000e-02	6.897745188540885e-06
Particle	4.535112934258398e-01	7.218340938321578e-03	9.999990000000000e-02	6.108532631474457e-06
Particle	1.794711846972720e-01	8.836434660631237e-02	9.999990000000000e-02	6.240300292858037e-06
Particle	3.896891958505558e-01	9.635837582736087e-02	9.999990000000000e-02	8.282328729789356e-06
Particle	2.415736908641222e-02	1.432024941068450e-03	9.999990000000000e-02	7.038596556659943e-06
Particle	1.631252427537384e-01	5.211608152719417e-03	9.999990000000000e-02	5.474201403465778e-06
Particle	2.127672790761687e-02	5.036935320445261e-02	9.999990000000000e-02	6.973781346262853e-06
Particle	1.102080002379375e-01	9.932354010401304e-02	9.999990000000000e-02	2.408781429737791e-06
Particle	4.558929187363499e-01	7.801280344269762e-02	9.999990000000000e-02	7.689610290247053e-06
Particle	1.599564904616712e-01	6.848603240957130e-02	9.999990000000000e-02	6.824441315722793e-06
Particle	1.494384567112590e-01	1.033763573682911e-02	9.999990000000000e-02	5.727229774773638e-06
Particle	2.673165552709696e-01	6.297132164316929e-03	9.999990000000000e-02	4.136781013331808e-06
Particle	1.812831332460241e-01	7.171863888431615e-02	9.999990000000000e-02	3.606363822756646e-06
Particle	3.571821179097677e-01	9.999990000000000e-02	7.435769324246408e-02	1.466224630579077e-05
Particle	3.908523654954378e-01	9.999990000000000e-02	4.654199908480199e-02	8.678355287578053e-06
Particle	1.341343279848069e-01	9.999990000000000e-02	4.802439012695539e-02	1.176154357119641e-05
Particle	2.169183727643310e-01	9.999990000000000e-02	4.841296390965542e-02	1.103118101879346e-05
Particle	3.202098566707036e-01	9.999990000000000e-02	6.793329691819271e-02	1.163006951315110e-05
Particle	1.924740136335414e-01	9.999990000000000e-02	2.188778803838918e-02	8.819594691398156e-06
Particle	9.802001987012698e-02	9.999990000000000e-02	2.105965833628659e-02	1.181945655728875e-05
Particle	6.064448826708824e-02	9.999990000000000e-02	3.904824900825339e-02	7.911286503741033e-06
Particle	3.239322023271435e-01	9.999990000000000e-02	3.732686813297571e-02	1.159166109015822e-05
Particle	4.401917748192689e-01	9.999990000000000e-02	5.235317223832078e-02	1.322812560400130e-05
Particle	2.756182929170887e-01	9.999990000000000e-02	1.911027120962812e-02	1.477898526741206e-05
Particle	1.684056154644002e-01	9.999990000000000e-02	3.654284170859395e-02	9.367500749002187e-06
Particle	1.893665676823201e-01	9.999990000000000e-02	7.267470830093412e-02	8.231267374475572e-06
Particle	1.051979152180117e-01	9.999990000000000e-02	5.425104803305471e-02	9.005426000432188e-06
Particle	2.618580124849219e-01	9.999990000000000e-02	6.177270939007808e-02	9.112971962099732e-06
Particle	4.896733013183610e-01	9.999990000000000e-02	5.559307896840859e-02	7.640012222546356e-06
Particle	5.065699365604177e-02	9.999990000000000e-02	9.469360259978823e-02	6.537358029647122e-06
Particle	3.835103128756797e-01	9.999990000000000e-02	1.282555673887841e-03	3.278053084662791e-06
Particle	2.027649099323433e-02	9.999990000000000e-02	7.773744067646834e-02	7.127328385809574e-06
Particle	1.608662776773862e-01	9.999990000000000e-02	8.199371856767133e-02	8.958112853428787e-06
Particle	2.428432905086934e-01	9.999990000000000e-02	8.683990163171540e-02	9.014767676593093e-06
Particle	4.939609651125731e-01	9.999990000000000e-02	2.054941752729671e-02	8.655528671153781e-06
Particle	7.182049156176551e-02	9.999990000000000e-02	8.362465901945884e-02	6.729486465290100e-06
Particle	2.536030709339964e-01	9.999990000000000e-02	2.933929190109291e-02	1.007254692879341e-05
Particle	3.101249731296280e-01	9.999990000000000e-02	1.639795894712173e-02	1.080885572358166e-05
Particle	2.261792880402161e-01	9.999990000000000e-02	9.214873491726207e-03	7.287829882472995e-06
Particle	2.052403226285244e-01	9.999990000000000e-02	6.612818239075878e-04	3.224975155246806e-06
Particle	4.599035380988741e-01	9.999990000000000e-02	3.664614429872234e-02	1.011156717979392e-05
Particle	2.868677857029692e-01	9.999990000000000e-02	6.362630418105440e-02	1.163541451087435e-05
Particle	2.127265252195500e-02	9.999990000000000e-02	2.962760100059730e-02	5.896320730776792e-06
Particle	3.526656832556358e-03	9.999990000000000e-02	1.150559485088743e-02	4.105981535487376e-06
Particle	3.465411272937592e-01	9.999990000000000e-02	4.223806372955164e-02	1.265697356670550e-05
Particle	1.926479283091296e-01	9.999990000000000e-02	4.541531733900046e-02	8.545970746791399e-06
Particle	3.852464117297109e-03	9.999990000000000e-02	5.943937921073211e-02	5.114454463024808e-06
Particle	4.498072735005779e-01	9.999990000000000e-02	1.654007531310608e-02	7.134375758606448e-06
Particle	1.458332753461826e-01	9.999990000000000e-02	2.388654992642908e-02	7.383140490517439e-06
Particle	2.274972982198361e-01	9.999990000000000e-02	6.977395110979892e-02	8.837173319966018e-06
Particle	4.335376730748003e-01	9.999990000000000e-02	2.374060900389752e-02	8.400177768209655e-06
Particle	4.861734528015975e-01	9.999990000000000e-02	9.020815277417385e-02	5.078297380631153e-06
Particle	4.142782130406206e-01	9.999990000000000e-02	5.700177689910494e-02	9.538466174082268e-06
Particle	6.682156235904627e-02	9.999990000000000e-02	6.493946933672323e-02	7.411679873978078e-06
Particle	9.258972529339443e-02	9.999990000000000e-02	8.859210418103668e-02	5.037973118154368e-06
Particle	1.248745581361880e-01	9.999990000000000e-02	9.359098695955695e-02	3.927487185795568e-06
Particle	4.139474037228173e-01	9.999990000000000e-02	2.562457088389023e-02	5.962848260061557e-06
Particle	3.758891566947501e-02	9.999990000000000e-02	7.066259087293250e-02	8.552996524623908e-06
Particle	3.282961637711308e-01	9.999990000000000e-02	9.333547901380615e-03	5.863792898809137e-06
Particle	4.310579642984699e-01	9.999990000000000e-02	9.192204074383391e-02	7.628338280440637e-06
Particle	3.884563128580237e-01	9.999990000000000e-02	7.177678534011721e-02	7.912690477469100e-06
Particle	2.686874903433406e-01	9.999990000000000e-02	8.896096209434028e-02	9.436116009460617e-06
Particle	2.456613068305257e-01	9.999990000000000e-02	5.192363554073239e-02	8.635083292044920e-06
Particle	3.276450627976549e-01	9.999990000000000e-02	9.596240958084143e-02	5.772909079012355e-06
Particle	4.115486822502480e-02	9.999990000000000e-02	2.932957502703135e-02	6.271365366060741e-06
Particle	1.757364991285684e-01	9.999990000000000e-02	5.959411456471037e-02	8.478656701426807e-06
Particle	3.871791590493739e-01	9.999990000000000e-02	2.184511276188273e-02	7.498823061439359e-06
Particle	1.792020249110399e-01	9.999990000000000e-02	1.179913616159380e-03	3.502992079443043e-06
Particle	1.660292102345585e-01	1.000000000000000e-07	4.944537074426017e-02	1.378568661326990e-05
Particle	5.933725416563403e-02	1.000000000000000e-07	8.668389907094520e-02	1.174981774563589e-05
Particle	4.710460855947672e-01	1.000000000000000e-07	2.665509946715900e-02	1.428747651265190e-05
Particle	2.993570470651880e-01	1.000000000000000e-07	1.826590198970942e-02	1.048872936702383e-05
Particle	3.153968824537266e-01	1.000000000000000e-07	6.209473401303506e-02	1.113950421483192e-05
Particle	2.037046605284273e-01	1.000000000000000e-07	6.767126811135962e-02	1.042151173701775e-05
Particle	8.480533914703142e-02	1.000000000000000e-07	2.606506979304733e-02	1.118257670222979e-05
Particle	2.058745659937810e-01	1.000000000000000e-07	1.901869167397971e-02	1.037492769862792e-05
Particle	1.311209169605595e-01	1.000000000000000e-07	4.920397511900483e-02	9.569491819946595e-06
Particle	3.766694020965732e-01	1.000000000000000e-07	2.425050174415620e-02	8.241827399117319e-06
Particle	3.876250379424885e-01	1.000000000000000e-07	8.346706217527691e-02	8.557473811739316e-06
Particle	3.303950541774326e-01	1.000000000000000e-07	8.878908740884396e-02	1.142059185125604e-05
Particle	4.062674801312275e-01	1.000000000000000e-07	5.255420713616597e-02	1.011595800806085e-05
Particle	1.994888657673421e-02	1.000000000000000e-07	6.279466926973430e-02	9.006542537573693e-06
Particle	4.335025977426447e-01	1.000000000000000e-07	5.919766431485684e-02	1.137994157237760e-05
Particle	3.330963650557335e-01	1.000000000000000e-07	2.673006457435822e-02	9.707312726736770e-06
Particle	3.590827145278337e-01	1.000000000000000e-07	7.453338437457413e-02	1.161098941635070e-05
Particle	4.672088752883778e-01	1.000000000000000e-07	5.880889077637091e-02	1.179334747745063e-05
Particle	2.790362024692813e-01	1.000000000000000e-07	7.217280136233969e-02	7.293717068948235e-06
Particle	6.456443603809132e-02	1.000000000000000e-07	4.185858360699888e-02	7.583844557903356e-06
Particle	2.446387708256753e-01	1.000000000000000e-07	6.808489858452427e-02	8.810915008122202e-06
Particle	4.501923202865849e-01	1.000000000000000e-07	8.336920012939360e-02	7.163499372686097e-06
Particle	4.087153271256115e-01	1.000000000000000e-07	1.568504316370084e-02	5.723488888013110e-06
Particle	2.535257942421697e-01	1.000000000000000e-07	3.418683900897691e-02	6.868384104038948e-06
Particle	4.993983053816760e-01	1.000000000000000e-07	4.952257224525004e-02	6.051950462109830e-06
Particle	1.348349369714765e-01	1.000000000000000e-07	2.032673068680587e-02	9.426473631296613e-06
Particle	2.684239527282071e-01	1.000000000000000e-07	5.588598269064509e-03	7.010204733099446e-06
Particle	3.007194064175993e-01	1.000000000000000e-07	9.014455112120678e-02	5.972277287429595e-06
Particle	1.439704660066648e-01	1.000000000000000e-07	7.355377480497975e-02	1.177618294305179e-05
Particle	8.518650049633797e-02	1.000000000000000e-07	6.237745797349471e-02	7.154039284150636e-06
Particle	1.071501722887513e-01	1.000000000000000e-07	6.009616507335366e-02	7.981824612244040e-06
Particle	3.708588123018076e-02	1.000000000000000e-07	4.495956151159665e-02	7.272736211353878e-06
Particle	1.035761662557043e-01	1.000000000000000e-07	9.685707746501870e-02	4.577616580515285e-06
Particle	1.047122612694791e-02	1.000000000000000e-07	8.456821275699880e-02	6.500788095600607e-06
Particle	4.199274372555489e-01	1.000000000000000e-07	3.566434295476394e-02	6.190905489775797e-06
Particle	5.595708638785645e-02	1.000000000000000e-07	6.027863269178756e-02	6.169176930968213e-06
Particle	2.190522423276085e-01	1.000000000000000e-07	1.660273165561928e-03	4.909079555025744e-06
Particle	5.010852296148497e-02	1.000000000000000e-07	2.382831892104394e-02	6.749165687228024e-06
Particle	2.233091439753232e-01	1.000000000000000e-07	8.349623186876759e-02	5.241142390021105e-06
Particle	1.992124022697690e-01	1.000000000000000e-07	4.244094666629428e-02	1.131665965639359e-05
Particle	3.542799553514587e-01	1.000000000000000e-07	1.406450901745482e-02	5.935550432737619e-06
Particle	3.680609963211910e-01	1.000000000000000e-07	5.568067345155502e-02	6.463177237629362e-06
Particle	1.629166690966363e-02	1.000000000000000e-07	2.034999551711055e-02	7.701348206411495e-06
Particle	2.379423069672909e-01	1.000000000000000e-07	1.337632169375880e-02	7.865271382797924e-06
Particle	4.937665705703447e-01	1.000000000000000e-07	6.675228741100807e-02	5.852159842997532e-06
Particle	2.781291651555286e-01	1.000000000000000e-07	3.008233084050530e-02	5.466087534059940e-06
Particle	3.507913576337462e-01	1.000000000000000e-07	4.508493891486979e-02	7.602409110665851e-06
Particle	2.691271052982009e-01	1.000000000000000e-07	4.526674356092387e-02	4.901851228890903e-06
Particle	1.195169581197678e-01	1.000000000000000e-07	3.214244921353719e-02	8.319183285937735e-06
Particle	2.747474870779531e-01	1.000000000000000e-07	9.037293272163144e-02	4.483539467317779e-06
Particle	8.597536400234268e-02	1.000000000000000e-07	7.981584955589321e-02	6.826049179607847e-06
Particle	3.014190107197254e-01	1.000000000000000e-07	4.504341448242564e-02	7.215785200238226e-06
Particle	1.092860541039528e-01	1.000000000000000e-07	7.576598155022800e-03	9.364972604923913e-06
Particle	4.357744022544189e-01	1.000000000000000e-07	2.667086789967074e-02	6.688939456481916e-06
Particle	1.237675953476892e-03	1.000000000000000e-07	2.661327807020612e-02	2.250636268292326e-06
Particle	1.000000000000000e-07	4.173581485568516e-02	5.050521177992558e-02	9.768418870014212e-06
Particle	1.000000000000000e-07	6.565791133498612e-02	7.824827260229168e-02	9.356539778613508e-06
Particle	1.000000000000000e-07	8.074164863128740e-02	3.144383780258968e-02	9.220889371025918e-06
Particle	1.000000000000000e-07	5.112415826586404e-02	2.345504268085818e-02	1.164485866265524e-05
Particle	1.000000000000000e-07	2.737051945934261e-02	7.685758875780584e-02	9.909831710181232e-06
Particle	1.000000000000000e-07	8.687668163085027e-03	5.316663143530118e-02	6.554630518936407e-06
Particle	1.000000000000000e-07	4.412759263161565e-02	9.406572589311352e-02	4.188837218446903e-06
Particle	1.000000000000000e-07	9.233495040074596e-03	9.485398278787847e-02	3.327046114965063e-06
Particle	1.000000000000000e-07	1.625351183391309e-02	2.964461448134648e-02	5.174647293676702e-06
Particle	1.000000000000000e-07	3.136395511077283e-02	2.801284011223331e-02	5.438502049600846e-06
Particle	1.000000000000000e-07	8.234586043707190e-02	5.485035610708733e-02	7.303993192940238e-06
Particle	4.999999000000000e-01	3.194049681366996e-02	4.668204189799693e-02	1.435634287927639e-05
Particle	4.999999000000000e-01	5.460283255508786e-02	7.674084188130943e-02	1.220189907454925e-05
Particle	4.999999000000000e-01	7.481186663979104e-02	5.737129820614589e-02	8.413377221273194e-06
Particle	4.999999000000000e-01	4.544077894914637e-02	1.052836503182000e-02	8.300225816422175e-06
Particle	4.999999000000000e-01	1.314002240778177e-02	7.689713233518661e-02	8.655657728877867e-06
Particle	4.999999000000000e-01	2.098350665675850e-02	2.221448956392946e-02	1.028300626654491e-05
Particle	4.999999000000000e-01	6.302047202127802e-02	2.283713042906104e-02	7.839831438032425e-06
Particle	4.999999000000000e-01	4.077373367436081e-02	9.393603609314254e-02	6.857985263180481e-06
Particle	4.999999000000000e-01	9.329232640425675e-02	9.006455579140157e-02	4.115797502408581e-06
Particle	4.999999000000000e-01	8.385192369109441e-02	1.584120404117028e-03	3.141987956513922e-06
Particle	4.999999000000000e-01	8.764052415070579e-02	7.532950447975498e-02	6.433015475063718e-06
Particle	1.098257008412716e-01	5.161654200876976e-02	6.699140784373041e-02	3.050875807719059e-05
Particle	4.554306857267839e-01	7.538860354309623e-02	6.592820337058540e-02	2.448926289615126e-05
Particle	8.869553788658524e-02	4.948302830133999e-02	2.974104861247057e-02	2.467378833768393e-05
Particle	1.750353422420685e-01	6.785189653244648e-02	2.707689677770957e-02	2.414801050794572e-05
Particle	4.562273333099870e-02	5.942228263816945e-02	6.637279494368260e-02	2.201511513194885e-05
Particle	2.845671582362236e-02	6.013318680788209e-02	3.109309780736271e-02	2.211145618892167e-05
Particle	3.330051823544466e-01	7.386335165465663e-02	5.555760002102949e-02	2.640603018452070e-05
Particle	4.257388695795276e-01	6.656284914353199e-02	4.489791434436662e-02	2.225823868211359e-05
Particle	4.280930589038064e-01	2.714689087420148e-02	7.681866126841679e-02	2.048319825065175e-05
Particle	3.050636310406985e-01	5.577851359089744e-02	6.651752534866021e-02	2.249114187546889e-05
Particle	2.152907439629669e-01	4.491722198437530e-02	5.560916408219644e-02	2.452820069726098e-05
Particle	2.950829316302568e-01	7.291765600247789e-02	3.491169162015328e-02	2.757770221149786e-05
Particle	4.239244559665585e-01	2.521927666660835e-02	3.858600525096217e-02	1.897531752974368e-05
Particle	2.907650413448555e-01	3.349363032201817e-02	4.210824488779694e-02	1.781156072569418e-05
Particle	3.409994610197418e-01	2.904839953651661e-02	5.878305690027477e-02	2.340479926825123e-05
Particle	3.755511324932626e-01	3.708719019678149e-02	3.274904139269741e-02	2.018451539247567e-05
Particle	3.641909406771969e-01	7.301156988760298e-02	3.518592179867561e-02	2.090515749784873e-05
Particle	5.393397884992257e-02	3.439122473669164e-02	4.518742739469057e-02	2.255842197032788e-05
Particle	3.830316882876624e-01	4.420839206960919e-02	6.218016383874508e-02	2.059641786705135e-05
Particle	3.944198958387134e-01	6.958251731956078e-02	4.540866184333175e-02	1.921248355335250e-05
Particle	2.688511000407495e-01	4.431605052074431e-02	7.074570551134564e-02	1.978070310881203e-05
Particle	1.548379058407113e-01	2.191875467313294e-02	2.944236261676575e-02	2.644750483173965e-05
Particle	2.198369926493419e-01	2.530962103523177e-02	2.578946377350433e-02	2.295265592984189e-05
Particle	4.562917779595713e-01	2.474862172605946e-02	5.068757820776763e-02	2.472371985840563e-05
Particle	1.643580715383645e-01	2.869936038942854e-02	6.672747818225265e-02	2.246174012540337e-05
Particle	1.353011429396655e-01	5.503272925574927e-02	3.769939643817838e-02	2.058044742787151e-05
Particle	1.499562978703475e-01	5.229672507031990e-02	7.609459459989326e-02	2.023529465403894e-05
Particle	3.249060312235807e-01	2.413851408735542e-02	1.413127652823875e-02	1.584202916224829e-05
Particle	2.628697577485678e-01	7.422990855494636e-02	3.658058484680952e-02	2.334427119927373e-05
Particle	2.680571467878068e-01	7.378242647447135e-02	6.595449651031653e-02	2.454251394100884e-05
Particle	8.151814528336088e-02	2.650893202363336e-02	7.489819000387815e-02	1.674261207571428e-05
Particle	2.005712999028464e-01	7.296510157142537e-02	6.087863057517828e-02	2.141281214803495e-05
Particle	1.102954855363127e-01	7.344560188993460e-02	4.156789917309303e-02	2.373644545999821e-05
Particle	1.222404656622466e-01	2.841778744339306e-02	3.839289779554066e-02	2.064689956568576e-05
Particle	4.450671105011310e-01	4.566585042228034e-02	2.546067934465823e-02	2.453472073590943e-05
Particle	3.781101998071740e-02	3.094627757678702e-02	7.372211162715472e-02	2.056821408996224e-05
Particle	4.138480883208401e-01	5.604768912741831e-02	6.962120680873715e-02	2.085596187806135e-05
Particle	1.855715295634555e-01	2.937047170424649e-02	3.528351492017093e-02	2.631280111713274e-05
Particle	2.002671488495508e-01	2.595575345616047e-02	7.938011549619406e-02	2.336654285292330e-05
Particle	9.904663479562276e-02	8.331188120074573e-02	7.468182434309266e-02	2.033234088806554e-05
Particle	2.148089892431759e-01	5.330277083671947e-02	2.754091632178345e-02	1.965427974833960e-05
Particle	3.515649812081637e-01	2.796011819882173e-02	1.931387715570759e-02	1.640397355436371e-05
Particle	3.801057207495559e-01	6.926184096704216e-02	7.893945822715025e-02	2.108259026702804e-05
Particle	2.594488969500386e-01	2.447530188153057e-02	3.403800946501034e-02	1.773214908914909e-05
Particle	4.471093847652417e-01	7.258197836743528e-02	2.449035827942691e-02	2.139536912687236e-05
Particle	3.180055333024320e-01	5.262251059964750e-02	3.804230736774075e-02	2.140988851755242e-05
Particle	2.240317610255571e-02	2.754281315551270e-02	2.551677364897157e-02	1.820819857488879e-05
Particle	1.275786628312030e-01	2.288488312310042e-02	6.472826107431771e-02	2.018623941737155e-05
Particle	7.062374122540932e-02	6.856067285517393e-02	4.307257996675162e-02	1.701504394839853e-05
Particle	4.030467401421040e-01	3.928361246668286e-02	2.406233075387905e-02	1.851211714791634e-05
Particle	4.751176630698831e-01	2.767446019714134e-02	7.397304856890312e-02	2.159613699117080e-05
Particle	8.164079874157970e-02	6.165181218962743e-02	8.273202336178434e-02	2.363072030492644e-05
Particle	2.430457007504847e-01	2.673235546549775e-02	6.254693384273033e-02	1.636648684891048e-05
Particle	2.320263339976367e-01	6.598339099330948e-02	6.920381217421535e-02	2.238812873942800e-05
Particle	4.561016118987936e-01	4.649528659441235e-02	7.765899800055809e-02	2.054277184309994e-05
Particle	5.826985975820026e-02	5.457288169005961e-02	2.227398735445969e-02	2.331288621445461e-05
Particle	3.124216836176655e-01	2.057675434326357e-02	8.618727108972979e-02	1.898433266893868e-05
Particle	1.352138186187954e-01	7.788896390124576e-02	6.637903168518179e-02	2.710556383690088e-05
Particle	2.355109822292558e-01	7.619335215022820e-02	3.966690101916159e-02	2.152006704470837e-05
Particle	3.564483436641733e-01	5.870930985432554e-02	7.424297084388438e-02	2.170603534139353e-05
Particle	1.896679111249689e-01	4.955011999274668e-02	7.281466810952990e-02	1.967671429390781e-05
Particle	4.841954541566370e-01	6.190322755200145e-02	3.637491535858321e-02	1.756477475903014e-05
Particle	1.052898772020788e-01	1.456419607273715e-02	7.747797720120912e-02	1.565167618541588e-05
Particle	1.655213296571434e-01	7.167745904767193e-02	6.489037843230756e-02	2.089954686933867e-05
Particle	3.479161154741317e-01	5.472151426965109e-02	2.223300008410345e-02	1.773177543638869e-05
Particle	2.526840555017670e-01	4.914334205849594e-02	1.945592277327367e-02	1.623277528709861e-05
Particle	7.310405905105194e-02	2.415127268577734e-02	2.162185310040299e-02	2.311942623186333e-05
Particle	2.968379638322293e-01	8.425502834202903e-02	7.479027806798084e-02	1.962071170076656e-05
Particle	3.963054106479325e-01	4.456857588801875e-02	9.232771302398837e-02	1.577993133853203e-05
Particle	2.024862871093259e-01	7.595957515226792e-02	2.972246459335197e-02	2.002546231534936e-05
Particle	1.689787238992668e-01	5.092275860047485e-02	5.106267532595335e-02	2.016712039972775e-05
Particle	3.392845728150954e-01	7.728427281805883e-02	2.223686901163301e-02	1.714255419655501e-05
Particle	3.905941357119349e-01	7.840386004703576e-02	1.777425720021350e-02	1.406734501580350e-05
Particle	2.497056957234456e-02	8.191255365269468e-02	4.808312717742590e-02	1.591223982111021e-05
Particle	2.850339552828893e-01	3.495617835298014e-02	8.983710507192984e-02	1.527033886882539e-05
Particle	4.002476264260142e-01	2.398099575165594e-02	6.444134643632003e-02	1.979521244626653e-05
Particle	9.503476427742119e-02	2.250702636416390e-02	3.436182883536489e-02	1.940757231035242e-05
Particle	4.576051768999568e-01	5.839309446111195e-02	4.362480052831798e-02	1.950457554897486e-05
Particle	4.805218908308037e-01	3.409085401113001e-02	2.474335059466751e-02	2.419862964110629e-05
Particle	2.779378349432491e-01	4.736021364882383e-02	1.695795220564765e-02	1.654479331480227e-05
Particle	1.442897465498585e-01	8.006577060143039e-02	3.154132602973956e-02	2.140437252225639e-05
Particle	3.441756472956859e-01	3.148506952432345e-02	8.821275409206368e-02	2.468224563399258e-05
Particle	4.027271395231313e-01	8.369907701917689e-02	6.950321730453415e-02	1.929139062217165e-05
Particle	2.711688319723041e-01	2.133423769016692e-02	5.549736885391086e-02	1.451931421341156e-05
Particle	2.720404444714281e-02	7.686298630211265e-02	7.737223658293151e-02	1.739763154578831e-05
Particle	6.947963450443562e-02	7.981378677260456e-02	2.105979483469347e-02	1.793012022627751e-05
Particle	2.112480271943601e-01	5.992150666938543e-02	9.170092960831507e-02	1.294893538209539e-05
Particle	4.748359408019999e-01	8.131777957188752e-02	8.495562793969061e-02	2.306555201451078e-05
Particle	8.340595450377292e-02	4.843938887383817e-02	5.748651426296866e-02	2.020956091810234e-05
Particle	2.925427220634462e-01	2.165491959610997e-02	7.031777498916830e-02	1.589776312902852e-05
Particle	3.730524071423546e-01	1.954898503250844e-02	5.318465584296272e-02	1.725228309099722e-05
Particle	7.332837349405358e-02	7.714789302929612e-02	6.612082253522059e-02	1.672504951837800e-05
Particle	4.721715684002470e-01	7.386178476081001e-02	1.366358668980922e-02	2.021016060672333e-05
Particle	1.222932787971035e-01	6.385816869995194e-02	1.771551993491914e-02	1.727989025162724e-05
Particle	2.253944834176760e-01	1.786918388772587e-02	7.709747792917028e-02	1.732970856814876e-05
Particle	3.578770344001126e-01	5.069685202901634e-02	5.032540333340392e-02	1.984114993452153e-05
Particle	4.446764451852159e-01	1.761856625631151e-02	2.318172439390353e-02	1.735766505264947e-05
Particle	4.149280741094858e-01	6.648952284874572e-02	1.770967965068614e-02	2.174006275009884e-05
Particle	4.356934083562136e-01	4.321261255898782e-02	5.498064359467850e-02	1.924201117076535e-05
Particle	3.169635883995622e-01	2.286198219181539e-02	3.963410490171636e-02	1.748499020711922e-05
Particle	2.466024868176708e-01	5.276733229139479e-02	8.298259507481114e-02	1.894663952321795e-05
Particle	4.742099595395621e-02	8.135944881849863e-02	3.015913281104070e-02	1.368819793320238e-05
Particle	4.317161257528052e-01	7.070404233749253e-02	8.178268648288779e-02	2.155800815430761e-05
Particle	4.765132316361166e-01	5.680663489887636e-02	6.085215788024170e-02	2.081983973648935e-05
Particle	1.874999545201982e-01	1.608586070448185e-02	5.562122748081627e-02	2.036845157056538e-05
Particle	1.549226832702408e-01	4.862504759965796e-02	1.923637386437893e-02	2.642823463310112e-05
Particle	3.790647398337123e-01	2.243083544611864e-02	7.655569054365306e-02	1.798747660390738e-05
Particle	3.655655321361476e-01	8.403449220679429e-02	1.019865005757533e-02	1.448143818679046e-05
Particle	3.008161440862058e-01	2.955636227865083e-02	1.719718097108848e-02	1.660983082153899e-05
Particle	1.471371462056039e-01	3.690554107664892e-02	5.042000485988336e-02	1.866663388238062e-05
Particle	4.106451379285926e-01	4.271015122681188e-03	7.728966566208183e-02	1.201813108470238e-05
Particle	2.579993045892816e-01	1.863449158699252e-02	7.947861407134010e-02	1.642405335386755e-05
Particle	2.270845270091981e-02	1.490698164954483e-02	4.636941041523199e-02	1.409215854040950e-05
Particle	1.270643096720597e-01	4.143191747219124e-02	1.820049649965810e-02	1.751813925926399e-05
Particle	3.740498615159892e-01	8.040685486488863e-02	5.804414583044910e-02	1.981567210005907e-05
Particle	4.779784635086022e-01	8.367052691389865e-02	4.707068811627046e-02	1.905060186676800e-05
Particle	2.824358171913309e-01	5.813128597348557e-02	5.372366444881187e-02	1.701039715286290e-05
Particle	1.012890374663133e-01	7.592921974345003e-02	1.866274910220776e-02	1.610737469479186e-05
Particle	3.224909580869078e-01	7.704868823572326e-02	8.370336136992874e-02	1.996668455920683e-05
Particle	7.664291019986141e-02	2.274137520009809e-02	5.018493854824956e-02	1.499545943942016e-05
Particle	1.938193887538915e-01	7.292727416465566e-02	8.449006892728154e-02	1.168559594563472e-05
Particle	8.711200510918804e-02	8.427652159031479e-02	4.979767910789093e-02	1.743007949615647e-05
Particle	1.015874433098504e-01	2.775525898625338e-02	5.660466648747425e-02	1.591067859654960e-05
Particle	1.740771560411197e-01	8.403917649128279e-02	8.182539548302037e-02	1.059662828816409e-05
Particle	2.042779826095958e-02	6.103595690215005e-02	5.654627264651910e-02	1.659923288609678e-05
Particle	4.085503187514539e-01	4.446917314053052e-02	4.601742303296513e-02	1.784189400680787e-05
Particle	3.875492292077837e-01	5.619519326056828e-02	2.047986611841202e-02	1.994797724774588e-05
Particle	5.784497282694478e-02	1.723270840115633e-02	6.677357468471688e-02	1.571145398557701e-05
Particle	4.467276309206680e-02	1.928208961169013e-02	2.338118985702635e-02	1.748438725141394e-05
Particle	1.935990469424685e-01	5.213732174830102e-02	3.914827972419310e-02	1.902570977448761e-05
Particle	2.999945222842539e-01	6.627957429078722e-02	9.114024262933321e-02	1.617817822047441e-05
Particle	5.019568506493072e-02	8.106536385154861e-02	5.216114503326935e-02	1.582953794234892e-05
Particle	2.365790238620601e-01	1.533447798879714e-02	4.349021736048199e-02	2.027089712233959e-05
Particle	3.586660826710346e-01	1.333999550944701e-02	3.627054868466072e-02	1.355926937334863e-05
Particle	2.609226890790256e-02	3.630152930101931e-02	5.181526003497111e-02	1.721370961340456e-05
Particle	3.107935730025786e-01	2.884567612144242e-02	6.070609361697178e-02	1.704848397781230e-05
Particle	2.337275026103175e-02	8.369367837926184e-02	1.817594814811687e-02	1.312485486749702e-05
Particle	3.930047038138975e-01	1.689597864332704e-02	2.361945353741445e-02	1.755311629256736e-05
Particle	3.337404600812328e-01	5.304762991733197e-02	7.223079640526507e-02	1.912067977233773e-05
Particle	1.239832967901256e-01	9.986632828704317e-02	7.497628468967893e-02	8.436047225014647e-06
Particle	2.275291708581942e-01	4.266376574472125e-02	8.295183048832486e-02	1.764091821449105e-05
Particle	3.034379575723737e-01	5.765295889458837e-02	1.621009194289641e-02	1.456028578141987e-05
Particle	1.701767432158648e-01	6.283609592425272e-02	8.526493887684367e-02	1.185580364508435e-05
Particle	2.780801693211086e-01	2.311241891684595e-02	1.349752470316319e-02	1.847217762853126e-05
Particle	6.125393918096644e-02	4.266488450097052e-02	8.223897089012719e-02	1.554565545561935e-05
Particle	2.269800155032968e-01	7.775537392405837e-02	1.896725926124591e-02	1.648853909172220e-05
Particle	1.463459040142324e-01	2.930512840640929e-02	8.351921273525222e-02	1.761702968775615e-05
Particle	2.356545367517935e-01	4.262484853765913e-02	3.251722530299006e-02	1.622562933736799e-05
Particle	2.174457710053729e-02	4.638025480529019e-02	8.146451212822220e-02	1.597180459204152e-05
Particle	2.705441418332388e-01	4.792710226072514e-02	3.744295648900244e-02	1.355337698602537e-05
Particle	2.839038468088915e-01	8.494793372774269e-03	4.393791202115228e-02	9.910632333325268e-06
Particle	4.169066713269825e-01	1.874467735795366e-02	1.513034806673285e-02	1.417186385949047e-05
Particle	2.125562357397186e-01	8.057230073996741e-02	7.985248720081617e-02	1.467085640556857e-05
Particle	3.150139895937523e-01	7.534687159313690e-02	1.736059092439113e-02	1.500437929152852e-05
Particle	4.093562318114185e-01	8.496736021176614e-02	3.288283773691533e-02	1.364213789868458e-05
Particle	4.525373381289221e-01	2.034519891604667e-02	7.811637821540864e-02	1.546525062657592e-05
Particle	3.365623380371180e-01	3.892239288243565e-02	3.579564439936316e-02	1.587592543441563e-05
Particle	1.601463109416110e-01	8.929261522392921e-02	1.930038270309222e-02	1.126907102943862e-05
