NodalBC	0	0	0	0	-1	-1	-1
NodalBC	1	0	-1	0	-1	-1	-1
NodalBC	2	0	-1	-1	-1	-1	-1
NodalBC	3	0	0	-1	-1	-1	-1
NodalBC	8	0	-1	-1	-1	-1	-1
NodalBC	9	0	-1	-1	-1	-1	-1
NodalBC	10	0	-1	-1	-1	-1	-1
NodalBC	11	0	-1	-1	-1	-1	-1
NodalBC	12	0	-1	-1	-1	-1	-1
NodalBC	13	0	-1	-1	-1	-1	-1
NodalBC	14	0	-1	-1	-1	-1	-1
NodalBC	15	0	-1	-1	-1	-1	-1
NodalBC	16	0	-1	-1	-1	-1	-1
NodalBC	17	0	-1	-1	-1	-1	-1
NodalBC	18	0	-1	-1	-1	-1	-1
NodalBC	19	0	-1	-1	-1	-1	-1
NodalBC	20	0	-1	-1	-1	-1	-1
NodalBC	21	0	-1	-1	-1	-1	-1
NodalBC	22	0	-1	-1	-1	-1	-1
NodalBC	23	0	-1	-1	-1	-1	-1
NodalBC	56	0	-1	-1	-1	-1	-1
NodalBC	57	0	-1	-1	-1	-1	-1
NodalBC	58	0	-1	-1	-1	-1	-1
NodalBC	59	0	-1	-1	-1	-1	-1
NodalBC	60	0	-1	-1	-1	-1	-1
NodalBC	61	0	-1	-1	-1	-1	-1
NodalBC	62	0	-1	-1	-1	-1	-1
NodalBC	63	0	-1	-1	-1	-1	-1
NodalBC	64	0	-1	-1	-1	-1	-1
NodalBC	65	0	-1	-1	-1	-1	-1
NodalBC	66	0	-1	-1	-1	-1	-1
NodalBC	67	0	-1	-1	-1	-1	-1
NodalBC	68	0	-1	-1	-1	-1	-1
NodalBC	69	0	-1	-1	-1	-1	-1
NodalBC	70	0	-1	-1	-1	-1	-1
NodalBC	71	0	-1	-1	-1	-1	-1
NodalBC	72	0	-1	-1	-1	-1	-1
NodalBC	73	0	-1	-1	-1	-1	-1
NodalBC	74	0	-1	-1	-1	-1	-1
NodalBC	75	0	-1	-1	-1	-1	-1
NodalBC	76	0	-1	-1	-1	-1	-1
NodalBC	77	0	-1	-1	-1	-1	-1
NodalBC	78	0	-1	-1	-1	-1	-1
NodalBC	79	0	-1	-1	-1	-1	-1
NodalBC	4	1	-1	-1	-1	-1	-1
NodalBC	5	1	-1	-1	-1	-1	-1
NodalBC	6	1	-1	-1	-1	-1	-1
NodalBC	7	1	-1	-1	-1	-1	-1
NodalBC	24	1	-1	-1	-1	-1	-1
NodalBC	25	1	-1	-1	-1	-1	-1
NodalBC	26	1	-1	-1	-1	-1	-1
NodalBC	27	1	-1	-1	-1	-1	-1
NodalBC	28	1	-1	-1	-1	-1	-1
NodalBC	29	1	-1	-1	-1	-1	-1
NodalBC	30	1	-1	-1	-1	-1	-1
NodalBC	31	1	-1	-1	-1	-1	-1
NodalBC	32	1	-1	-1	-1	-1	-1
NodalBC	33	1	-1	-1	-1	-1	-1
NodalBC	34	1	-1	-1	-1	-1	-1
NodalBC	35	1	-1	-1	-1	-1	-1
NodalBC	36	1	-1	-1	-1	-1	-1
NodalBC	37	1	-1	-1	-1	-1	-1
NodalBC	38	1	-1	-1	-1	-1	-1
NodalBC	39	1	-1	-1	-1	-1	-1
NodalBC	80	1	-1	-1	-1	-1	-1
NodalBC	81	1	-1	-1	-1	-1	-1
NodalBC	82	1	-1	-1	-1	-1	-1
NodalBC	83	1	-1	-1	-1	-1	-1
NodalBC	84	1	-1	-1	-1	-1	-1
NodalBC	85	1	-1	-1	-1	-1	-1
NodalBC	86	1	-1	-1	-1	-1	-1
NodalBC	87	1	-1	-1	-1	-1	-1
NodalBC	88	1	-1	-1	-1	-1	-1
NodalBC	89	1	-1	-1	-1	-1	-1
NodalBC	90	1	-1	-1	-1	-1	-1
NodalBC	91	1	-1	-1	-1	-1	-1
NodalBC	92	1	-1	-1	-1	-1	-1
NodalBC	93	1	-1	-1	-1	-1	-1
NodalBC	94	1	-1	-1	-1	-1	-1
NodalBC	95	1	-1	-1	-1	-1	-1
NodalBC	96	1	-1	-1	-1	-1	-1
NodalBC	97	1	-1	-1	-1	-1	-1
NodalBC	98	1	-1	-1	-1	-1	-1
NodalBC	99	1	-1	-1	-1	-1	-1
NodalBC	100	1	-1	-1	-1	-1	-1
NodalBC	101	1	-1	-1	-1	-1	-1
NodalBC	102	1	-1	-1	-1	-1	-1
NodalBC	103	1	-1	-1	-1	-1	-1
