# Type	nodeCrdX	nodeCrdY	nodeCrdZ	powRadius
Particle	2.716455435126173e-02	3.644753639495035e-02	8.440723019894237e-04	0.000000000000000e+00
Particle	1.651694014568861e-02	1.843609124422864e-02	2.415183287474504e-03	0.000000000000000e+00
Particle	5.226509408623542e-03	4.871875780818269e-03	1.227016572567772e-02	0.000000000000000e+00
Particle	4.367446772294055e-02	2.580581965137452e-03	3.024066786659457e-03	0.000000000000000e+00
Particle	2.076750484111814e-02	4.708690590783982e-02	2.334576404787615e-02	0.000000000000000e+00
Particle	4.799891025953842e-02	4.999068831521339e-02	3.631585767199590e-02	0.000000000000000e+00
Particle	2.421143372711623e-02	6.343051689722191e-03	5.270237375353909e-03	0.000000000000000e+00
Particle	2.113297798243297e-03	1.220654993768104e-02	3.575852807319324e-03	0.000000000000000e+00
Particle	1.226134033366442e-02	5.771701856285599e-03	2.961009786642386e-02	0.000000000000000e+00
Particle	1.860255578928050e-04	2.847123599286639e-02	2.409201554412140e-02	0.000000000000000e+00
Particle	1.705813358169510e-02	1.323589146448563e-02	1.738589089131020e-02	0.000000000000000e+00
Particle	2.137755203772607e-03	4.040090974817633e-02	4.333445450321373e-02	0.000000000000000e+00
Particle	3.218142430455326e-02	2.733437283641803e-02	2.797920080241147e-02	0.000000000000000e+00
Particle	3.086964718069943e-02	1.439688652702491e-02	6.718139852350430e-03	0.000000000000000e+00
Particle	1.882745875763250e-02	2.280669108606302e-02	1.224308867809968e-02	0.000000000000000e+00
Particle	3.524844840000015e-02	5.991794153215619e-03	1.594733982637186e-02	0.000000000000000e+00
Particle	4.671035700542836e-03	3.822559695578807e-02	7.735912658942118e-03	0.000000000000000e+00
Particle	1.994049208844709e-02	1.165654520243545e-02	3.829608401148912e-02	0.000000000000000e+00
Particle	3.457666540745723e-02	4.631415048692399e-02	1.609994305179528e-02	0.000000000000000e+00
Particle	4.923782652288643e-02	2.928371986582783e-02	4.233513890569292e-02	0.000000000000000e+00
Particle	1.251631764111572e-03	8.737270774694444e-03	3.955931980610652e-02	0.000000000000000e+00
Particle	2.298841171701552e-02	3.678184981170704e-02	1.498562686287806e-02	0.000000000000000e+00
Particle	3.330012800436531e-02	2.397370225783973e-02	6.812067123016030e-03	0.000000000000000e+00
Particle	2.229939619272836e-03	3.813970791975900e-02	2.956463995563283e-02	0.000000000000000e+00
Particle	1.788772374657330e-02	4.962601387654141e-02	1.036274413528356e-02	0.000000000000000e+00
Particle	7.618107291505805e-03	3.398444381372297e-02	2.105468573284934e-02	0.000000000000000e+00
Particle	3.572854069966343e-02	3.358358809747473e-02	3.807950714914716e-02	0.000000000000000e+00
Particle	1.443877165767135e-02	4.167269054622338e-02	1.314627565734462e-02	0.000000000000000e+00
Particle	4.616136941462047e-02	1.725778404887591e-02	1.372966535963296e-02	0.000000000000000e+00
Particle	3.932021709216433e-02	3.943625482876168e-03	3.869525928032105e-02	0.000000000000000e+00
Particle	2.051978007517875e-02	2.405454374749846e-02	3.162195104531708e-02	0.000000000000000e+00
Particle	3.182254722766667e-02	1.051530679373889e-02	3.593822339973519e-02	0.000000000000000e+00
Particle	4.863300199334339e-02	3.735701228107129e-02	2.007218518686202e-02	0.000000000000000e+00
Particle	4.015405331222258e-02	4.392565247390776e-02	5.055023603602494e-04	0.000000000000000e+00
Particle	4.460729056145651e-02	3.196679765271793e-02	4.404110418991198e-03	0.000000000000000e+00
Particle	4.775704696207139e-02	9.418866950354755e-03	2.514430415454721e-02	0.000000000000000e+00
Particle	1.120156312526619e-02	2.926239980034805e-02	7.947121886316055e-03	0.000000000000000e+00
Particle	2.074299899983262e-03	2.852156917369654e-02	8.073671020481472e-03	0.000000000000000e+00
Particle	1.370704514299788e-02	4.047803226839111e-02	4.337948083202042e-02	0.000000000000000e+00
Particle	4.307944844355195e-02	2.721445014200476e-02	3.582491529651083e-02	0.000000000000000e+00
Particle	2.527367217596677e-02	2.560291781603397e-02	1.853848041675231e-02	0.000000000000000e+00
Particle	3.793207962094797e-02	2.063687691686859e-02	3.574940453126001e-02	0.000000000000000e+00
Particle	2.057807752908471e-02	2.564083617538204e-02	4.045498378370889e-02	0.000000000000000e+00
Particle	6.671494253496252e-03	2.475755281628594e-02	3.534883444044624e-02	0.000000000000000e+00
Particle	4.155741321197724e-02	4.329594971388859e-02	2.755359502896883e-02	0.000000000000000e+00
Particle	1.355439482341590e-02	2.709421686403338e-02	2.475320311868695e-02	0.000000000000000e+00
Particle	3.796959527343732e-02	2.464869420739930e-02	4.726435789374168e-02	0.000000000000000e+00
Particle	8.176437803040249e-03	2.254613893977578e-02	4.894360639962527e-02	0.000000000000000e+00
Particle	8.401565460998684e-05	4.932007972790929e-02	4.667258244811313e-02	0.000000000000000e+00
Particle	2.873043159478834e-02	8.065452313621551e-03	4.528471954948660e-02	0.000000000000000e+00
Particle	1.524251269199721e-02	1.560693267038852e-02	3.130565503589019e-02	0.000000000000000e+00
Particle	2.196701634150760e-02	4.232856685599087e-02	3.630553987093400e-02	0.000000000000000e+00
Particle	2.607648185124092e-02	1.472603518928994e-02	2.433784458265453e-02	0.000000000000000e+00
Particle	2.795588468199741e-02	1.596340323102388e-02	4.247523602397399e-02	0.000000000000000e+00
Particle	4.060031844039002e-02	1.238481058494120e-02	4.849283900760457e-02	0.000000000000000e+00
Particle	1.651433489384352e-02	2.413181032962453e-03	4.522077082214081e-02	0.000000000000000e+00
Particle	7.306482632824152e-03	2.999174457532994e-03	4.820339396062324e-02	0.000000000000000e+00
Particle	2.299990121275814e-03	1.747372595978445e-02	2.614432667594672e-02	0.000000000000000e+00
Particle	2.554643634304438e-03	1.846432312136364e-02	3.837224880496098e-02	0.000000000000000e+00
Particle	8.201638664796602e-03	1.441264813164498e-02	4.340408832785728e-02	0.000000000000000e+00
Particle	3.739687146623679e-02	2.720432875519863e-03	3.045122619538526e-02	0.000000000000000e+00
Particle	9.155014001850592e-04	4.997393182474443e-02	2.025489719640254e-02	0.000000000000000e+00
Particle	4.196957791292904e-02	2.244763215361882e-02	2.862788500428674e-02	0.000000000000000e+00
Particle	3.547034613213126e-02	3.845119083732264e-02	2.002608268397803e-02	0.000000000000000e+00
Particle	3.424303469085503e-02	2.936868240328202e-02	1.836420613591214e-02	0.000000000000000e+00
Particle	1.341797600599844e-02	9.371202625774662e-03	4.417553599202373e-04	0.000000000000000e+00
Particle	2.617658847233734e-02	2.756183031644100e-02	9.555104715023488e-03	0.000000000000000e+00
Particle	9.725080694590844e-03	1.578040598640435e-02	1.051978572971547e-02	0.000000000000000e+00
Particle	4.734684599358610e-02	3.835103662798262e-02	6.412291194021592e-04	0.000000000000000e+00
Particle	7.940912930435957e-03	1.282135041037338e-02	2.051747339484640e-02	0.000000000000000e+00
Particle	8.846497780960711e-03	2.497902565591903e-02	1.825171280732315e-02	0.000000000000000e+00
Particle	3.181316571685863e-02	4.380040320194051e-02	4.681301829257001e-03	0.000000000000000e+00
Particle	2.685667112837778e-02	2.447537869724642e-03	3.520364366385198e-02	0.000000000000000e+00
Particle	1.274041357349537e-02	3.123762110080475e-05	2.088429592507188e-02	0.000000000000000e+00
Particle	3.647912238677194e-02	4.310577881323379e-02	3.914930751465084e-02	0.000000000000000e+00
Particle	4.234300318943499e-02	3.050172590335685e-02	1.861212402394851e-02	0.000000000000000e+00
Particle	4.217772569388312e-02	1.739334853451875e-02	2.242281132247401e-02	0.000000000000000e+00
Particle	1.938527099151281e-02	4.194208809843136e-02	4.992304040391789e-02	0.000000000000000e+00
Particle	4.328866231078154e-02	4.856825802360860e-03	1.242085967625897e-02	0.000000000000000e+00
Particle	2.579706579369627e-02	1.792019965918385e-02	5.899079878956660e-04	0.000000000000000e+00
Particle	4.479174790253287e-02	1.469819809883964e-02	3.206924531582627e-02	0.000000000000000e+00
Particle	4.693862315831266e-02	4.715130308534077e-02	1.086121921339757e-02	0.000000000000000e+00
Particle	2.871013248221912e-02	4.094851481706438e-02	2.180240360449363e-02	0.000000000000000e+00
Particle	3.810450463526609e-02	3.308405798425478e-02	2.446387686811827e-02	0.000000000000000e+00
Particle	8.849012350776670e-03	3.029927892489273e-02	4.748311044273560e-02	0.000000000000000e+00
Particle	3.809199565970362e-02	1.320816237506342e-02	2.732699569774876e-02	0.000000000000000e+00
Particle	1.170540338865790e-02	2.568242068614589e-02	4.305553961610057e-02	0.000000000000000e+00
Particle	4.430052287354652e-02	4.027053415290595e-02	6.997745406298450e-03	0.000000000000000e+00
Particle	1.272891212942367e-02	5.050325165195119e-03	3.862527347071965e-02	0.000000000000000e+00
Particle	2.937493592712295e-02	4.724913750964707e-02	4.046188549537010e-02	0.000000000000000e+00
Particle	8.656843547917991e-03	3.222164108419019e-02	2.887138820739431e-02	0.000000000000000e+00
Particle	2.955312064928274e-02	3.657492312906331e-02	3.058054471599378e-02	0.000000000000000e+00
Particle	3.019538903780798e-02	2.824179836076498e-02	4.501428584543817e-02	0.000000000000000e+00
Particle	1.934012041380628e-02	3.165121840199472e-02	2.385445759053821e-02	0.000000000000000e+00
Particle	2.122046577407869e-02	1.151506705639916e-02	2.917552244188666e-02	0.000000000000000e+00
Particle	2.624610886779498e-02	4.008885389411948e-03	1.702368304060225e-02	0.000000000000000e+00
Particle	3.267497220106907e-02	4.353787090469584e-02	3.205675614119455e-02	0.000000000000000e+00
Particle	3.260076598477955e-02	3.498822197239434e-02	1.195169059265302e-02	0.000000000000000e+00
Particle	2.169542201250260e-02	3.282897132543571e-02	3.912416454947494e-02	0.000000000000000e+00
Particle	1.172749479541868e-02	4.334984745036330e-02	3.536573040184923e-02	0.000000000000000e+00
Particle	1.368523710014550e-02	3.842882123654540e-02	4.343792769128052e-03	0.000000000000000e+00
Particle	2.658331888428836e-02	7.387581016978484e-03	2.829443751754340e-02	0.000000000000000e+00
Particle	2.206379044338871e-02	4.703290701237078e-02	4.613272036135505e-02	0.000000000000000e+00
Particle	8.126722170400886e-03	1.482228688524701e-02	3.207854198894396e-02	0.000000000000000e+00
Particle	2.391592745289090e-03	4.627594577418401e-02	2.730142088038569e-02	0.000000000000000e+00
Particle	4.921665693174138e-02	2.144031023952876e-02	7.202748934847437e-03	0.000000000000000e+00
Particle	3.566712677394107e-02	1.958980769343298e-02	2.651260132340963e-02	0.000000000000000e+00
Particle	4.776962071518780e-02	1.713447258717200e-02	4.664620649454137e-02	0.000000000000000e+00
Particle	4.503231796033672e-02	2.696747022823628e-02	1.005902523947418e-02	0.000000000000000e+00
Particle	3.766477756943263e-02	3.588310787024925e-02	6.590038028436569e-03	0.000000000000000e+00
Particle	3.729451842472247e-02	4.959907758387472e-02	4.465407093154364e-02	0.000000000000000e+00
Particle	3.296410168529270e-02	8.869553788658524e-03	2.474151415067000e-02	0.000000000000000e+00
Particle	2.784824711231951e-02	3.330051823544466e-02	3.693167582732831e-02	0.000000000000000e+00
Particle	2.829203193123521e-02	1.679931299943980e-02	1.422188651200713e-02	0.000000000000000e+00
Particle	4.267994939112603e-02	1.517083147451187e-03	2.332267667986395e-02	0.000000000000000e+00
Particle	3.737841209769344e-02	1.249517674481512e-02	4.071122206061550e-02	0.000000000000000e+00
Particle	1.360819464117471e-02	4.231414053161518e-02	2.506357694006223e-02	0.000000000000000e+00
Particle	2.152420435654712e-02	2.895407321962956e-02	4.759677924667505e-02	0.000000000000000e+00
Particle	4.447264763374348e-02	3.515361839941929e-02	3.571642714055302e-02	0.000000000000000e+00
Particle	8.630742775329176e-03	4.369671903147344e-02	4.794437115211865e-02	0.000000000000000e+00
Particle	2.669141043116738e-02	3.300839091614208e-02	2.339258925498016e-02	0.000000000000000e+00
Particle	3.508252993943539e-03	2.198369926493420e-02	1.265481051761588e-02	0.000000000000000e+00
Particle	2.140634168197575e-03	2.063769354230036e-02	1.933121017129622e-02	0.000000000000000e+00
Particle	1.928669247890435e-02	1.356140546411003e-02	9.045437319125533e-03	0.000000000000000e+00
Particle	3.634356135049027e-02	1.125318256246405e-03	8.183760380162509e-03	0.000000000000000e+00
Particle	3.354744543240254e-02	1.539337122894786e-02	1.779025761839708e-02	0.000000000000000e+00
Particle	1.072450555800141e-02	3.258246183062979e-02	3.755635009349047e-02	0.000000000000000e+00
Particle	4.429210562257988e-02	4.940136630389277e-02	1.751841392162378e-02	0.000000000000000e+00
Particle	4.177125347179521e-02	3.670173308276586e-02	4.666417533771516e-02	0.000000000000000e+00
Particle	3.166020794306051e-02	3.106189111146141e-03	2.679538291379898e-02	0.000000000000000e+00
Particle	1.908031439006324e-02	3.523548885922180e-02	7.917608099829627e-03	0.000000000000000e+00
Particle	1.864721717057702e-02	1.838583909957045e-02	4.309450604751977e-02	0.000000000000000e+00
Particle	1.256956792719851e-02	9.167417984269682e-03	9.167983081404114e-03	0.000000000000000e+00
Particle	3.635955739331656e-02	1.854104241304665e-02	1.330753703733100e-02	0.000000000000000e+00
Particle	1.783886192627632e-02	4.847966570794436e-02	3.137218836766453e-02	0.000000000000000e+00
Particle	4.156221528787900e-02	2.028601590635323e-02	4.911672142088414e-03	0.000000000000000e+00
Particle	2.455900913055772e-02	4.438522092186836e-02	7.460746834057741e-03	0.000000000000000e+00
Particle	3.181298174229599e-02	2.633463586511477e-02	3.629301599142928e-02	0.000000000000000e+00
Particle	4.331439633200290e-02	3.680537089747295e-02	1.511415165959825e-02	0.000000000000000e+00
Particle	1.291368492919909e-02	9.378674191695524e-03	4.346104115692546e-02	0.000000000000000e+00
Particle	2.877785543544193e-03	4.760240056740808e-02	6.642932808565889e-03	0.000000000000000e+00
Particle	3.781445758834489e-02	3.085905126608745e-02	1.761445683251800e-03	0.000000000000000e+00
Particle	3.257934095191515e-02	4.389596222335529e-03	9.383698416886466e-04	0.000000000000000e+00
Particle	3.344436911221964e-02	1.905961583408916e-02	4.961811739443509e-02	0.000000000000000e+00
Particle	1.708887392490482e-02	2.008722270607806e-02	2.621160763570118e-02	0.000000000000000e+00
Particle	2.113836420461462e-02	3.750433403056617e-02	2.655978809148634e-02	0.000000000000000e+00
Particle	4.500662595224820e-02	4.417363507169672e-02	4.154775717379691e-02	0.000000000000000e+00
Particle	4.081295607002649e-02	1.365364756672046e-02	7.764630541417539e-03	0.000000000000000e+00
Particle	4.435642741335884e-02	1.275550643152449e-02	3.973289415224202e-02	0.000000000000000e+00
Particle	1.982736272811786e-03	2.829138761813148e-02	1.584406085075128e-02	0.000000000000000e+00
Particle	3.799211781609083e-02	2.946391512781933e-02	8.914664618442276e-03	0.000000000000000e+00
Particle	3.436727358205154e-02	4.430676296819724e-02	2.599304677999875e-02	0.000000000000000e+00
Particle	2.205962664458465e-02	3.495862393092119e-02	3.297281101999541e-02	0.000000000000000e+00
Particle	2.588276316524801e-02	3.894514066952409e-02	4.085878210698638e-02	0.000000000000000e+00
Particle	9.656938577853796e-03	4.349161127829723e-02	4.635880578902268e-03	0.000000000000000e+00
Particle	3.185491958138349e-02	3.050389798672287e-03	4.011193988828050e-02	0.000000000000000e+00
Particle	1.041045238917158e-02	4.750510629014770e-02	3.991285452464001e-02	0.000000000000000e+00
Particle	1.981403813355369e-02	3.178122563069447e-03	3.702183163969627e-02	0.000000000000000e+00
Particle	7.216499786931641e-03	4.289395150299973e-02	1.347264874949241e-02	0.000000000000000e+00
Particle	6.293154175127913e-03	5.098334156024798e-03	3.518126125430811e-02	0.000000000000000e+00
Particle	2.898288857650790e-02	7.567945875585236e-04	2.182744998418625e-02	0.000000000000000e+00
Particle	3.895615185334247e-02	4.397449049877880e-02	1.024870567159924e-02	0.000000000000000e+00
Particle	3.981787449449553e-02	2.424717354970920e-02	1.805813487515296e-02	0.000000000000000e+00
Particle	1.084180908242574e-02	4.925392379838518e-02	6.400245653615433e-03	0.000000000000000e+00
Particle	2.841924716121647e-02	4.284574377561848e-02	1.266791129289457e-02	0.000000000000000e+00
Particle	3.790121873598049e-02	1.198882322260658e-02	2.110512326340772e-02	0.000000000000000e+00
Particle	2.810660083877394e-02	2.198249521569179e-02	3.352895848818940e-02	0.000000000000000e+00
Particle	1.610403243669510e-02	4.730905956870671e-02	3.847330118666986e-02	0.000000000000000e+00
Particle	1.799130067365751e-02	4.963417988495782e-02	1.734231149949250e-03	0.000000000000000e+00
Particle	6.721317633953378e-03	2.474145014902835e-03	4.105295531523697e-02	0.000000000000000e+00
Particle	1.272083099968360e-02	1.872014299685996e-02	4.059840782780924e-02	0.000000000000000e+00
Particle	1.046048934703618e-02	4.805560944089028e-02	1.202952544251719e-02	0.000000000000000e+00
Particle	2.951840203723556e-02	2.120492089498283e-03	1.129484499055606e-02	0.000000000000000e+00
Particle	3.186712402520664e-03	3.477043592516158e-02	3.741152302267982e-02	0.000000000000000e+00
Particle	1.419938782168936e-02	3.714998656563216e-02	3.586105040756389e-02	0.000000000000000e+00
Particle	2.008625721643815e-02	9.052557871383732e-03	4.536883071804494e-02	0.000000000000000e+00
Particle	2.008548141856974e-02	7.383256781701858e-03	1.321032836433080e-02	0.000000000000000e+00
Particle	7.271807271710285e-04	2.489557975264612e-02	3.129893743487580e-02	0.000000000000000e+00
Particle	1.444299940473680e-02	3.563379796059634e-02	2.490825082967707e-02	0.000000000000000e+00
Particle	5.212509018542567e-03	4.663283949163102e-02	3.474680142757332e-02	0.000000000000000e+00
Particle	1.874973414968806e-03	1.384623229737609e-02	3.362748049007346e-02	0.000000000000000e+00
Particle	1.558118264723243e-02	3.314694963393812e-02	4.584774153136610e-02	0.000000000000000e+00
Particle	1.199060421132093e-02	4.797765668782136e-02	3.055340321563733e-02	0.000000000000000e+00
Particle	3.141957933289392e-02	2.263048392475790e-02	1.801805132554588e-02	0.000000000000000e+00
Particle	2.510143851839276e-02	2.508707179875005e-02	2.504234868710992e-03	0.000000000000000e+00
Particle	1.332431552706198e-03	2.191008208410508e-02	1.563169621982552e-04	0.000000000000000e+00
Particle	4.048178972554831e-02	8.002886017961465e-03	2.495722415958631e-02	0.000000000000000e+00
Particle	8.092929859993726e-03	4.414616706671415e-02	2.067888950533071e-02	0.000000000000000e+00
Particle	4.685255737404493e-03	8.943757789793149e-03	3.122806213355105e-02	0.000000000000000e+00
Particle	1.671618298936063e-02	5.474236937454502e-03	1.975866612609907e-02	0.000000000000000e+00
Particle	1.602510685462310e-02	3.606291418053546e-02	3.066551166132550e-02	0.000000000000000e+00
Particle	3.913782637963811e-02	1.180212843535126e-02	3.426336967425788e-02	0.000000000000000e+00
Particle	5.523254854660409e-03	2.171353591284844e-02	5.460650727500644e-03	0.000000000000000e+00
Particle	4.139479914481531e-02	3.178954205217736e-02	2.970343315290022e-02	0.000000000000000e+00
Particle	1.327741592731163e-02	2.538549243665551e-02	3.211180090107225e-02	0.000000000000000e+00
Particle	1.483457730813136e-02	3.101418788309143e-02	1.912228275562197e-02	0.000000000000000e+00
Particle	4.933286527108571e-03	3.371778042399118e-02	1.820672189737693e-03	0.000000000000000e+00
Particle	2.977571710765273e-02	4.901607247505085e-02	5.759111553993557e-04	0.000000000000000e+00
Particle	4.040541988693715e-02	3.081973067792160e-02	4.607357003136279e-02	0.000000000000000e+00
Particle	8.462449519621967e-03	3.763436713261994e-02	6.450676002853263e-04	0.000000000000000e+00
Particle	1.743521295642613e-02	3.387539024349428e-02	1.931798142914348e-03	0.000000000000000e+00
Particle	4.737655557046493e-02	4.199136320000210e-02	1.467358220920821e-02	0.000000000000000e+00
Particle	4.592241624660547e-02	2.662495619568505e-02	1.962379930099290e-04	0.000000000000000e+00
Particle	2.979439519975646e-03	1.237384409206522e-02	1.445191572993356e-02	0.000000000000000e+00
Particle	4.769849201606018e-02	3.202653868011163e-02	3.171426799054277e-02	0.000000000000000e+00
Particle	2.092651756959807e-02	3.938261379458608e-03	2.786452038804954e-02	0.000000000000000e+00
Particle	3.127346692136516e-02	3.444097653043741e-02	4.365848490791756e-02	0.000000000000000e+00
Particle	4.792530352353097e-02	4.520627573744052e-02	2.492114839646748e-03	0.000000000000000e+00
Particle	1.938633443414831e-02	4.181645015146407e-02	3.029751004623201e-02	0.000000000000000e+00
Particle	4.107147428339172e-02	8.072940384514843e-03	3.062749836561352e-02	0.000000000000000e+00
Particle	3.482297851913817e-02	1.899443618695132e-02	4.321637230070753e-02	0.000000000000000e+00
Particle	2.386978492723994e-02	6.928817980320651e-03	2.247959349365929e-02	0.000000000000000e+00
Particle	4.580046111939237e-02	2.095671030718069e-02	1.168797416171424e-03	0.000000000000000e+00
Particle	2.795797693983444e-02	4.713159364810229e-02	3.129640231293839e-02	0.000000000000000e+00
Particle	2.202380557984518e-02	2.167352679804284e-02	4.662484596799049e-02	0.000000000000000e+00
Particle	3.415232707947554e-02	1.171947337547746e-02	4.939392727801990e-02	0.000000000000000e+00
Particle	3.882949900027904e-02	4.576075751671595e-02	3.381635470056246e-02	0.000000000000000e+00
Particle	3.943311683428141e-02	6.874969297081157e-03	4.512793425297134e-02	0.000000000000000e+00
Particle	1.216363394645437e-02	1.812570534092926e-02	2.079509897693226e-02	0.000000000000000e+00
Particle	4.363030904927631e-02	1.907169539032335e-02	4.188716777899985e-02	0.000000000000000e+00
Particle	2.359813771081589e-02	4.996972891861030e-02	4.036201143991903e-02	0.000000000000000e+00
Particle	7.848015785351848e-03	4.987340789819002e-02	2.539792838398396e-02	0.000000000000000e+00
Particle	1.495197863740873e-02	2.260031450322205e-02	1.966831274741598e-02	0.000000000000000e+00
Particle	3.698926782061769e-02	3.850221413059662e-02	2.710833986705315e-02	0.000000000000000e+00
Particle	2.300236270800349e-03	2.941262364432071e-02	1.983228493693256e-05	0.000000000000000e+00
Particle	5.798660547025886e-03	7.901363470943995e-03	2.534146987319884e-02	0.000000000000000e+00
Particle	2.744456755559743e-02	9.837838449748726e-03	1.330154943072555e-02	0.000000000000000e+00
Particle	4.521741969773647e-02	1.157833898426325e-03	2.894361243070193e-02	0.000000000000000e+00
Particle	4.948064843389305e-02	9.882417268023842e-03	1.748390379633336e-02	0.000000000000000e+00
Particle	2.538464967841193e-02	1.611074492118093e-02	3.102774297056973e-02	0.000000000000000e+00
Particle	2.978279188410843e-02	4.143911867903227e-02	4.423894372934374e-02	0.000000000000000e+00
Particle	1.955573734336559e-02	2.932311007208425e-02	1.721230168066192e-02	0.000000000000000e+00
Particle	2.009239371807872e-02	2.851544620454880e-02	7.227796653029629e-03	0.000000000000000e+00
Particle	3.619096674955131e-02	3.661339656951664e-02	4.959459960223148e-02	0.000000000000000e+00
Particle	2.999848113342423e-02	3.691903205898996e-02	1.697473558687143e-02	0.000000000000000e+00
Particle	4.075938021257022e-02	2.074741158392650e-02	1.045065014339069e-02	0.000000000000000e+00
Particle	2.111518341228759e-02	2.019587846406266e-02	2.027598667622713e-02	0.000000000000000e+00
Particle	8.744873978887796e-03	1.612945883860296e-02	2.609672141569740e-02	0.000000000000000e+00
Particle	2.097582361083495e-02	3.061285581797316e-02	2.950285697539983e-02	0.000000000000000e+00
Particle	3.026655018849049e-02	1.012511307311300e-02	1.967240832741320e-02	0.000000000000000e+00
Particle	3.865284871459418e-02	3.606188649446409e-02	3.201009119714492e-02	0.000000000000000e+00
Particle	6.977129957165102e-03	4.202161396931343e-02	2.542247779292874e-02	0.000000000000000e+00
Particle	1.036422117468627e-02	5.958752194547773e-03	1.868228130175059e-02	0.000000000000000e+00
Particle	5.765880734818313e-03	2.582566260029052e-02	4.299736370837351e-02	0.000000000000000e+00
Particle	1.328720955461835e-02	2.619414950817050e-02	4.568901777267209e-04	0.000000000000000e+00
Particle	3.130351483333797e-02	3.861103651558271e-02	3.627834791459646e-02	0.000000000000000e+00
Particle	1.095968185658782e-02	3.893189583090362e-02	2.974160392612368e-02	0.000000000000000e+00
Particle	1.467419764256271e-02	3.431202604528013e-02	1.484536549949913e-02	0.000000000000000e+00
Particle	4.639087982999412e-02	2.103870434441429e-02	3.581541608484611e-02	0.000000000000000e+00
Particle	2.980854215404481e-02	1.956378021781329e-02	2.895990040665962e-02	0.000000000000000e+00
Particle	4.367057579137073e-02	1.096737484555891e-02	1.936684799236947e-02	0.000000000000000e+00
Particle	3.245024090868236e-02	1.461680193050938e-02	2.557434667408537e-02	0.000000000000000e+00
Particle	8.492876327178272e-03	3.701280635287918e-02	3.467160119555956e-02	0.000000000000000e+00
Particle	2.081584913947887e-02	3.894978932910544e-02	4.296081614908931e-02	0.000000000000000e+00
Particle	3.941897955916939e-02	1.895501847502593e-02	2.515965263577003e-05	0.000000000000000e+00
Particle	4.709181791810153e-02	7.887570261053745e-03	3.252873266630182e-02	0.000000000000000e+00
Particle	1.722434697529449e-02	4.337239900990471e-02	6.187238507172649e-03	0.000000000000000e+00
Particle	2.536184859744795e-02	4.661303812980103e-02	1.586642443608280e-02	0.000000000000000e+00
Particle	3.541202093798536e-02	3.216836002155246e-02	4.669853878636621e-02	0.000000000000000e+00
Particle	8.906432984642960e-03	1.559646214840385e-02	1.155889174767827e-03	0.000000000000000e+00
Particle	9.965945383065417e-03	2.102937266885837e-02	3.016040761994838e-02	0.000000000000000e+00
Particle	2.630666082956756e-02	2.081426868444864e-02	6.120101739782930e-03	0.000000000000000e+00
Particle	3.099861903342897e-02	2.310455073176833e-02	4.201655724694317e-02	0.000000000000000e+00
Particle	1.582266371979155e-02	3.014179463276424e-02	3.214673805849488e-02	0.000000000000000e+00
Particle	1.720400716915694e-02	3.559217552956184e-02	2.014412022813556e-02	0.000000000000000e+00
Particle	4.265032286060787e-02	2.687012996884993e-02	2.366256117768604e-02	0.000000000000000e+00
Particle	1.316979047548860e-02	1.166053057734765e-02	3.588398615260993e-02	0.000000000000000e+00
Particle	4.252054941579004e-02	2.448055214017144e-02	4.217191790583885e-02	0.000000000000000e+00
Particle	2.340479957828714e-02	1.716602242300157e-02	9.410438553875668e-03	0.000000000000000e+00
Particle	3.020349979786169e-03	4.698838387249227e-03	4.058127778161303e-03	0.000000000000000e+00
Particle	4.344070393986760e-02	4.296060803468137e-02	2.050267146730277e-02	0.000000000000000e+00
Particle	2.605197181827235e-03	6.798844140382038e-03	4.635775431145910e-02	0.000000000000000e+00
Particle	1.244602042527571e-02	9.366454129161405e-03	2.259637993691809e-02	0.000000000000000e+00
Particle	4.423579162963761e-02	7.256493891439320e-03	4.312386785783113e-02	0.000000000000000e+00
Particle	4.579563472260455e-02	8.708874824888314e-03	8.487673390533879e-03	0.000000000000000e+00
Particle	4.665214048125671e-02	3.496121690595261e-02	2.652399716916719e-02	0.000000000000000e+00
Particle	9.492632786463074e-03	2.086371289719957e-02	2.449858406382432e-02	0.000000000000000e+00
Particle	3.654613700802495e-03	3.099665248095770e-02	3.342614611155708e-02	0.000000000000000e+00
Particle	3.681352798112247e-02	8.251962906760701e-03	8.674176822274981e-03	0.000000000000000e+00
Particle	7.970476269204402e-03	4.859297343949737e-02	1.719170246868488e-02	0.000000000000000e+00
Particle	4.763745475115506e-02	3.244750469869861e-02	1.417303852513749e-02	0.000000000000000e+00
Particle	2.649008963734008e-02	2.743632255815582e-02	3.825562753615463e-02	0.000000000000000e+00
Particle	4.788119937196200e-02	2.065126868147096e-02	2.925629907100512e-02	0.000000000000000e+00
Particle	1.584508229848943e-02	1.993611794846110e-02	3.607259466297002e-02	0.000000000000000e+00
Particle	2.189029533677178e-03	4.717603017200338e-02	1.411038790308853e-02	0.000000000000000e+00
Particle	4.884810229065167e-02	4.245046879117868e-02	3.458937593294491e-02	0.000000000000000e+00
Particle	4.301756705669205e-02	4.202208550928849e-02	3.529143616683950e-02	0.000000000000000e+00
Particle	7.839755338860128e-03	4.344550492545951e-02	3.070992273656963e-02	0.000000000000000e+00
Particle	3.515437039554065e-02	8.203427492436965e-03	4.207432831056568e-03	0.000000000000000e+00
Particle	3.944766993966108e-02	1.491096570749357e-02	1.708501376631839e-02	0.000000000000000e+00
Particle	4.640330082404198e-02	2.478469385355225e-02	1.782407769153998e-02	0.000000000000000e+00
Particle	3.372338079533634e-02	4.974783992076865e-02	3.440043099211803e-02	0.000000000000000e+00
Particle	3.533644405759512e-03	4.467357482506994e-02	4.547356448509898e-04	0.000000000000000e+00
Particle	2.552634388758059e-02	2.428866689729284e-02	2.589277014262804e-02	0.000000000000000e+00
Particle	2.426788391126016e-02	2.186953508953649e-04	3.013366946146244e-02	0.000000000000000e+00
Particle	1.402527154683150e-02	1.622308527300468e-02	4.496212918395544e-02	0.000000000000000e+00
Particle	2.620674532855518e-02	2.227560008102538e-02	4.063358024878246e-02	0.000000000000000e+00
Particle	2.867090111582826e-03	4.339302200024026e-03	2.910164749125390e-02	0.000000000000000e+00
Particle	8.640236120246848e-03	2.174496652171646e-02	1.058841151891347e-02	0.000000000000000e+00
Particle	2.068798791794652e-02	2.518829374709560e-02	2.334582132005353e-02	0.000000000000000e+00
Particle	2.597666657426892e-02	2.182026413435591e-02	1.236775187793640e-02	0.000000000000000e+00
Particle	3.647964224570151e-02	2.066902395251733e-02	1.981743182777755e-02	0.000000000000000e+00
Particle	3.758582929490112e-02	7.312814168756732e-04	2.154349025706004e-02	0.000000000000000e+00
Particle	6.625689061212786e-03	3.125240697925565e-02	1.255325276999490e-02	0.000000000000000e+00
Particle	2.574999620342711e-02	4.487983917196008e-02	8.439118162230641e-05	0.000000000000000e+00
Particle	4.753303214412388e-02	8.298456011967126e-03	4.897972393541143e-02	0.000000000000000e+00
Particle	3.825641748555772e-02	3.413804641308651e-02	1.538173869624379e-02	0.000000000000000e+00
Particle	2.379035426876348e-02	2.616553621857632e-03	4.803893567368654e-02	0.000000000000000e+00
Particle	4.932905468834892e-03	3.367894641858369e-02	4.296658051679778e-02	0.000000000000000e+00
Particle	1.343977269257684e-02	4.686864626118848e-02	4.820773208496967e-02	0.000000000000000e+00
Particle	1.367073616060020e-02	3.768110033631972e-03	4.371404795915096e-03	0.000000000000000e+00
Particle	3.537963890489538e-02	3.773256675698712e-02	4.367204392080289e-02	0.000000000000000e+00
Particle	1.051239378900437e-02	1.249034339039771e-02	4.962721672043164e-03	0.000000000000000e+00
Particle	3.274441031241813e-02	1.699858999342311e-02	3.225587726895759e-02	0.000000000000000e+00
Particle	4.503575494529054e-02	2.315930426317549e-02	2.194069938462502e-02	0.000000000000000e+00
Particle	2.409089408822436e-02	1.993209980879242e-02	2.724109885934628e-02	0.000000000000000e+00
Particle	1.238390034523328e-02	3.422022574546361e-02	3.835157108877107e-04	0.000000000000000e+00
Particle	4.750923573373422e-02	4.827085572519785e-03	1.893810592140071e-02	0.000000000000000e+00
Particle	2.365399499801348e-02	4.930272912930328e-03	4.005647070103485e-02	0.000000000000000e+00
Particle	1.740701516728156e-02	2.843408623326137e-02	2.148858009993232e-03	0.000000000000000e+00
Particle	4.379852091095872e-02	3.542519448177275e-02	4.131637467446257e-02	0.000000000000000e+00
Particle	4.201401228875701e-02	3.666888409058883e-02	2.208476064392711e-02	0.000000000000000e+00
Particle	3.288446281533908e-03	9.091377949527180e-03	2.098949377486395e-02	0.000000000000000e+00
Particle	2.102539538491549e-02	4.364885338051643e-02	1.407057561053436e-02	0.000000000000000e+00
Particle	2.534880649754239e-02	4.214424634766230e-02	4.586505274813502e-02	0.000000000000000e+00
Particle	3.541363715443329e-02	4.999092940004274e-02	4.401579674882639e-04	0.000000000000000e+00
Particle	2.489318842559868e-03	1.489507725164571e-02	1.992898378056898e-02	0.000000000000000e+00
Particle	7.192101594167966e-03	1.808914573309625e-02	1.762703658995289e-02	0.000000000000000e+00
Particle	1.523502535076828e-02	2.916108625795180e-02	1.461490873243280e-02	0.000000000000000e+00
Particle	2.133983543950466e-02	1.126179944977928e-02	4.484649319326406e-04	0.000000000000000e+00
Particle	1.100033193566408e-02	1.836135333685887e-02	3.514460853457490e-02	0.000000000000000e+00
Particle	1.631189079958986e-02	4.748908133492178e-02	1.675370496740444e-02	0.000000000000000e+00
Particle	3.665937650931417e-03	4.061939267089363e-02	1.681231476305976e-02	0.000000000000000e+00
Particle	9.007116370725255e-03	3.788143587474826e-02	1.514607007866030e-02	0.000000000000000e+00
Particle	4.998485874552239e-02	3.676718649644618e-02	1.372166247562832e-02	0.000000000000000e+00
Particle	1.063535160064202e-02	3.087333428300797e-02	1.506124656606920e-02	0.000000000000000e+00
Particle	2.164874775792148e-02	1.860274103291282e-02	3.734845541215277e-02	0.000000000000000e+00
Particle	5.044468720404472e-03	4.708245603800668e-02	4.202023417723983e-02	0.000000000000000e+00
Particle	5.302034997978617e-02	4.698838387249227e-03	4.058127778161303e-03	0.000000000000000e+00
Particle	5.211329779824330e-02	1.220654993768104e-02	3.575852807319324e-03	0.000000000000000e+00
Particle	5.522650940862354e-02	4.871875780818269e-03	1.227016572567772e-02	0.000000000000000e+00
Particle	2.898288857650790e-02	5.075679458755852e-02	2.182744998418625e-02	0.000000000000000e+00
Particle	1.671618298936063e-02	5.547423693745451e-02	1.975866612609907e-02	0.000000000000000e+00
Particle	2.624610886779498e-02	5.400888538941195e-02	1.702368304060225e-02	0.000000000000000e+00
Particle	2.386978492723994e-02	5.692881798032065e-02	2.247959349365929e-02	0.000000000000000e+00
Particle	2.092651756959807e-02	5.393826137945861e-02	2.786452038804954e-02	0.000000000000000e+00
Particle	1.274041357349537e-02	5.003123762110081e-02	2.088429592507188e-02	0.000000000000000e+00
Particle	2.426788391126016e-02	5.021869535089537e-02	3.013366946146244e-02	0.000000000000000e+00
Particle	1.226134033366442e-02	5.577170185628560e-02	2.961009786642386e-02	0.000000000000000e+00
Particle	4.521741969773647e-02	5.115783389842633e-02	2.894361243070193e-02	0.000000000000000e+00
Particle	3.932021709216433e-02	5.394362548287617e-02	3.869525928032105e-02	0.000000000000000e+00
Particle	4.107147428339172e-02	5.807294038451485e-02	3.062749836561352e-02	0.000000000000000e+00
Particle	5.286709011158283e-02	5.433930220002403e-02	2.910164749125390e-02	0.000000000000000e+00
Particle	5.239159274528910e-02	4.627594577418401e-02	2.730142088038569e-02	0.000000000000000e+00
Particle	5.008401565460999e-02	4.932007972790929e-02	4.667258244811313e-02	0.000000000000000e+00
Particle	5.504446872040447e-02	4.708245603800668e-02	4.202023417723983e-02	0.000000000000000e+00
Particle	5.672131763395338e-02	5.247414501490284e-02	4.105295531523697e-02	0.000000000000000e+00
Particle	3.739687146623679e-02	5.272043287551986e-02	3.045122619538526e-02	0.000000000000000e+00
Particle	4.709181791810153e-02	5.788757026105375e-02	3.252873266630182e-02	0.000000000000000e+00
Particle	5.213775520377261e-02	4.040090974817633e-02	4.333445450321373e-02	0.000000000000000e+00
Particle	4.423579162963761e-02	5.725649389143932e-02	4.312386785783113e-02	0.000000000000000e+00
Particle	5.629315417512792e-02	5.509833415602480e-02	3.518126125430811e-02	0.000000000000000e+00
Particle	5.521250901854257e-02	4.663283949163102e-02	3.474680142757332e-02	0.000000000000000e+00
Particle	5.125163176411157e-02	5.873727077469445e-02	3.955931980610652e-02	0.000000000000000e+00
Particle	8.462449519621967e-03	3.763436713261994e-02	5.064506760028533e-02	0.000000000000000e+00
Particle	3.533644405759512e-03	4.467357482506994e-02	5.045473564485099e-02	0.000000000000000e+00
Particle	4.933286527108571e-03	3.371778042399118e-02	5.182067218973770e-02	0.000000000000000e+00
Particle	3.634356135049027e-02	5.112531825624641e-02	8.183760380162509e-03	0.000000000000000e+00
Particle	3.524844840000015e-02	5.599179415321562e-02	1.594733982637186e-02	0.000000000000000e+00
Particle	4.328866231078154e-02	5.485682580236086e-02	1.242085967625897e-02	0.000000000000000e+00
Particle	3.758582929490112e-02	5.073128141687568e-02	2.154349025706004e-02	0.000000000000000e+00
Particle	2.951840203723556e-02	5.212049208949829e-02	1.129484499055606e-02	0.000000000000000e+00
Particle	5.230023627080035e-02	2.941262364432071e-02	5.001983228493694e-02	0.000000000000000e+00
Particle	4.592241624660547e-02	2.662495619568505e-02	5.019623799300993e-02	0.000000000000000e+00
Particle	5.133243155270620e-02	2.191008208410508e-02	5.015631696219826e-02	0.000000000000000e+00
Particle	5.576588073481831e-02	2.582566260029052e-02	4.299736370837351e-02	0.000000000000000e+00
Particle	5.255464363430444e-02	1.846432312136364e-02	3.837224880496098e-02	0.000000000000000e+00
Particle	5.667149425349625e-02	2.475755281628594e-02	3.534883444044624e-02	0.000000000000000e+00
Particle	5.072718072717103e-02	2.489557975264612e-02	3.129893743487580e-02	0.000000000000000e+00
Particle	4.734684599358610e-02	3.835103662798262e-02	5.064122911940216e-02	0.000000000000000e+00
Particle	5.318671240252067e-02	3.477043592516158e-02	3.741152302267982e-02	0.000000000000000e+00
Particle	5.493290546883489e-02	3.367894641858369e-02	4.296658051679778e-02	0.000000000000000e+00
Particle	5.365461370080250e-02	3.099665248095770e-02	3.342614611155708e-02	0.000000000000000e+00
Particle	4.460729056145651e-02	3.196679765271793e-02	5.440411041899120e-02	0.000000000000000e+00
Particle	5.884901235077667e-02	3.029927892489273e-02	4.748311044273560e-02	0.000000000000000e+00
Particle	1.367073616060020e-02	5.376811003363197e-02	4.371404795915096e-03	0.000000000000000e+00
Particle	1.256956792719851e-02	5.916741798426969e-02	9.167983081404114e-03	0.000000000000000e+00
Particle	2.421143372711623e-02	5.634305168972219e-02	5.270237375353909e-03	0.000000000000000e+00
Particle	1.036422117468627e-02	5.595875219454777e-02	1.868228130175059e-02	0.000000000000000e+00
Particle	2.008548141856974e-02	5.738325678170186e-02	1.321032836433080e-02	0.000000000000000e+00
Particle	5.226509408623542e-03	5.487187578081827e-02	1.227016572567772e-02	0.000000000000000e+00
Particle	5.214063416819758e-02	2.063769354230036e-02	1.933121017129622e-02	0.000000000000000e+00
Particle	5.248931884255987e-02	1.489507725164571e-02	1.992898378056898e-02	0.000000000000000e+00
Particle	5.297943951997565e-02	1.237384409206522e-02	1.445191572993356e-02	0.000000000000000e+00
Particle	5.350825299394354e-02	2.198369926493420e-02	1.265481051761588e-02	0.000000000000000e+00
Particle	5.125163176411157e-02	8.737270774694444e-03	3.955931980610652e-02	0.000000000000000e+00
Particle	5.198273627281179e-02	2.829138761813148e-02	1.584406085075128e-02	0.000000000000000e+00
Particle	5.761810729150581e-02	3.398444381372297e-02	2.105468573284934e-02	0.000000000000000e+00
Particle	5.018602555789281e-02	2.847123599286639e-02	2.409201554412140e-02	0.000000000000000e+00
Particle	5.697712995716511e-02	4.202161396931343e-02	2.542247779292874e-02	0.000000000000000e+00
Particle	5.222993961927284e-02	3.813970791975900e-02	2.956463995563283e-02	0.000000000000000e+00
Particle	5.366593765093142e-02	4.061939267089363e-02	1.681231476305976e-02	0.000000000000000e+00
Particle	5.091550140018506e-02	4.997393182474443e-02	2.025489719640254e-02	0.000000000000000e+00
Particle	4.367446772294055e-02	5.258058196513746e-02	3.024066786659457e-03	0.000000000000000e+00
Particle	5.230023627080035e-02	2.941262364432071e-02	1.983228493693256e-05	0.000000000000000e+00
Particle	5.493328652710858e-02	3.371778042399118e-02	1.820672189737693e-03	0.000000000000000e+00
Particle	5.207429989998327e-02	2.852156917369654e-02	8.073671020481472e-03	0.000000000000000e+00
Particle	5.467103570054284e-02	3.822559695578807e-02	7.735912658942118e-03	0.000000000000000e+00
Particle	5.468525573740449e-02	8.943757789793149e-03	3.122806213355105e-02	0.000000000000000e+00
Particle	5.229999012127581e-02	1.747372595978445e-02	2.614432667594672e-02	0.000000000000000e+00
Particle	5.187497341496881e-02	1.384623229737609e-02	3.362748049007346e-02	0.000000000000000e+00
Particle	5.328844628153391e-02	9.091377949527180e-03	2.098949377486395e-02	0.000000000000000e+00
Particle	5.579866054702589e-02	7.901363470943995e-03	2.534146987319884e-02	0.000000000000000e+00
Particle	5.286709011158283e-02	4.339302200024026e-03	2.910164749125390e-02	0.000000000000000e+00
Particle	1.238390034523328e-02	3.422022574546361e-02	5.038351571088771e-02	0.000000000000000e+00
Particle	1.368523710014550e-02	3.842882123654540e-02	5.434379276912805e-02	0.000000000000000e+00
Particle	4.267994939112603e-02	5.151708314745119e-02	2.332267667986395e-02	0.000000000000000e+00
Particle	4.580046111939237e-02	2.095671030718069e-02	5.116879741617143e-02	0.000000000000000e+00
Particle	4.156221528787900e-02	2.028601590635323e-02	5.491167214208842e-02	0.000000000000000e+00
Particle	3.330012800436531e-02	2.397370225783973e-02	5.681206712301604e-02	0.000000000000000e+00
Particle	3.781445758834489e-02	3.085905126608745e-02	5.176144568325181e-02	0.000000000000000e+00
Particle	3.941897955916939e-02	1.895501847502593e-02	5.002515965263577e-02	0.000000000000000e+00
Particle	2.300236270800349e-03	2.941262364432071e-02	5.001983228493694e-02	0.000000000000000e+00
Particle	5.523254854660409e-03	2.171353591284844e-02	5.546065072750064e-02	0.000000000000000e+00
Particle	1.120156312526619e-02	2.926239980034805e-02	5.794712188631606e-02	0.000000000000000e+00
Particle	1.328720955461835e-02	2.619414950817050e-02	5.045689017772673e-02	0.000000000000000e+00
Particle	1.332431552706198e-03	2.191008208410508e-02	5.015631696219826e-02	0.000000000000000e+00
Particle	8.906432984642960e-03	1.559646214840385e-02	5.115588917476783e-02	0.000000000000000e+00
Particle	1.651694014568861e-02	1.843609124422864e-02	5.241518328747451e-02	0.000000000000000e+00
Particle	2.605197181827235e-03	5.679884414038204e-02	4.635775431145910e-02	0.000000000000000e+00
Particle	1.251631764111572e-03	5.873727077469445e-02	3.955931980610652e-02	0.000000000000000e+00
Particle	6.721317633953378e-03	5.247414501490284e-02	4.105295531523697e-02	0.000000000000000e+00
Particle	7.306482632824152e-03	5.299917445753299e-02	4.820339396062324e-02	0.000000000000000e+00
Particle	2.877785543544193e-03	4.760240056740808e-02	5.664293280856589e-02	0.000000000000000e+00
Particle	3.020349979786169e-03	5.469883838724923e-02	5.405812777816130e-02	0.000000000000000e+00
Particle	2.579706579369627e-02	1.792019965918385e-02	5.058990798789567e-02	0.000000000000000e+00
Particle	2.133983543950466e-02	1.126179944977928e-02	5.044846493193264e-02	0.000000000000000e+00
Particle	2.421143372711623e-02	6.343051689722191e-03	5.527023737535391e-02	0.000000000000000e+00
Particle	3.086964718069943e-02	1.439688652702491e-02	5.671813985235043e-02	0.000000000000000e+00
Particle	3.257934095191515e-02	4.389596222335529e-03	5.093836984168865e-02	0.000000000000000e+00
Particle	1.981403813355369e-02	5.317812256306945e-02	3.702183163969627e-02	0.000000000000000e+00
Particle	2.685667112837778e-02	5.244753786972464e-02	3.520364366385198e-02	0.000000000000000e+00
Particle	4.367446772294055e-02	2.580581965137452e-03	5.302406678665946e-02	0.000000000000000e+00
Particle	5.211329779824330e-02	1.220654993768104e-02	5.357585280731933e-02	0.000000000000000e+00
Particle	4.081295607002649e-02	1.365364756672046e-02	5.776463054141754e-02	0.000000000000000e+00
Particle	4.579563472260455e-02	8.708874824888314e-03	5.848767339053388e-02	0.000000000000000e+00
Particle	3.515437039554065e-02	8.203427492436965e-03	5.420743283105657e-02	0.000000000000000e+00
Particle	1.367073616060020e-02	3.768110033631972e-03	5.437140479591510e-02	0.000000000000000e+00
Particle	1.341797600599844e-02	9.371202625774662e-03	5.044175535992024e-02	0.000000000000000e+00
Particle	3.020349979786169e-03	4.698838387249227e-03	5.405812777816130e-02	0.000000000000000e+00
Particle	2.113297798243297e-03	1.220654993768104e-02	5.357585280731933e-02	0.000000000000000e+00
Particle	2.867090111582826e-03	5.433930220002403e-02	2.910164749125390e-02	0.000000000000000e+00
Particle	5.798660547025886e-03	5.790136347094400e-02	2.534146987319884e-02	0.000000000000000e+00
Particle	3.288446281533908e-03	5.909137794952718e-02	2.098949377486395e-02	0.000000000000000e+00
Particle	5.353364440575951e-02	4.467357482506994e-02	4.547356448509898e-04	0.000000000000000e+00
Particle	5.846244951962197e-02	3.763436713261994e-02	6.450676002853263e-04	0.000000000000000e+00
Particle	4.015405331222258e-02	4.392565247390776e-02	5.050550236036025e-02	0.000000000000000e+00
Particle	3.185491958138349e-02	5.305038979867229e-02	4.011193988828050e-02	0.000000000000000e+00
Particle	1.743521295642613e-02	3.387539024349428e-02	5.193179814291435e-02	0.000000000000000e+00
Particle	2.716455435126173e-02	3.644753639495035e-02	5.084407230198942e-02	0.000000000000000e+00
Particle	1.908031439006324e-02	3.523548885922180e-02	5.791760809982963e-02	0.000000000000000e+00
Particle	1.722434697529449e-02	4.337239900990471e-02	5.618723850717265e-02	0.000000000000000e+00
Particle	9.656938577853796e-03	4.349161127829723e-02	5.463588057890227e-02	0.000000000000000e+00
Particle	2.455900913055772e-02	4.438522092186836e-02	5.746074683405775e-02	0.000000000000000e+00
Particle	2.574999620342711e-02	4.487983917196008e-02	5.008439118162231e-02	0.000000000000000e+00
Particle	1.799130067365751e-02	4.963417988495782e-02	5.173423114994925e-02	0.000000000000000e+00
Particle	5.522650940862354e-02	5.487187578081827e-02	1.227016572567772e-02	0.000000000000000e+00
Particle	5.218902953367718e-02	4.717603017200338e-02	1.411038790308853e-02	0.000000000000000e+00
Particle	5.287778554354419e-02	4.760240056740808e-02	6.642932808565889e-03	0.000000000000000e+00
Particle	4.750923573373422e-02	5.482708557251979e-02	1.893810592140071e-02	0.000000000000000e+00
Particle	4.579563472260455e-02	5.870887482488832e-02	8.487673390533879e-03	0.000000000000000e+00
Particle	5.302034997978617e-02	5.469883838724923e-02	4.058127778161303e-03	0.000000000000000e+00
Particle	2.977571710765273e-02	4.901607247505085e-02	5.057591115539936e-02	0.000000000000000e+00
Particle	2.379035426876348e-02	5.261655362185763e-02	4.803893567368654e-02	0.000000000000000e+00
Particle	2.510143851839276e-02	2.508707179875005e-02	5.250423486871100e-02	0.000000000000000e+00
Particle	3.166020794306051e-02	5.310618911114615e-02	2.679538291379898e-02	0.000000000000000e+00
Particle	1.651433489384352e-02	5.241318103296246e-02	4.522077082214081e-02	0.000000000000000e+00
Particle	5.133243155270620e-02	2.191008208410508e-02	1.563169621982552e-04	0.000000000000000e+00
Particle	5.552325485466041e-02	2.171353591284844e-02	5.460650727500644e-03	0.000000000000000e+00
Particle	5.890643298464296e-02	1.559646214840385e-02	5.115588917476783e-02	0.000000000000000e+00
Particle	5.820163866479661e-02	1.441264813164498e-02	4.340408832785728e-02	0.000000000000000e+00
Particle	5.260519718182724e-02	6.798844140382038e-03	4.635775431145910e-02	0.000000000000000e+00
Particle	4.367446772294055e-02	5.258058196513746e-02	5.302406678665946e-02	0.000000000000000e+00
Particle	3.943311683428141e-02	5.687496929708116e-02	4.512793425297134e-02	0.000000000000000e+00
Particle	3.541363715443329e-02	4.999092940004274e-02	5.044015796748827e-02	0.000000000000000e+00
Particle	3.257934095191515e-02	5.438959622233553e-02	5.093836984168865e-02	0.000000000000000e+00
Particle	1.740701516728156e-02	2.843408623326137e-02	5.214885800999323e-02	0.000000000000000e+00
Particle	2.009239371807872e-02	2.851544620454880e-02	5.722779665302963e-02	0.000000000000000e+00
Particle	1.084180908242574e-02	4.925392379838518e-02	5.640024565361543e-02	0.000000000000000e+00
Particle	4.430052287354652e-02	4.027053415290595e-02	5.699774540629846e-02	0.000000000000000e+00
Particle	3.766477756943263e-02	3.588310787024925e-02	5.659003802843657e-02	0.000000000000000e+00
Particle	1.272891212942367e-02	5.505032516519512e-02	3.862527347071965e-02	0.000000000000000e+00
Particle	3.020349979786169e-03	5.469883838724923e-02	4.058127778161303e-03	0.000000000000000e+00
Particle	2.630666082956756e-02	2.081426868444864e-02	5.612010173978293e-02	0.000000000000000e+00
Particle	4.792530352353097e-02	4.520627573744052e-02	5.249211483964675e-02	0.000000000000000e+00
Particle	6.293154175127913e-03	5.509833415602480e-02	3.518126125430811e-02	0.000000000000000e+00
Particle	1.341797600599844e-02	5.937120262577467e-02	4.417553599202373e-04	0.000000000000000e+00
Particle	3.257934095191515e-02	5.438959622233553e-02	9.383698416886466e-04	0.000000000000000e+00
Particle	5.721649978693164e-02	4.289395150299973e-02	1.347264874949241e-02	0.000000000000000e+00
Particle	2.365399499801348e-02	5.493027291293033e-02	4.005647070103485e-02	0.000000000000000e+00
Particle	2.873043159478834e-02	5.806545231362156e-02	4.528471954948660e-02	0.000000000000000e+00
Particle	3.181316571685863e-02	4.380040320194051e-02	5.468130182925700e-02	0.000000000000000e+00
Particle	5.629315417512792e-02	5.098334156024798e-03	3.518126125430811e-02	0.000000000000000e+00
Particle	5.662568906121279e-02	3.125240697925565e-02	1.255325276999490e-02	0.000000000000000e+00
Particle	5.849287632717828e-02	3.701280635287918e-02	3.467160119555956e-02	0.000000000000000e+00
Particle	3.182254722766667e-02	6.051530679373890e-02	3.593822339973519e-02	0.000000000000000e+00
Particle	5.302034997978617e-02	4.698838387249227e-03	5.405812777816130e-02	0.000000000000000e+00
Particle	1.367073616060020e-02	5.376811003363197e-02	5.437140479591510e-02	0.000000000000000e+00
Particle	5.900711637072525e-02	3.788143587474826e-02	1.514607007866030e-02	0.000000000000000e+00
Particle	4.753303214412388e-02	5.829845601196713e-02	4.897972393541143e-02	0.000000000000000e+00
Particle	4.775704696207139e-02	5.941886695035475e-02	2.514430415454721e-02	0.000000000000000e+00
