Box	min_point	-1.000000e-03	-1.000000e-03	max_point  1.100000e-02	2.000000e-03
Box	min_point	7.880000e-01	-1.000000e-03	max_point  8.010000e-01 2.000000e-03
Box	min_point	3.790000e-01	 9.800000e-02	max_point  4.210000e-01 1.020000e-01
