# Type	vrtxCrdX	vrtxCrdY
AuxNode	3.000000000000	1.000000000000
AuxNode	2.860001273318	1.000000000000
AuxNode	3.000000000000	0.854284931886
AuxNode	2.883104901989	0.926557603168
AuxNode	2.753592171093	0.803244909431
AuxNode	2.829486840876	0.705676161209
AuxNode	2.705756495553	0.804588444977
AuxNode	2.697944979327	0.574976427193
AuxNode	2.637243968039	0.679250364197
AuxNode	2.793455282069	0.583929132475
AuxNode	-0.000000000041	0.281729758984
AuxNode	-0.000000000000	0.445952728191
AuxNode	3.000000000000	0.735580023514
AuxNode	3.000000000000	0.511952337321
AuxNode	2.909120178751	0.490100320328
AuxNode	3.000000000000	0.269922121244
AuxNode	2.848665018917	0.388007883410
AuxNode	2.896593315067	0.254771965585
AuxNode	0.116331340943	0.281729758984
AuxNode	0.137819282449	0.365195916820
AuxNode	0.145895274798	0.194839706313
AuxNode	0.197086494283	0.172541011054
AuxNode	0.383924464518	0.213775095816
AuxNode	0.254982205825	0.421751754737
AuxNode	0.330989900151	0.400952184339
AuxNode	0.402957636920	0.301369361649
AuxNode	0.061930742617	0.445952728191
AuxNode	2.397100864904	0.000000000000
AuxNode	2.593117052032	-0.000000000000
AuxNode	2.091838954119	0.103037761022
AuxNode	2.032542122341	0.000000000000
AuxNode	2.250124335679	-0.000000000000
AuxNode	2.234380090785	0.102215523962
AuxNode	1.050848724489	0.601947648308
AuxNode	0.944404429299	0.669055877845
AuxNode	1.086860939983	0.607941374022
AuxNode	0.947369563764	0.796976328945
AuxNode	1.103819933864	0.817532429776
AuxNode	1.134859305875	0.795474594563
AuxNode	1.068748879209	1.000000000000
AuxNode	1.294605858605	1.000000000000
AuxNode	1.299987235422	0.947196384411
AuxNode	1.175243249458	0.800467941188
AuxNode	1.068889207785	0.326756403420
AuxNode	1.193876986121	0.502440695151
AuxNode	0.973119470677	0.474011222342
AuxNode	1.189862172949	0.549803344339
AuxNode	2.015831494811	1.000000000000
AuxNode	2.098489356341	1.000000000000
AuxNode	2.632946639476	1.000000000000
AuxNode	2.363705834610	1.000000000000
AuxNode	2.606364661016	0.907338847194
AuxNode	2.552352611844	0.884531286428
AuxNode	2.368796878055	0.956117812715
AuxNode	0.000000000000	1.000000000000
AuxNode	0.000000000000	0.913154563776
AuxNode	0.210200529268	0.800981316707
AuxNode	0.122884123028	0.825579322996
AuxNode	0.246092365203	0.638218559520
AuxNode	0.000000000000	0.691031773365
AuxNode	0.220256132542	0.609937154891
AuxNode	0.093276592481	0.597994562149
AuxNode	0.000000000000	0.672223397556
AuxNode	0.293628686833	0.858074537830
AuxNode	0.411962566107	0.814972172157
AuxNode	0.411472154017	0.639113502372
AuxNode	0.079539950961	0.913154563776
AuxNode	0.463510924833	0.593890001526
AuxNode	0.290026180787	1.000000000000
AuxNode	0.113192977163	1.000000000000
AuxNode	0.523513383385	1.000000000000
AuxNode	0.509901722531	0.876797631122
AuxNode	0.600694712149	0.797287329191
AuxNode	0.606427841044	0.696645231317
AuxNode	0.515804697217	0.586036250294
AuxNode	0.901386776130	0.842516647319
AuxNode	0.959882280271	1.000000000000
AuxNode	0.726353759241	1.000000000000
AuxNode	0.794788713429	0.835747271775
AuxNode	0.757084037497	0.863844476368
AuxNode	0.804950678235	0.611502879781
AuxNode	0.769734143733	0.663385855610
AuxNode	0.427280027367	0.143098422557
AuxNode	0.334211648869	0.000000000000
AuxNode	0.520266465151	0.000000000000
AuxNode	0.482292605662	0.117664891321
AuxNode	0.242407881146	-0.000000000000
AuxNode	0.048808133672	0.102762252900
AuxNode	0.082350467837	0.000000000000
AuxNode	0.000000000000	0.102762252900
AuxNode	0.000000000000	0.000000000000
AuxNode	2.867977871306	0.195705962247
AuxNode	3.000000000000	0.066655713277
AuxNode	2.417674780154	0.121213417148
AuxNode	2.264550394671	0.138922082765
AuxNode	2.513635036130	0.685708391822
AuxNode	2.475123492504	0.729568597299
AuxNode	1.879985749647	0.008520062639
AuxNode	1.883231560921	-0.000000000000
AuxNode	1.617859806522	0.000000000000
AuxNode	1.694903318870	0.148445746952
AuxNode	1.526166950043	0.000000000000
AuxNode	1.348098782425	0.000000000000
AuxNode	1.173464085285	0.271186067038
AuxNode	1.271988763466	0.311292279490
AuxNode	1.074570906556	0.315651486625
AuxNode	1.068871942143	0.324696441042
AuxNode	1.293910668957	0.409752191392
AuxNode	1.880788170596	1.000000000000
AuxNode	1.662058829026	1.000000000000
AuxNode	1.797018863865	0.819311008057
AuxNode	1.702361109244	0.848608332432
AuxNode	1.543750374515	1.000000000000
AuxNode	1.578569952399	0.770565439360
AuxNode	1.488125821065	0.803406169931
AuxNode	0.687494194488	0.083510948089
AuxNode	0.604707680479	0.158362182727
AuxNode	0.665996409879	0.000000000000
AuxNode	0.527299763563	0.346831464361
AuxNode	0.587778306012	0.493099719147
AuxNode	0.634491054691	0.259055366581
AuxNode	0.842222278545	0.133930969315
AuxNode	0.837961891110	0.160083007782
AuxNode	0.707106500413	0.284076767171
AuxNode	0.866829018897	0.473295534577
AuxNode	0.802276722752	0.594650501229
AuxNode	0.826505575322	0.395538881968
AuxNode	0.632918548159	0.487286193188
AuxNode	0.743659297678	0.371167370375
AuxNode	0.901561709490	0.295338457647
AuxNode	3.000000000000	0.000000000000
AuxNode	2.746067680029	0.000000000000
AuxNode	2.763681261489	0.146052394445
AuxNode	1.118592336234	0.046161822440
AuxNode	1.111947246604	0.000000000000
AuxNode	1.022258132173	0.152961227487
AuxNode	0.883954692286	0.000000000000
AuxNode	0.859814776423	0.117086269823
AuxNode	1.213419259327	0.129723546451
AuxNode	1.326078572399	0.110968355704
AuxNode	2.494583646536	0.177618534388
AuxNode	2.632764396757	0.256904490051
AuxNode	2.491689627301	0.177763879514
AuxNode	2.405028611056	0.292204145136
AuxNode	2.448273849632	0.473457206079
AuxNode	2.650814346117	0.362755933731
AuxNode	2.607321646384	0.443135212639
AuxNode	2.479674450932	0.482012499116
AuxNode	2.239026040432	0.272900035862
AuxNode	2.253631734701	0.289800632572
AuxNode	1.494486103042	0.141271154333
AuxNode	1.376058580108	0.163241871218
AuxNode	1.681108340232	0.202022437369
AuxNode	1.604448232250	0.233835851823
AuxNode	1.368601491969	0.248911819856
AuxNode	1.452293268551	0.454343696857
AuxNode	1.501932659013	0.375713282480
AuxNode	1.453512806389	0.531880916213
AuxNode	1.644795871564	0.615992003253
AuxNode	1.540939287634	0.357140680615
AuxNode	1.678939979688	0.447001469784
AuxNode	1.654636950042	0.611451165087
AuxNode	1.810273217914	0.294625099756
AuxNode	1.767781864603	0.411999759117
AuxNode	1.881126164738	0.548239048697
AuxNode	1.742007601322	0.630740081116
AuxNode	1.812114385457	0.796054534782
AuxNode	1.274536407166	0.604964069508
AuxNode	1.427411232515	0.564198047245
AuxNode	1.280575272776	0.716240711790
AuxNode	1.456657899521	0.794850632095
AuxNode	1.430435093055	0.802213192696
AuxNode	2.064353912897	0.202142225155
AuxNode	2.118005015778	0.270674218400
AuxNode	1.918431811001	0.226655511615
AuxNode	1.881811319990	0.279382770456
AuxNode	2.321691045445	0.875640516572
AuxNode	2.424533982441	0.733334267234
AuxNode	2.221330003863	0.838007275790
AuxNode	2.380770119832	0.495818679779
AuxNode	2.320781531741	0.650959272352
AuxNode	2.248157154440	0.445762818496
AuxNode	2.000388984211	0.826908295217
AuxNode	1.901360594502	0.767335337392
AuxNode	2.202528165526	0.797289778703
AuxNode	2.263258457021	0.665380959276
AuxNode	2.092450539742	0.756509271543
AuxNode	1.905684298336	0.550770237230
AuxNode	1.952741936824	0.605730472896
AuxNode	1.988929761161	0.408152884830
AuxNode	2.060199877563	0.626624917829
AuxNode	2.146537157036	0.565896429459
AuxNode	2.057172706896	0.400903983102
AuxNode	2.163139150834	0.490108386964
