#ConstraintType	GovNodeIdx	Xmin	Xmax	Ymin	Ymax	Zmin	Zmax
RigidPlate	3223	inside 1 0 dirs 6 1 0 0 0 0 0
RigidPlate	3224	inside 1 1 dirs 6 1 0 0 0 0 0
RigidPlate	3225	inside 1 2 outside 3 0 1 3 dirs 6 0 0 1 0 0 0
RigidPlate	3225	inside 1 2 outside 3 0 1 4 dirs 6 0 1 0 0 0 0
RigidPlate	3226	inside 1 1
