# ElemType	nodeAidx	nodeBidx	nrOfVertices	vrtxAIdx	vrtxBIdx	Material
LTCBEAM	6	43	2	145	144	0
LTCBEAM	6	15	2	145	143	0
LTCBEAM	77	43	2	146	147	0
LTCBEAM	77	15	2	146	148	0
LTCBEAM	77	32	2	149	150	0
LTCBEAM	77	65	2	149	151	0
LTCBEAM	77	19	2	151	147	0
LTCBEAM	77	67	2	148	150	0
LTCBEAM	19	38	2	156	155	0
LTCBEAM	19	43	2	147	154	0
LTCBEAM	19	65	2	156	151	0
LTCBEAM	43	15	2	145	146	0
LTCBEAM	38	58	2	158	159	0
LTCBEAM	38	65	2	158	156	0
LTCBEAM	38	95	2	159	157	0
LTCBEAM	24	2	2	160	161	0
LTCBEAM	24	3	2	160	162	0
LTCBEAM	24	88	2	163	162	0
LTCBEAM	24	46	2	163	164	0
LTCBEAM	24	69	2	161	165	0
LTCBEAM	24	34	2	166	165	0
LTCBEAM	24	12	2	166	167	0
LTCBEAM	24	30	2	167	164	0
LTCBEAM	2	3	2	152	160	0
LTCBEAM	2	5	2	168	153	0
LTCBEAM	2	69	2	168	161	0
LTCBEAM	28	76	2	171	172	0
LTCBEAM	28	56	2	171	174	0
LTCBEAM	28	92	2	174	173	0
LTCBEAM	66	29	2	175	176	0
LTCBEAM	66	23	2	175	177	0
LTCBEAM	66	42	2	176	178	0
LTCBEAM	66	16	2	179	178	0
LTCBEAM	66	18	2	179	180	0
LTCBEAM	66	8	2	177	180	0
LTCBEAM	18	16	2	179	181	0
LTCBEAM	18	48	2	183	182	0
LTCBEAM	18	81	2	183	184	0
LTCBEAM	18	8	2	184	180	0
LTCBEAM	23	78	2	185	186	0
LTCBEAM	23	40	2	185	187	0
LTCBEAM	23	29	2	187	175	0
LTCBEAM	23	8	2	177	188	0
LTCBEAM	23	63	2	186	188	0
LTCBEAM	7	67	2	193	194	0
LTCBEAM	7	15	2	193	191	0
LTCBEAM	7	55	2	195	192	0
LTCBEAM	7	94	2	195	194	0
LTCBEAM	15	67	2	148	193	0
LTCBEAM	79	74	2	198	199	0
LTCBEAM	79	45	2	198	200	0
LTCBEAM	79	4	2	199	201	0
LTCBEAM	79	34	2	202	200	0
LTCBEAM	79	69	2	202	203	0
LTCBEAM	79	5	2	203	204	0
LTCBEAM	45	74	2	205	198	0
LTCBEAM	45	37	2	205	206	0
LTCBEAM	45	14	2	206	207	0
LTCBEAM	45	34	2	207	200	0
LTCBEAM	4	1	2	208	197	0
LTCBEAM	4	74	2	208	199	0
LTCBEAM	34	14	2	209	207	0
LTCBEAM	34	12	2	209	166	0
LTCBEAM	34	69	2	165	202	0
LTCBEAM	69	5	2	168	203	0
LTCBEAM	74	37	2	205	210	0
LTCBEAM	74	1	2	208	211	0
LTCBEAM	37	52	2	213	212	0
LTCBEAM	37	14	2	206	213	0
LTCBEAM	14	52	2	213	214	0
LTCBEAM	14	93	2	214	215	0
LTCBEAM	14	12	2	209	216	0
LTCBEAM	14	57	2	216	215	0
LTCBEAM	49	16	2	217	218	0
LTCBEAM	49	42	2	217	220	0
LTCBEAM	49	52	2	221	219	0
LTCBEAM	49	93	2	220	221	0
LTCBEAM	16	42	2	178	217	0
LTCBEAM	42	29	2	176	222	0
LTCBEAM	42	57	2	223	222	0
LTCBEAM	42	93	2	223	220	0
LTCBEAM	52	93	2	214	221	0
LTCBEAM	93	57	2	223	215	0
LTCBEAM	85	46	2	224	225	0
LTCBEAM	85	30	2	224	227	0
LTCBEAM	85	75	2	227	226	0
LTCBEAM	46	88	2	228	163	0
LTCBEAM	46	30	2	164	224	0
LTCBEAM	0	88	2	229	230	0
LTCBEAM	0	3	2	229	231	0
LTCBEAM	88	3	2	162	229	0
LTCBEAM	95	58	2	159	233	0
LTCBEAM	95	26	2	233	234	0
LTCBEAM	92	64	2	169	235	0
LTCBEAM	92	56	2	174	236	0
LTCBEAM	92	35	2	236	235	0
LTCBEAM	67	32	2	150	237	0
LTCBEAM	67	94	2	194	238	0
LTCBEAM	67	84	2	237	238	0
LTCBEAM	80	76	2	239	240	0
LTCBEAM	80	21	2	239	242	0
LTCBEAM	80	27	2	242	241	0
LTCBEAM	78	53	2	245	246	0
LTCBEAM	78	9	2	245	247	0
LTCBEAM	78	72	2	247	248	0
LTCBEAM	78	40	2	185	248	0
LTCBEAM	78	63	2	186	249	0
LTCBEAM	78	89	2	246	249	0
LTCBEAM	82	59	2	252	250	0
LTCBEAM	82	51	2	252	253	0
LTCBEAM	82	61	2	253	251	0
LTCBEAM	61	51	2	253	255	0
LTCBEAM	61	48	2	254	256	0
LTCBEAM	61	36	2	255	256	0
LTCBEAM	75	91	2	257	258	0
LTCBEAM	75	31	2	257	259	0
LTCBEAM	75	30	2	258	227	0
LTCBEAM	12	30	2	167	260	0
LTCBEAM	12	57	2	216	261	0
LTCBEAM	12	47	2	261	260	0
LTCBEAM	30	91	2	258	262	0
LTCBEAM	30	47	2	260	262	0
LTCBEAM	91	31	2	257	263	0
LTCBEAM	91	72	2	263	264	0
LTCBEAM	91	17	2	264	265	0
LTCBEAM	91	47	2	265	262	0
LTCBEAM	87	29	2	266	267	0
LTCBEAM	87	40	2	266	268	0
LTCBEAM	87	57	2	267	269	0
LTCBEAM	87	47	2	269	270	0
LTCBEAM	87	17	2	268	270	0
LTCBEAM	29	40	2	187	266	0
LTCBEAM	29	57	2	222	267	0
LTCBEAM	40	72	2	248	271	0
LTCBEAM	40	17	2	271	268	0
LTCBEAM	57	47	2	261	269	0
LTCBEAM	47	17	2	265	270	0
LTCBEAM	17	72	2	264	271	0
LTCBEAM	26	71	2	274	273	0
LTCBEAM	26	58	2	233	274	0
LTCBEAM	54	83	2	275	276	0
LTCBEAM	54	9	2	275	277	0
LTCBEAM	54	72	2	277	279	0
LTCBEAM	54	31	2	279	278	0
LTCBEAM	83	53	2	280	281	0
LTCBEAM	83	9	2	280	275	0
LTCBEAM	83	44	2	281	244	0
LTCBEAM	9	53	2	280	245	0
LTCBEAM	9	72	2	247	277	0
LTCBEAM	72	31	2	263	279	0
LTCBEAM	13	71	2	282	283	0
LTCBEAM	13	64	2	282	284	0
LTCBEAM	13	35	2	284	285	0
LTCBEAM	13	68	2	285	286	0
LTCBEAM	13	58	2	283	287	0
LTCBEAM	13	65	2	287	288	0
LTCBEAM	13	32	2	288	289	0
LTCBEAM	13	84	2	289	286	0
LTCBEAM	71	64	2	170	282	0
LTCBEAM	71	58	2	274	283	0
LTCBEAM	64	35	2	235	284	0
LTCBEAM	35	56	2	236	290	0
LTCBEAM	35	70	2	290	291	0
LTCBEAM	35	68	2	291	285	0
LTCBEAM	58	65	2	158	287	0
LTCBEAM	65	32	2	149	288	0
LTCBEAM	32	84	2	237	289	0
LTCBEAM	44	27	2	243	292	0
LTCBEAM	44	53	2	281	293	0
LTCBEAM	44	60	2	292	293	0
LTCBEAM	27	21	2	294	242	0
LTCBEAM	27	25	2	294	295	0
LTCBEAM	27	60	2	292	295	0
LTCBEAM	53	89	2	246	296	0
LTCBEAM	53	60	2	293	296	0
LTCBEAM	10	89	2	297	298	0
LTCBEAM	10	63	2	297	299	0
LTCBEAM	10	36	2	299	300	0
LTCBEAM	10	60	2	301	298	0
LTCBEAM	10	25	2	301	302	0
LTCBEAM	10	90	2	302	303	0
LTCBEAM	10	51	2	300	303	0
LTCBEAM	89	63	2	249	297	0
LTCBEAM	89	60	2	296	298	0
LTCBEAM	60	25	2	295	301	0
LTCBEAM	25	21	2	294	304	0
LTCBEAM	25	62	2	304	305	0
LTCBEAM	25	90	2	305	302	0
LTCBEAM	90	62	2	305	306	0
LTCBEAM	90	50	2	306	307	0
LTCBEAM	90	51	2	307	303	0
LTCBEAM	51	59	2	252	308	0
LTCBEAM	51	36	2	255	300	0
LTCBEAM	51	50	2	308	307	0
LTCBEAM	86	63	2	309	310	0
LTCBEAM	86	8	2	309	311	0
LTCBEAM	86	36	2	310	312	0
LTCBEAM	86	81	2	311	313	0
LTCBEAM	86	48	2	313	312	0
LTCBEAM	63	8	2	188	309	0
LTCBEAM	63	36	2	299	310	0
LTCBEAM	8	81	2	184	311	0
LTCBEAM	36	48	2	256	312	0
LTCBEAM	81	48	2	183	313	0
LTCBEAM	56	76	2	171	314	0
LTCBEAM	56	70	2	290	315	0
LTCBEAM	56	39	2	314	315	0
LTCBEAM	76	21	2	239	316	0
LTCBEAM	76	39	2	314	316	0
LTCBEAM	21	62	2	304	317	0
LTCBEAM	21	39	2	316	317	0
LTCBEAM	94	55	2	195	318	0
LTCBEAM	94	84	2	238	319	0
LTCBEAM	94	41	2	319	318	0
LTCBEAM	55	33	2	190	320	0
LTCBEAM	55	41	2	320	318	0
LTCBEAM	84	68	2	286	321	0
LTCBEAM	84	41	2	319	322	0
LTCBEAM	84	22	2	321	322	0
LTCBEAM	68	70	2	291	323	0
LTCBEAM	68	22	2	321	323	0
LTCBEAM	59	33	2	189	324	0
LTCBEAM	59	50	2	308	325	0
LTCBEAM	59	20	2	324	325	0
LTCBEAM	41	33	2	320	326	0
LTCBEAM	41	22	2	322	327	0
LTCBEAM	41	73	2	326	327	0
LTCBEAM	33	20	2	324	328	0
LTCBEAM	33	73	2	326	328	0
LTCBEAM	11	50	2	329	330	0
LTCBEAM	11	62	2	329	331	0
LTCBEAM	11	20	2	330	332	0
LTCBEAM	11	73	2	332	333	0
LTCBEAM	11	39	2	331	334	0
LTCBEAM	11	70	2	334	335	0
LTCBEAM	11	22	2	335	333	0
LTCBEAM	50	62	2	306	329	0
LTCBEAM	50	20	2	325	330	0
LTCBEAM	62	39	2	317	331	0
LTCBEAM	20	73	2	328	332	0
LTCBEAM	73	22	2	327	333	0
LTCBEAM	39	70	2	315	334	0
LTCBEAM	70	22	2	323	335	0
