# Type	nodeCrdX	nodeCrdY	powRadius
Particle	0.000000010000	0.000000010000	0.000000000000
Particle	0.000000010000	0.999999990000	0.000000000000
Particle	0.000000010000	0.357935022168	0.000000000000
Particle	0.000000010000	0.205524495800	0.000000000000
Particle	0.000000010000	0.826309137552	0.000000000000
Particle	0.000000010000	0.533970434213	0.000000000000
Particle	2.999999990000	0.999999990000	0.000000000000
Particle	2.495261356790	0.991555070108	0.000000000000
Particle	1.192749039840	0.687017486824	0.000000000000
Particle	1.115005470966	0.172289941237	0.000000000000
Particle	1.589321114043	0.492702949976	0.000000000000
Particle	2.039612156136	0.511903228391	0.000000000000
Particle	0.458013022061	0.439003304952	0.000000000000
Particle	2.500110345931	0.332185156737	0.000000000000
Particle	0.503752734840	0.743558677065	0.000000000000
Particle	2.745216358712	0.919849740790	0.000000000000
Particle	1.011335466016	0.885309595563	0.000000000000
Particle	0.809536981037	0.292608553564	0.000000000000
Particle	1.164588715949	0.914765531748	0.000000000000
Particle	2.895659212649	0.640836735515	0.000000000000
Particle	1.998123853702	0.725273220210	0.000000000000
Particle	1.819076627551	0.158825650446	0.000000000000
Particle	2.266242279711	0.561548420195	0.000000000000
Particle	1.073881544766	0.476423859572	0.000000000000
Particle	0.254999182181	0.292286770973	0.000000000000
Particle	1.684486782447	0.346555467622	0.000000000000
Particle	2.882833312307	0.073997839853	0.000000000000
Particle	1.581157921336	0.097566109324	0.000000000000
Particle	2.166103373202	0.026800940484	0.000000000000
Particle	0.928831516101	0.564550680439	0.000000000000
Particle	0.533805452199	0.231705547378	0.000000000000
Particle	0.758545648798	0.014250095652	0.000000000000
Particle	2.580158867131	0.595011350570	0.000000000000
Particle	2.097879614111	0.855724894072	0.000000000000
Particle	0.320916817889	0.533169030065	0.000000000000
Particle	2.340768326395	0.211521845897	0.000000000000
Particle	1.516440062037	0.658446985770	0.000000000000
Particle	0.386971965554	0.928553826667	0.000000000000
Particle	2.965657719455	0.349721650428	0.000000000000
Particle	2.016685987788	0.296070634527	0.000000000000
Particle	0.930054738989	0.382883590540	0.000000000000
Particle	2.314874340310	0.755524733116	0.000000000000
Particle	0.859658899162	0.732159340762	0.000000000000
Particle	2.869646286577	0.789163602368	0.000000000000
Particle	1.434778015901	0.064739596296	0.000000000000
Particle	0.319775530527	0.744071729083	0.000000000000
Particle	0.300019460029	0.088292978432	0.000000000000
Particle	0.641447775702	0.363157274308	0.000000000000
Particle	1.439144399600	0.942746335231	0.000000000000
Particle	0.846034194771	0.946708981796	0.000000000000
Particle	1.846655838769	0.677114831226	0.000000000000
Particle	1.702600362686	0.738206078490	0.000000000000
Particle	0.641164992621	0.900470038122	0.000000000000
Particle	1.275022581062	0.217485739085	0.000000000000
Particle	0.993500584075	0.062691235486	0.000000000000
Particle	2.237578161354	0.961659651851	0.000000000000
Particle	2.166977933765	0.178412760094	0.000000000000
Particle	0.672620451017	0.605203516488	0.000000000000
Particle	2.782870414162	0.283968479334	0.000000000000
Particle	1.909539231425	0.872527827289	0.000000000000
Particle	1.466202810657	0.234126904922	0.000000000000
Particle	1.602851736595	0.896426735508	0.000000000000
Particle	1.873667523338	0.415041678740	0.000000000000
Particle	1.316539565393	0.496993372343	0.000000000000
Particle	2.484596127039	0.023275945953	0.000000000000
Particle	2.758847911618	0.472186353648	0.000000000000
Particle	1.031982787295	0.728164956005	0.000000000000
Particle	2.589247939475	0.768979408573	0.000000000000
Particle	2.338239599370	0.370805961357	0.000000000000
Particle	0.153624276615	0.502298340610	0.000000000000
Particle	2.163552217273	0.364674089788	0.000000000000
Particle	2.630815285449	0.104390631853	0.000000000000
Particle	0.958158000851	0.222723976809	0.000000000000
Particle	2.161210239134	0.684778397145	0.000000000000
Particle	0.196829953265	0.923727435839	0.000000000000
Particle	0.591831551872	0.057166429726	0.000000000000
Particle	1.988610826524	0.128945489995	0.000000000000
Particle	2.738684688181	0.687294023782	0.000000000000
Particle	1.208644969278	0.380548577470	0.000000000000
Particle	0.134723129589	0.703264664072	0.000000000000
Particle	1.718768460515	0.026146082195	0.000000000000
Particle	1.289765864214	0.808343790447	0.000000000000
Particle	1.764924880599	0.939572553045	0.000000000000
Particle	1.243267260428	0.026736806843	0.000000000000
Particle	2.421284917889	0.621499132023	0.000000000000
Particle	0.428784820523	0.004546539486	0.000000000000
Particle	1.364723194546	0.677684631451	0.000000000000
Particle	0.756503852432	0.472884499103	0.000000000000
Particle	0.148842950001	0.048583409943	0.000000000000
Particle	1.358731979265	0.347132000258	0.000000000000
Particle	1.751508757647	0.516671684630	0.000000000000
Particle	0.704098814215	0.181335594491	0.000000000000
Particle	2.322185916685	0.050842315933	0.000000000000
Particle	0.703111118212	0.754915229962	0.000000000000
Particle	2.437878056949	0.844417972447	0.000000000000
Particle	2.989992621435	0.183624905383	0.000000000000
