# bcType	nodeIdx	KinTrX	KinTrY	KinTrZ	KinRotX	KinRotY	KinRotZ	StTrX	StTrY	StTrZ	StRotX	StRotY	StRotZ
NodalBC	0	-1	0	0	-1 -1 -1 	-1	-1	-1	-1	-1	-1
NodalBC	1	-1	0	0	-1	-1	-1	-1	-1	-1	-1	-1	-1
NodalBC	8108	0  -1	-1	0	0	0	-1	-1	-1	-1	-1	-1
NodalBC	8109	-1	-1	-1	0	0	0	1	-1	-1	-1	-1	-1
