Dimension	2
Solver	solver.inp
NodeFiles	3	nodes.inp	auxNodes.inp	vertices.inp
MatFiles	1	materials.inp
ElemFiles	1	mechElems.inp
BCFiles	1	mechBC.inp
FunctionFiles	1	functions.inp
ExporterFiles	1	exporters.inp
