Dimension	2
Solver	solver.inp
NodeFiles	3	nodes.inp	auxNodes.inp govNodes.inp
MatFiles	1	materials.inp
ElemFiles	1	mechElems.inp
ConstrFiles 1 constraint.inp
BCFiles	1	mechBC.inp
ICFiles	1	mechIC.inp
FunctionFiles	1	functions.inp
ExporterFiles	1	exporters.inp
