# Type	nodeCrdX	nodeCrdY	nodeCrdZ	powRadius
Particle	0.630393004349	0.229597240511	0.341942612909	0.001022808873
Particle	0.000010000000	0.103854512239	0.410521372411	0.000586241821
Particle	0.000010000000	0.319972701800	0.159821419547	0.000459157300
Particle	0.000010000000	0.524497889126	0.456453119235	0.000542386621
Particle	0.000010000000	0.541535921913	0.964200371526	0.000420101032
Particle	0.000010000000	0.853503993130	0.614140108442	0.000540358948
Particle	0.000010000000	0.637273151043	0.663162959065	0.000731856018
Particle	0.000010000000	0.906265748363	0.722700491347	0.000661632270
Particle	0.000010000000	0.416963855338	0.206915489915	0.000536661394
Particle	0.000010000000	0.301179529035	0.743238708551	0.000673547433
Particle	0.000010000000	0.446643513429	0.330957013584	0.000478072388
Particle	0.000010000000	0.118048625497	0.736771033387	0.000537393452
Particle	0.000010000000	0.429063883390	0.798241000099	0.000798266273
Particle	0.000010000000	0.749053271246	0.780944825649	0.000496544983
Particle	0.000010000000	0.004818189393	0.017333691661	0.000172945583
Particle	0.000010000000	0.440097375420	0.919139733138	0.000624460174
Particle	0.000010000000	0.933156427767	0.082701832116	0.000470356844
Particle	0.000010000000	0.534270037349	0.590435219245	0.000585018952
Particle	0.000010000000	0.211580794911	0.943000884636	0.000511601687
Particle	0.000010000000	0.886327935586	0.419217182174	0.000638738145
Particle	0.000010000000	0.239965474928	0.440822712665	0.000634098340
Particle	0.000010000000	0.942370884804	0.514579099090	0.000513851372
Particle	0.000010000000	0.171436351207	0.001381954776	0.000217660855
Particle	0.000010000000	0.244080883262	0.266484960035	0.000632537047
Particle	0.000010000000	0.129019043140	0.268973498628	0.000482664098
Particle	0.000010000000	0.534341736002	0.737550001595	0.000568254746
Particle	0.000010000000	0.744161968401	0.312691294761	0.000563241152
Particle	0.000010000000	0.129334343540	0.534324864668	0.000454358748
Particle	0.000010000000	0.400986267338	0.015999348588	0.000362177706
Particle	0.000010000000	0.407937525793	0.534429481037	0.000581695498
Particle	0.000010000000	0.496606977533	0.027886167996	0.000569240359
Particle	0.000010000000	0.809373768745	0.062272995996	0.000562173691
Particle	0.000010000000	0.847771656269	0.868943328481	0.000485489326
Particle	0.000010000000	0.999463491746	0.649968795615	0.000206855617
Particle	0.000010000000	0.601032090730	0.054654187094	0.000639484914
Particle	0.000010000000	0.394893965118	0.686949778607	0.000792924028
Particle	0.000010000000	0.760971198750	0.660753548958	0.000638549910
Particle	0.000010000000	0.849358735968	0.171169739133	0.000617182675
Particle	0.000010000000	0.171694782579	0.814005513943	0.000575300817
Particle	0.000010000000	0.552998846265	0.149458788110	0.000523020734
Particle	0.000010000000	0.639508282339	0.435555464007	0.000602562836
Particle	0.000010000000	0.907723142454	0.270587686959	0.000496068605
Particle	0.000010000000	0.018853913787	0.579472798557	0.000373460491
Particle	0.000010000000	0.010052823742	0.445510788583	0.000300608098
Particle	0.000010000000	0.651176789414	0.967648576655	0.000465300502
Particle	0.000010000000	0.703996900882	0.021681030210	0.000417147864
Particle	0.000010000000	0.279172917762	0.602423173203	0.000593403904
Particle	0.000010000000	0.911792916580	0.993354084935	0.000260021486
Particle	0.000010000000	0.670216666477	0.555941724228	0.000602386637
Particle	0.000010000000	0.695740381003	0.167158832293	0.000473588886
Particle	0.000010000000	0.266127410151	0.018859650502	0.000318193234
Particle	0.000010000000	0.336475533094	0.943457325871	0.000522019889
Particle	0.000010000000	0.579305286787	0.305699081444	0.000496212874
Particle	0.000010000000	0.022039019993	0.944508913757	0.000473360683
Particle	0.000010000000	0.411885328895	0.422546281696	0.000460361224
Particle	0.000010000000	0.201671926720	0.163010434476	0.000519451424
Particle	0.000010000000	0.773987141091	0.460721733098	0.000583235343
Particle	0.000010000000	0.565684663940	0.826173677354	0.000632274871
Particle	0.000010000000	0.030403341714	0.691571532529	0.000524344940
Particle	0.000010000000	0.779301918253	0.928317229118	0.000557354957
Particle	0.000010000000	0.339605612143	0.354353111787	0.000682244003
Particle	0.000010000000	0.663374034597	0.839694383450	0.000505149454
Particle	0.000010000000	0.088831866867	0.059231355838	0.000419612000
Particle	0.000010000000	0.976917298276	0.852167042341	0.000444650494
Particle	0.000010000000	0.159615646606	0.634149390850	0.000484099135
Particle	0.000010000000	0.043494653853	0.856530422017	0.000587461642
Particle	0.000010000000	0.042347556123	0.208037636398	0.000409060793
Particle	0.000010000000	0.965917995801	0.191408295372	0.000493626265
Particle	0.000010000000	0.332063722125	0.483809388711	0.000524661766
Particle	0.000010000000	0.319773328117	0.851083573910	0.000623300147
Particle	0.000010000000	0.837712097276	0.524378733618	0.000505998682
Particle	0.000010000000	0.993638519994	0.386719760188	0.000338756158
Particle	0.000010000000	0.110284839054	0.148725840271	0.000356656997
Particle	0.000010000000	0.400847036760	0.109123650848	0.000506111520
Particle	0.000010000000	0.999784652599	0.945362712073	0.000239534209
Particle	0.000010000000	0.122789182301	0.967617219550	0.000481881291
Particle	0.000010000000	0.508458821486	0.236226748192	0.000438048053
Particle	0.000010000000	0.041289800004	0.324054007246	0.000437462342
Particle	0.000010000000	0.883418103363	0.007631880284	0.000245932336
Particle	0.000010000000	0.209840236900	0.724492076011	0.000372604458
Particle	0.000010000000	0.625854795523	0.752630777947	0.000489266752
Particle	0.000010000000	0.993534322479	0.757305925561	0.000310383940
Particle	0.000010000000	0.651594730599	0.251761989704	0.000466630159
Particle	0.000010000000	0.184397289090	0.353419632501	0.000545967138
Particle	0.000010000000	0.989442729559	0.007679137168	0.000173690160
Particle	0.000010000000	0.005653345181	0.118674306681	0.000222549180
Particle	0.000010000000	0.343040370830	0.261842119050	0.000529236099
Particle	0.000010000000	0.836375821907	0.329051652653	0.000633808951
Particle	0.000010000000	0.770176670391	0.222869248544	0.000636228353
Particle	0.000010000000	0.995799108100	0.293041988920	0.000250409568
Particle	0.000010000000	0.219724797230	0.533934940236	0.000442186018
Particle	0.999990000000	0.258194291394	0.481060311022	0.000603872815
Particle	0.999990000000	0.346618543970	0.896144240656	0.000448004494
Particle	0.999990000000	0.790340620516	0.667661612932	0.000541270669
Particle	0.999990000000	0.530529826485	0.152437085282	0.000604576938
Particle	0.999990000000	0.366604825115	0.561384264471	0.000492466752
Particle	0.999990000000	0.942580293994	0.118179673177	0.000540675227
Particle	0.999990000000	0.780159054469	0.902633023748	0.000521551421
Particle	0.999990000000	0.899458741320	0.376649120978	0.000448908908
Particle	0.999990000000	0.505655568142	0.653549425801	0.000607070389
Particle	0.999990000000	0.705976598756	0.781419167002	0.000520641561
Particle	0.999990000000	0.654641315451	0.307542723588	0.000586963210
Particle	0.999990000000	0.130246861059	0.295638914053	0.000743974714
Particle	0.999990000000	0.274324534082	0.206656708122	0.000617801318
Particle	0.999990000000	0.682766136285	0.140927382147	0.000544528383
Particle	0.999990000000	0.811678530485	0.237156738849	0.000463811528
Particle	0.999990000000	0.041946806935	0.532674718094	0.000462399062
Particle	0.999990000000	0.197678945417	0.975387518584	0.000435975553
Particle	0.999990000000	0.235236682087	0.383521769328	0.000707003560
Particle	0.999990000000	0.958663704449	0.534150334337	0.000440369111
Particle	0.999990000000	0.549495274482	0.891304552583	0.000561832089
Particle	0.999990000000	0.535058734723	0.394578042568	0.000601083173
Particle	0.999990000000	0.810981918390	0.512235384106	0.000518692335
Particle	0.999990000000	0.142929609358	0.848668003018	0.000558279282
Particle	0.999990000000	0.395908908152	0.183811022601	0.000460983289
Particle	0.999990000000	0.415148916640	0.364949446758	0.000510068978
Particle	0.999990000000	0.821053323547	0.816903533208	0.000615815239
Particle	0.999990000000	0.305616894510	0.727101549449	0.000523435580
Particle	0.999990000000	0.547027962606	0.540351782962	0.000414651452
Particle	0.999990000000	0.910120341014	0.651576915391	0.000468954601
Particle	0.999990000000	0.174310772664	0.624908343792	0.000648039537
Particle	0.999990000000	0.274256921166	0.300506231502	0.000501407374
Particle	0.999990000000	0.287179051989	0.066529405938	0.000574647761
Particle	0.999990000000	0.610884612206	0.474791117993	0.000525748006
Particle	0.999990000000	0.536213678004	0.995905399954	0.000316977934
Particle	0.999990000000	0.043775527398	0.161218965646	0.000445846217
Particle	0.999990000000	0.395394111155	0.653733553186	0.000574028024
Particle	0.999990000000	0.147688199697	0.159152542102	0.000570052312
Particle	0.999990000000	0.219358917317	0.796606152108	0.000479972585
Particle	0.999990000000	0.179235674218	0.024034358018	0.000541963410
Particle	0.999990000000	0.028132323510	0.629524459789	0.000447566453
Particle	0.999990000000	0.798858226810	0.126164061371	0.000610184595
Particle	0.999990000000	0.931544467587	0.967298898436	0.000397656806
Particle	0.999990000000	0.659070486789	0.675497989269	0.000559235406
Particle	0.999990000000	0.827984719245	0.980793739191	0.000328286337
Particle	0.999990000000	0.593405384380	0.779153093864	0.000573158822
Particle	0.999990000000	0.935116218710	0.869711021069	0.000616951002
Particle	0.999990000000	0.725841310679	0.024887787665	0.000420706303
Particle	0.999990000000	0.406917523296	0.798582871883	0.000558470620
Particle	0.999990000000	0.420478534765	0.050110204772	0.000554318959
Particle	0.999990000000	0.167832494957	0.482199344061	0.000712032814
Particle	0.999990000000	0.707818335990	0.462746160282	0.000522025742
Particle	0.999990000000	0.294729610242	0.619458287051	0.000685412466
Particle	0.999990000000	0.810468327758	0.400384774040	0.000556364360
Particle	0.999990000000	0.998531525258	0.259716417778	0.000260212044
Particle	0.999990000000	0.624698035189	0.218925536475	0.000575891595
Particle	0.999990000000	0.073886133113	0.369812800427	0.000561337739
Particle	0.999990000000	0.049802167766	0.727922438060	0.000621231249
Particle	0.999990000000	0.443135428596	0.901473867823	0.000559237412
Particle	0.999990000000	0.370968690964	0.983421515285	0.000289032252
Particle	0.999990000000	0.664722346011	0.936653363650	0.000590876605
Particle	0.999990000000	0.002511460888	0.285344868508	0.000348763303
Particle	0.999990000000	0.714353758478	0.587732434402	0.000522277656
Particle	0.999990000000	0.985174344492	0.713423873696	0.000305137924
Particle	0.999990000000	0.443215399599	0.460490799102	0.000440077013
Particle	0.999990000000	0.943272894023	0.000802220804	0.000248120020
Particle	0.999990000000	0.594516851659	0.079186168325	0.000576556400
Particle	0.999990000000	0.537023738419	0.273854364782	0.000648115685
Particle	0.999990000000	0.001918019841	0.447868576964	0.000266368967
Particle	0.999990000000	0.046609799407	0.889559513514	0.000398525950
Particle	0.999990000000	0.050487341330	0.993982072848	0.000311822497
Particle	0.999990000000	0.140018852960	0.741711903062	0.000576182272
Particle	0.999990000000	0.350656961369	0.451169064709	0.000477863284
Particle	0.999990000000	0.060362235499	0.039361241733	0.000479036834
Particle	0.999990000000	0.999001389924	0.441161984175	0.000250525296
Particle	0.999990000000	0.442675496711	0.270130373872	0.000573829316
Particle	0.999990000000	0.531541176488	0.005212275931	0.000307854546
Particle	0.999990000000	0.838709384284	0.042845450656	0.000472331247
Particle	0.999990000000	0.905458561112	0.239034299826	0.000469138737
Particle	0.999990000000	0.718041640677	0.238531246355	0.000523393636
Particle	0.999990000000	0.502816455163	0.744505816549	0.000647231119
Particle	0.999990000000	0.875144448656	0.742992973742	0.000627257696
Particle	0.999990000000	0.247064379238	0.900125472406	0.000478699218
Particle	0.999990000000	0.737440113837	0.990524716895	0.000246786033
Particle	0.999990000000	0.746217215493	0.325553636883	0.000466461065
Particle	0.999990000000	0.889953934011	0.467251436238	0.000519246708
Particle	0.999990000000	0.462014810429	0.573963453813	0.000502120170
Particle	0.999990000000	0.985959803951	0.348910431760	0.000327554181
Particle	0.999990000000	0.004597248591	0.808945166962	0.000253167424
Particle	0.999990000000	0.996540833229	0.616899638336	0.000250084111
Particle	0.999990000000	0.623161951413	0.588541008198	0.000479173522
Particle	0.999990000000	0.997031093774	0.803047347110	0.000263388608
Particle	0.367441860938	0.263257515010	0.999990000000	0.000518349403
Particle	0.535424275283	0.234524573059	0.999990000000	0.000663065286
Particle	0.756376428732	0.885975445384	0.999990000000	0.000519059410
Particle	0.629706138339	0.691044837735	0.999990000000	0.000513775704
Particle	0.176382432102	0.728178598844	0.999990000000	0.000705752228
Particle	0.467124556062	0.614045989006	0.999990000000	0.000533373779
Particle	0.243750602855	0.840326565488	0.999990000000	0.000547052391
Particle	0.886216417774	0.722394849377	0.999990000000	0.000521932428
Particle	0.119189527759	0.889667224660	0.999990000000	0.000551126141
Particle	0.156592964454	0.439966008542	0.999990000000	0.000590964094
Particle	0.820074741431	0.399951798443	0.999990000000	0.000409434465
Particle	0.542554922406	0.459128221925	0.999990000000	0.000442211320
Particle	0.915104501363	0.585981050646	0.999990000000	0.000470548935
Particle	0.646101125088	0.353404943768	0.999990000000	0.000517493230
Particle	0.606547519659	0.780844985176	0.999990000000	0.000554500535
Particle	0.451231172579	0.028403726149	0.999990000000	0.000411636586
Particle	0.178945902732	0.291387609756	0.999990000000	0.000547048190
Particle	0.737387700031	0.531016310125	0.999990000000	0.000513018579
Particle	0.330101555809	0.602667527863	0.999990000000	0.000597659208
Particle	0.865169969359	0.106933298394	0.999990000000	0.000544046462
Particle	0.071690714332	0.479550721656	0.999990000000	0.000449852678
Particle	0.318382387170	0.341137621754	0.999990000000	0.000592289871
Particle	0.608079339745	0.917473818156	0.999990000000	0.000678247034
Particle	0.515919968740	0.818552369952	0.999990000000	0.000684885426
Particle	0.421903316242	0.799417352923	0.999990000000	0.000555739387
Particle	0.206368563764	0.971257636981	0.999990000000	0.000510660930
Particle	0.278459102342	0.137939225416	0.999990000000	0.000554441172
Particle	0.116661449199	0.032692625875	0.999990000000	0.000692555828
Particle	0.805702057821	0.617370318367	0.999990000000	0.000585504600
Particle	0.570477569694	0.109335203846	0.999990000000	0.000561271547
Particle	0.241419359826	0.546598078284	0.999990000000	0.000651916643
Particle	0.441583333477	0.464029977896	0.999990000000	0.000709052267
Particle	0.408731546487	0.696813498771	0.999990000000	0.000633239271
Particle	0.340434582685	0.060315668595	0.999990000000	0.000566713667
Particle	0.168891145193	0.137335874551	0.999990000000	0.000656389988
Particle	0.511017383790	0.970326708657	0.999990000000	0.000419245892
Particle	0.916132027972	0.947646453379	0.999990000000	0.000513646736
Particle	0.694240031881	0.031347129348	0.999990000000	0.000515958409
Particle	0.788128443370	0.748913600348	0.999990000000	0.000668380641
Particle	0.069750419888	0.724815610716	0.999990000000	0.000593870850
Particle	0.892243740373	0.210778165196	0.999990000000	0.000553139047
Particle	0.385136763028	0.999361494222	0.999990000000	0.000244983495
Particle	0.723752442892	0.196554074877	0.999990000000	0.000463260686
Particle	0.617171194841	0.562073651806	0.999990000000	0.000412995332
Particle	0.071840874806	0.281314138000	0.999990000000	0.000456279015
Particle	0.103153934243	0.607883719139	0.999990000000	0.000578423066
Particle	0.571341264432	0.007497743224	0.999990000000	0.000288532637
Particle	0.335349370543	0.851299065746	0.999990000000	0.000545603321
Particle	0.786070247365	0.315767750333	0.999990000000	0.000502672796
Particle	0.457744499841	0.129344285386	0.999990000000	0.000571671669
Particle	0.890030659306	0.303986798243	0.999990000000	0.000432935221
Particle	0.255656187977	0.007496790112	0.999990000000	0.000391894511
Particle	0.318152510065	0.469572189248	0.999990000000	0.000731967979
Particle	0.553464440628	0.351717803741	0.999990000000	0.000706359417
Particle	0.692893244701	0.999215478391	0.999990000000	0.000318530224
Particle	0.667380610641	0.121501054426	0.999990000000	0.000492347996
Particle	0.449489954138	0.357471690879	0.999990000000	0.000755401656
Particle	0.854637684230	0.856413862531	0.999990000000	0.000535061895
Particle	0.628449310801	0.238844065175	0.999990000000	0.000542625587
Particle	0.505903933629	0.697057310675	0.999990000000	0.000461858409
Particle	0.294735755383	0.753996107585	0.999990000000	0.000662267184
Particle	0.079550512533	0.387999004489	0.999990000000	0.000398141912
Particle	0.702561232926	0.789497611007	0.999990000000	0.000500902973
Particle	0.824300932349	0.000235619374	0.999990000000	0.000279795403
Particle	0.922953922895	0.416445998398	0.999990000000	0.000520685310
Particle	0.647133314986	0.465852068454	0.999990000000	0.000456050149
Particle	0.248205065707	0.408526781129	0.999990000000	0.000645117842
Particle	0.827411426297	0.979684122338	0.999990000000	0.000369245136
Particle	0.086810496230	0.982740305916	0.999990000000	0.000412840054
Particle	0.198653056989	0.636673649303	0.999990000000	0.000626401295
Particle	0.298786089158	0.960541242917	0.999990000000	0.000463587701
Particle	0.410969148993	0.900968934340	0.999990000000	0.000449399110
Particle	0.718559370519	0.407053990796	0.999990000000	0.000396269535
Particle	0.775173815764	0.120824807609	0.999990000000	0.000574209433
Particle	0.715879352722	0.629797489778	0.999990000000	0.000489018151
Particle	0.851444352821	0.518180758770	0.999990000000	0.000492332616
Particle	0.259490126290	0.234217025062	0.999990000000	0.000588828231
Particle	0.078334110703	0.156664143544	0.999990000000	0.000525733735
Particle	0.047167746268	0.821279007826	0.999990000000	0.000456916722
Particle	0.374309226767	0.168618635359	0.999990000000	0.000443355793
Particle	0.911961290792	0.024202921494	0.999990000000	0.000320268518
Particle	0.403034222933	0.546974619699	0.999990000000	0.000582128028
Particle	0.978273145571	0.283547924527	0.999990000000	0.000331408622
Particle	0.697705997004	0.591156162148	0.000010000000	0.000591094162
Particle	0.909370739217	0.052326036872	0.000010000000	0.000524707025
Particle	0.579683448877	0.588612081589	0.000010000000	0.000581247095
Particle	0.334184710728	0.789432077857	0.000010000000	0.000450292059
Particle	0.382444605717	0.537889626807	0.000010000000	0.000604461295
Particle	0.215238576729	0.292971083116	0.000010000000	0.000577535283
Particle	0.147077298170	0.480389369005	0.000010000000	0.000695826305
Particle	0.574728377554	0.908085472368	0.000010000000	0.000515228862
Particle	0.108250571995	0.220989851766	0.000010000000	0.000530613044
Particle	0.721867016733	0.030115352047	0.000010000000	0.000455148003
Particle	0.488248141008	0.991127618459	0.000010000000	0.000356910024
Particle	0.427977725401	0.669169958183	0.000010000000	0.000628882929
Particle	0.271501575700	0.930514116357	0.000010000000	0.000591470466
Particle	0.776411022732	0.924407730274	0.000010000000	0.000505841001
Particle	0.764678854294	0.497054879311	0.000010000000	0.000646196716
Particle	0.671542162812	0.277666340887	0.000010000000	0.000655460431
Particle	0.883119209719	0.850633041398	0.000010000000	0.000564922152
Particle	0.385430551747	0.989681629407	0.000010000000	0.000353930072
Particle	0.558140216643	0.145269455083	0.000010000000	0.000557166868
Particle	0.725851584152	0.747628471185	0.000010000000	0.000573919223
Particle	0.681406759477	0.998742126818	0.000010000000	0.000299802899
Particle	0.253315492414	0.144700573572	0.000010000000	0.000710632984
Particle	0.319773001277	0.683823350456	0.000010000000	0.000396707025
Particle	0.457166703220	0.423867766785	0.000010000000	0.000525262317
Particle	0.511636208753	0.714137291014	0.000010000000	0.000517653263
Particle	0.095290999875	0.001664181664	0.000010000000	0.000288678368
Particle	0.444065165059	0.107544554805	0.000010000000	0.000411218732
Particle	0.113425495807	0.948751266829	0.000010000000	0.000540484667
Particle	0.543006949343	0.030469940618	0.000010000000	0.000378607718
Particle	0.664400690257	0.417161667147	0.000010000000	0.000495667813
Particle	0.888443576476	0.609171855429	0.000010000000	0.000635008751
Particle	0.583829288506	0.340426368740	0.000010000000	0.000475628131
Particle	0.835579213954	0.279374237783	0.000010000000	0.000653042386
Particle	0.127307563085	0.575297496753	0.000010000000	0.000602505740
Particle	0.340833999973	0.430615832847	0.000010000000	0.000708627613
Particle	0.321848256534	0.228690295340	0.000010000000	0.000515068892
Particle	0.219576617199	0.556977303963	0.000010000000	0.000573048106
Particle	0.812655965098	0.136339657997	0.000010000000	0.000674431405
Particle	0.899857891500	0.205181394736	0.000010000000	0.000527081214
Particle	0.099557380887	0.099135038212	0.000010000000	0.000571007680
Particle	0.400391806044	0.273490326379	0.000010000000	0.000520871912
Particle	0.513205004404	0.518119473081	0.000010000000	0.000493666722
Particle	0.168672831037	0.789646076511	0.000010000000	0.000484870592
Particle	0.683587150558	0.899596758791	0.000010000000	0.000507443125
Particle	0.907133822599	0.987212524865	0.000010000000	0.000303186008
Particle	0.522668374111	0.238036789279	0.000010000000	0.000578773543
Particle	0.136456587127	0.691449440265	0.000010000000	0.000560114835
Particle	0.717285242913	0.168780485951	0.000010000000	0.000558998625
Particle	0.281201557339	0.056296747598	0.000010000000	0.000561341165
Particle	0.512920550929	0.841264101699	0.000010000000	0.000592064653
Particle	0.854132267549	0.419027390062	0.000010000000	0.000593197995
Particle	0.081253730226	0.762648354688	0.000010000000	0.000443976731
Particle	0.157666443640	0.379644315574	0.000010000000	0.000545845308
Particle	0.940676179511	0.319476279678	0.000010000000	0.000495100705
Particle	0.181572473024	0.029463420786	0.000010000000	0.000550466283
Particle	0.839948820909	0.751415856950	0.000010000000	0.000537237053
Particle	0.630416088026	0.004895939116	0.000010000000	0.000224674440
Particle	0.783152814007	0.621241251990	0.000010000000	0.000517062277
Particle	0.381503025991	0.882721891601	0.000010000000	0.000546098464
Particle	0.590171562468	0.776524234147	0.000010000000	0.000508332036
Particle	0.636470254390	0.505797464362	0.000010000000	0.000582926728
Particle	0.252619332002	0.750843832274	0.000010000000	0.000467478284
Particle	0.657399691311	0.093376264294	0.000010000000	0.000421271121
Particle	0.429645230506	0.010970622300	0.000010000000	0.000380141202
Particle	0.731786399743	0.347525085324	0.000010000000	0.000583068526
Particle	0.092860999485	0.855259954038	0.000010000000	0.000534396390
Particle	0.243783985678	0.457602483552	0.000010000000	0.000652534726
Particle	0.312184946741	0.319871492906	0.000010000000	0.000498388130
Particle	0.626369101833	0.668519432363	0.000010000000	0.000503926428
Particle	0.872303071412	0.510039508120	0.000010000000	0.000595896443
Particle	0.065914953174	0.328026145182	0.000010000000	0.000457990626
Particle	0.766547097815	0.830234589359	0.000010000000	0.000450262932
Particle	0.548786299627	0.426693206440	0.000010000000	0.000479982423
Particle	0.187745812790	0.892861285762	0.000010000000	0.000477878464
Particle	0.427213684889	0.804986360480	0.000010000000	0.000517207825
Particle	0.826533307050	0.000823147703	0.000010000000	0.000335220159
Particle	0.237128320415	0.647117426298	0.000010000000	0.000465062477
Particle	0.491132479926	0.337938774479	0.000010000000	0.000465198471
Particle	0.310339512474	0.593052935123	0.000010000000	0.000466795624
Particle	0.350710011155	0.117719844020	0.000010000000	0.000545723247
Particle	0.981297999544	0.635679657163	0.000010000000	0.000282305112
Particle	0.581676757640	0.998210040798	0.000010000000	0.000273429008
Particle	0.913492680150	0.697720025381	0.000010000000	0.000443175408
Particle	0.200591558502	0.986382183702	0.000010000000	0.000280362922
Particle	0.682907612048	0.000010000000	0.822634974919	0.000418807908
Particle	0.217466191609	0.000010000000	0.634096437832	0.000604910446
Particle	0.746983688245	0.000010000000	0.190393064964	0.000574030419
Particle	0.091831517555	0.000010000000	0.453915981672	0.000451547713
Particle	0.149704890979	0.000010000000	0.158417925520	0.000522333846
Particle	0.660598941498	0.000010000000	0.690822558424	0.000514684842
Particle	0.840555386931	0.000010000000	0.604442866859	0.000449094058
Particle	0.479711254627	0.000010000000	0.252666580649	0.000518078672
Particle	0.615955843488	0.000010000000	0.379844815138	0.000604698453
Particle	0.586782979017	0.000010000000	0.760762490786	0.000505390643
Particle	0.771839611458	0.000010000000	0.537748800846	0.000478278124
Particle	0.351400130499	0.000010000000	0.475043887368	0.000534726537
Particle	0.524876450572	0.000010000000	0.650777349699	0.000622237769
Particle	0.715635947014	0.000010000000	0.393416636930	0.000383991899
Particle	0.457588506133	0.000010000000	0.535281341756	0.000604564588
Particle	0.870516846959	0.000010000000	0.697485824791	0.000719986518
Particle	0.895373106918	0.000010000000	0.444560021032	0.000541156601
Particle	0.801294903646	0.000010000000	0.115948058476	0.000717089090
Particle	0.387567336802	0.000010000000	0.263061362088	0.000545777513
Particle	0.933795685167	0.000010000000	0.075771339700	0.000520238430
Particle	0.197369151409	0.000010000000	0.426686667145	0.000598916480
Particle	0.376159989119	0.000010000000	0.115557307712	0.000531766434
Particle	0.625567963159	0.000010000000	0.554159861556	0.000615507165
Particle	0.545893285740	0.000010000000	0.101762419641	0.000394225999
Particle	0.630552907269	0.000010000000	0.922396340283	0.000651360137
Particle	0.186869535107	0.000010000000	0.779340802974	0.000732762659
Particle	0.452451727551	0.000010000000	0.907947403230	0.000452227770
Particle	0.452941979929	0.000010000000	0.729772521036	0.000669374636
Particle	0.925673982869	0.000010000000	0.197837805430	0.000585095280
Particle	0.852396398615	0.000010000000	0.802128973835	0.000512031024
Particle	0.170672344724	0.000010000000	0.319881461095	0.000464650592
Particle	0.286912676358	0.000010000000	0.914444863389	0.000545705767
Particle	0.089610643270	0.000010000000	0.225484686915	0.000476005358
Particle	0.161794239391	0.000010000000	0.890035061715	0.000709560313
Particle	0.072978456440	0.000010000000	0.770400121125	0.000647362643
Particle	0.823764285714	0.000010000000	0.376135307344	0.000486822655
Particle	0.499221970434	0.000010000000	0.344083313063	0.000522477984
Particle	0.374489561840	0.000010000000	0.356256503548	0.000638142433
Particle	0.225112142075	0.000010000000	0.222092757253	0.000503960257
Particle	0.118668829423	0.000010000000	0.625930511402	0.000644673757
Particle	0.312015381247	0.000010000000	0.684982793676	0.000666129761
Particle	0.671478391609	0.000010000000	0.239560100137	0.000445640149
Particle	0.377623485169	0.000010000000	0.605583714200	0.000728259826
Particle	0.142986873764	0.000010000000	0.533962696903	0.000633797554
Particle	0.276055565744	0.000010000000	0.086664446040	0.000590865629
Particle	0.689858750004	0.000010000000	0.108852607585	0.000525189737
Particle	0.327819426693	0.000010000000	0.829497928533	0.000726311560
Particle	0.837852738891	0.000010000000	0.904090295620	0.000521715680
Particle	0.264271637182	0.000010000000	0.336758268832	0.000715277156
Particle	0.755510831935	0.000010000000	0.646461898229	0.000469821044
Particle	0.505798059593	0.000010000000	0.446438814934	0.000582491358
Particle	0.830317391833	0.000010000000	0.282980778160	0.000517187211
Particle	0.462062172075	0.000010000000	0.145673683081	0.000634360172
Particle	0.502683688056	0.000010000000	0.823478447657	0.000533171749
Particle	0.275065834842	0.000010000000	0.543263875253	0.000559390245
Particle	0.748464300654	0.000010000000	0.890197080934	0.000621999847
Particle	0.682645405282	0.000010000000	0.480859226225	0.000487062512
Particle	0.570333469367	0.000010000000	0.261244334942	0.000623525282
Particle	0.760541651293	0.000010000000	0.752507302648	0.000578564158
Particle	0.938604330466	0.000010000000	0.361663457416	0.000540597050
Particle	0.926627707167	0.000010000000	0.862687433367	0.000353336087
Particle	0.077343654144	0.000010000000	0.358961287894	0.000438689680
Particle	0.908012671119	0.000010000000	0.541040216504	0.000530292328
Particle	0.736486100328	0.000010000000	0.301819363342	0.000460407831
Particle	0.316848012407	0.000010000000	0.201657333996	0.000579155992
Particle	0.609835682533	0.000010000000	0.165719397187	0.000484463102
Particle	0.818056365872	0.999990000000	0.244120545401	0.000691879283
Particle	0.532175589210	0.999990000000	0.753651008309	0.000541657009
Particle	0.772552136563	0.999990000000	0.577714463570	0.000574443532
Particle	0.150494332296	0.999990000000	0.117905368004	0.000565312509
Particle	0.150780092317	0.999990000000	0.596133636593	0.000512456442
Particle	0.724199614172	0.999990000000	0.914160234690	0.000485067476
Particle	0.906212741982	0.999990000000	0.504037681024	0.000486079218
Particle	0.282961273741	0.999990000000	0.501510045694	0.000522630995
Particle	0.422118944006	0.999990000000	0.208037790788	0.000610317893
Particle	0.299029106413	0.999990000000	0.835079344089	0.000494648601
Particle	0.766898237287	0.999990000000	0.369277041783	0.000547805442
Particle	0.677499338672	0.999990000000	0.487683776534	0.000556277989
Particle	0.672711113910	0.999990000000	0.300943329562	0.000674420066
Particle	0.405227868169	0.999990000000	0.395210172212	0.000582900095
Particle	0.185014336942	0.999990000000	0.872341627272	0.000549722175
Particle	0.607167589039	0.999990000000	0.696446318986	0.000647824253
Particle	0.915889597568	0.999990000000	0.197476497288	0.000543213766
Particle	0.244170555744	0.999990000000	0.237398435315	0.000647816585
Particle	0.833906181070	0.999990000000	0.732921642655	0.000437977940
Particle	0.116154429479	0.999990000000	0.760855522236	0.000623218232
Particle	0.410116147533	0.999990000000	0.793486671698	0.000543229591
Particle	0.950130753670	0.999990000000	0.926906451316	0.000550176134
Particle	0.710128218578	0.999990000000	0.159556791219	0.000521354831
Particle	0.591472198079	0.999990000000	0.230798170921	0.000630413411
Particle	0.613264931347	0.999990000000	0.601163980520	0.000523140787
Particle	0.782032851213	0.999990000000	0.077834138937	0.000471668105
Particle	0.118044224918	0.999990000000	0.354125705136	0.000472523505
Particle	0.209914885748	0.999990000000	0.673878107526	0.000420293046
Particle	0.386830194039	0.999990000000	0.900997324291	0.000501111831
Particle	0.529645046456	0.999990000000	0.149611262977	0.000472223301
Particle	0.833209170948	0.999990000000	0.824206439323	0.000569965894
Particle	0.556191973176	0.999990000000	0.841372804126	0.000417853876
Particle	0.327085841421	0.999990000000	0.297891777134	0.000518829076
Particle	0.397282153444	0.999990000000	0.508204891248	0.000532336605
Particle	0.517341468094	0.999990000000	0.520403461112	0.000528595011
Particle	0.409620469730	0.999990000000	0.675293495121	0.000628161945
Particle	0.885006270106	0.999990000000	0.349800252151	0.000633490378
Particle	0.483749875445	0.999990000000	0.310526818326	0.000804257594
Particle	0.217730177805	0.999990000000	0.376091913273	0.000606364479
Particle	0.631953124630	0.999990000000	0.109748784652	0.000549473348
Particle	0.349338747196	0.999990000000	0.122061367201	0.000523920140
Particle	0.313416445876	0.999990000000	0.679433214032	0.000546440448
Particle	0.549293606068	0.999990000000	0.386631238707	0.000542575959
Particle	0.699232862510	0.999990000000	0.794976824186	0.000525184632
Particle	0.569033879236	0.999990000000	0.936466021811	0.000388064122
Particle	0.088260600991	0.999990000000	0.445313982259	0.000552419332
Particle	0.310741919233	0.999990000000	0.411645158056	0.000594450075
Particle	0.109806050397	0.999990000000	0.235163126903	0.000682629560
Particle	0.741806623600	0.999990000000	0.702088975045	0.000597270786
Particle	0.819510233072	0.999990000000	0.458151888298	0.000585755917
Particle	0.521592265259	0.999990000000	0.635737191444	0.000524994789
Particle	0.091535268024	0.999990000000	0.862629995933	0.000539662140
Particle	0.072914347735	0.999990000000	0.537881978133	0.000480668232
Particle	0.259348188345	0.999990000000	0.088713032992	0.000606559955
Particle	0.250965098479	0.999990000000	0.592440594748	0.000390272462
Particle	0.435576191568	0.999990000000	0.084558849575	0.000456302018
Particle	0.672199253236	0.999990000000	0.396732827887	0.000417634067
Particle	0.901048966694	0.999990000000	0.093703931690	0.000426548723
Particle	0.348421817055	0.999990000000	0.595160776749	0.000433463339
Particle	0.891871676337	0.999990000000	0.649732390458	0.000550751362
Particle	0.058872076044	0.999990000000	0.109424995753	0.000516143608
Particle	0.223185728845	0.999990000000	0.775278977652	0.000538404870
Particle	0.268271784679	0.999990000000	0.923770711945	0.000488465425
Particle	0.198018812047	0.999990000000	0.464529108470	0.000566976278
Particle	0.478488711168	0.999990000000	0.893660851940	0.000411245255
Particle	0.640556203291	0.999990000000	0.875030820725	0.000464823824
Particle	0.099958612500	0.999990000000	0.670512226057	0.000526153719
Particle	0.814705461985	0.999990000000	0.912346752588	0.000517743518
Particle	0.443282449438	0.999990000000	0.586018502759	0.000450388465
Particle	0.920821078287	0.999990000000	0.757170716698	0.000512846926
Particle	0.832704040063	0.999990000000	0.152602049716	0.000477606276
Particle	0.205454747455	0.724980973179	0.879503656122	0.001209809204
Particle	0.494619396327	0.858390851326	0.851818690460	0.001092900715
Particle	0.565015187129	0.762853925976	0.476838842401	0.001145335662
Particle	0.879185501310	0.113777589312	0.512909786574	0.001175817720
Particle	0.690980516931	0.681576571472	0.899483383713	0.000861417028
Particle	0.413975068994	0.228561072518	0.396324741640	0.001381943272
Particle	0.379858640736	0.450178823862	0.422142433404	0.001050889953
Particle	0.315521792414	0.446475989045	0.794967944587	0.000952253508
Particle	0.298542844576	0.229124564315	0.193554530147	0.001484703005
Particle	0.731238558402	0.165001820251	0.728729272431	0.001090611525
Particle	0.161227530190	0.475163829855	0.658656201835	0.001079920730
Particle	0.127636829836	0.326521467689	0.680185170639	0.001266010301
Particle	0.380040413549	0.266335195242	0.732811823323	0.001097393961
Particle	0.858973384539	0.834516732361	0.550325589046	0.001171621040
Particle	0.131719078949	0.900927936255	0.844101964074	0.001223946407
Particle	0.723700811511	0.144303205373	0.568935070109	0.001000227514
Particle	0.776648898980	0.421568509940	0.719177155687	0.001263529064
Particle	0.911643053482	0.441094415566	0.830391649190	0.001182552755
Particle	0.554315579012	0.520127022673	0.178318244889	0.001188270752
Particle	0.163780182536	0.493694720073	0.314703633651	0.001113923543
Particle	0.079329515726	0.114597719153	0.850605084814	0.001371378323
Particle	0.299735477590	0.209710998244	0.469962429338	0.001280070348
Particle	0.167297170846	0.571264714366	0.497695997446	0.000847394497
Particle	0.612484955520	0.834292768409	0.874807871250	0.001103972337
Particle	0.764802434682	0.293476060024	0.232292539547	0.001222204643
Particle	0.490093023245	0.657898883977	0.104146526124	0.001005083671
Particle	0.254057825308	0.339474512142	0.224773823939	0.001287256588
Particle	0.509959561893	0.319979161507	0.181868772014	0.001069473301
Particle	0.804508882939	0.229172561254	0.427083049584	0.000969438654
Particle	0.566262044211	0.586964668722	0.705524761604	0.001274143940
Particle	0.273801362514	0.101594783781	0.884423201817	0.001264399690
Particle	0.878813526676	0.721960186867	0.227070659434	0.001271509911
Particle	0.404436802350	0.386828465290	0.305010578408	0.001068156601
Particle	0.434970234004	0.109466476803	0.565364173753	0.001109534943
Particle	0.735318126560	0.913009181269	0.729802482854	0.001301705999
Particle	0.805996023732	0.478336452289	0.096557462580	0.001348437148
Particle	0.791048835101	0.121490735750	0.896089584108	0.001448328468
Particle	0.743562901273	0.839072844094	0.808176830738	0.001044894780
Particle	0.630146268840	0.177346943001	0.743849102957	0.001103202523
Particle	0.211752313517	0.317772361163	0.442257211942	0.001238064004
Particle	0.843997529569	0.678844585967	0.351953557920	0.001086654739
Particle	0.626846611821	0.150280711451	0.287182264379	0.000947741333
Particle	0.446709935992	0.495950221762	0.167320199645	0.000980280271
Particle	0.458655407401	0.452055938821	0.375917883373	0.001078643527
Particle	0.659709459211	0.499529235497	0.577558896129	0.001040084871
Particle	0.880825662301	0.688769816743	0.578894284600	0.001135151030
Particle	0.581311698191	0.757733140713	0.374539984057	0.001272618650
Particle	0.676945636370	0.191600244081	0.831109215466	0.001041007154
Particle	0.383049124927	0.526633919706	0.585598067343	0.001448614617
Particle	0.752009832810	0.730481080008	0.776848998687	0.001054245279
Particle	0.101278651874	0.191025600759	0.341875489436	0.001358457372
Particle	0.583765255802	0.283382261112	0.788230523769	0.001114279971
Particle	0.405062216687	0.301728810062	0.232634224237	0.001397762798
Particle	0.870434247973	0.484690065557	0.429638145164	0.000847691710
Particle	0.190538379356	0.124695791023	0.574531888774	0.001208150266
Particle	0.870936187034	0.815965164619	0.748473795043	0.001085085697
Particle	0.723390786291	0.471082826393	0.499079510695	0.001139752840
Particle	0.538711833587	0.623816603576	0.421182093407	0.001254430650
Particle	0.713581994217	0.425686989402	0.306481299479	0.001264461863
Particle	0.558760574137	0.155937659777	0.899682702114	0.001143160563
Particle	0.103433659755	0.594563140453	0.094955950091	0.001269634165
Particle	0.516160612290	0.400912019912	0.794468478957	0.001265902096
Particle	0.731608959565	0.259714190872	0.670027185961	0.001352070870
Particle	0.276695932930	0.613102396949	0.566744506619	0.001091962085
Particle	0.395239276539	0.274957933661	0.844503915267	0.001187987830
Particle	0.821105311207	0.353950824116	0.855261751836	0.001038709788
Particle	0.280495246103	0.087351054974	0.133508058689	0.001474411517
Particle	0.404745657390	0.770821065599	0.274267501395	0.000927189638
Particle	0.240034462373	0.870423217275	0.913437412044	0.001149305577
Particle	0.706369859650	0.628079509591	0.154734120879	0.000950044008
Particle	0.898941953173	0.249110341676	0.206864452677	0.001094560890
Particle	0.791734042312	0.510467072397	0.326640737894	0.001098398643
Particle	0.702852156989	0.348311044878	0.558968521748	0.001270293610
Particle	0.396033916055	0.883446536735	0.440576190402	0.001178715262
Particle	0.372279903755	0.380664716088	0.573939778058	0.001289217348
Particle	0.796004102280	0.582650688883	0.724839496533	0.001087183514
Particle	0.305246364743	0.379094627950	0.881814028902	0.001343298510
Particle	0.588824428416	0.439926462808	0.684657345198	0.001307740131
Particle	0.350811304388	0.779252251362	0.653642132286	0.001493315724
Particle	0.106984362053	0.864812574419	0.477666332316	0.001134716962
Particle	0.182229189106	0.171725731828	0.770434150161	0.001216963136
Particle	0.531017712106	0.856672043650	0.280576715360	0.001481976695
Particle	0.462105817374	0.075539574834	0.790448243949	0.001148042024
Particle	0.237144821302	0.834191019829	0.223560528158	0.001179235870
Particle	0.517643823526	0.065030596523	0.920191199053	0.001179451026
Particle	0.746625860027	0.299976102007	0.378489300447	0.001122681345
Particle	0.835037492074	0.298835972555	0.353661662259	0.000891049731
Particle	0.117644697068	0.831162260788	0.678613379288	0.001108241026
Particle	0.761849769838	0.231602162627	0.104987580353	0.001434890229
Particle	0.083797304762	0.550813900370	0.925333765690	0.001285889072
Particle	0.644112125572	0.690665857334	0.401277697773	0.001179684550
Particle	0.643968207074	0.214211488564	0.178675088562	0.001090887495
Particle	0.245113352383	0.315811019015	0.135555901824	0.001040113213
Particle	0.439706931189	0.880163949894	0.632715264314	0.001278311801
Particle	0.786470824281	0.353288198995	0.605416973248	0.001276139649
Particle	0.319700333412	0.773389755773	0.212337381669	0.001233241561
Particle	0.452836492220	0.604723478682	0.180834957070	0.001054461146
Particle	0.279129894884	0.090413703351	0.739551078165	0.001236648065
Particle	0.475411468220	0.551764155172	0.529269980798	0.001114048753
Particle	0.677824653862	0.763589517084	0.832189147613	0.000949088393
Particle	0.683654093484	0.264662508179	0.436670364194	0.001070898484
Particle	0.576193290259	0.512649366883	0.356667248736	0.001275681300
Particle	0.684385868213	0.421920644556	0.827292008814	0.000896182176
Particle	0.320024226454	0.907918960822	0.580368914623	0.001330986603
Particle	0.699504114248	0.637704246692	0.728060205741	0.001181205632
Particle	0.150547821023	0.830451747545	0.912457616787	0.001269137141
Particle	0.087749674196	0.597244842191	0.533315833599	0.001063387416
Particle	0.252276785771	0.391783624612	0.590474431937	0.001104325067
Particle	0.787217099766	0.752871089624	0.383719654786	0.001184363229
Particle	0.415895310569	0.432182808764	0.094564198060	0.001092184729
Particle	0.669880887965	0.854830916999	0.322524895929	0.001250353214
Particle	0.429495837795	0.519252701102	0.684074810642	0.001303404251
Particle	0.910228372713	0.180494967745	0.688003383398	0.001071288816
Particle	0.354334043739	0.594365189979	0.776203102338	0.001264129867
Particle	0.614098661542	0.879234555947	0.494084522369	0.000942592122
Particle	0.833019664279	0.512083582806	0.799895263445	0.001241892550
Particle	0.753836866815	0.803737902180	0.279444348128	0.001174829550
Particle	0.632607587657	0.363783161643	0.175787977633	0.000922061641
Particle	0.562702783940	0.259946646142	0.434218543021	0.001252579451
Particle	0.910713213811	0.180534174211	0.903966807175	0.001156701458
Particle	0.536683874184	0.678259692928	0.190722370420	0.001059174196
Particle	0.331337186431	0.892778316407	0.821422793479	0.001012799073
Particle	0.412383133629	0.480257587257	0.860561842214	0.001324469738
Particle	0.152681466316	0.228669439333	0.636663022683	0.001187541244
Particle	0.282034671936	0.621066461584	0.663789148658	0.001254528416
Particle	0.608833012527	0.117834980712	0.476595447318	0.001110778901
Particle	0.404300048584	0.634048690944	0.543301763788	0.001211883198
Particle	0.267870676121	0.080198544870	0.598994250305	0.000982704500
Particle	0.474133220529	0.886784899113	0.194104538147	0.001134711469
Particle	0.486598483469	0.757000317491	0.822750959544	0.001171930281
Particle	0.178758269347	0.245765049014	0.509213378222	0.001199680163
Particle	0.487784484780	0.496795553871	0.774983263288	0.001273459291
Particle	0.227847975466	0.575366255600	0.284159835354	0.001153712106
Particle	0.873033593460	0.351539210671	0.060890992472	0.001043676031
Particle	0.116938407522	0.600201997409	0.633763192097	0.001416315095
Particle	0.440743937722	0.097016177875	0.374269425628	0.001035092973
Particle	0.512033860753	0.372401013183	0.448088158590	0.001173723799
Particle	0.221286959412	0.294294043292	0.583168245432	0.001209196534
Particle	0.818297968161	0.543689544781	0.887606646540	0.001019075777
Particle	0.313352324417	0.602267205386	0.887201952919	0.001117786192
Particle	0.154664087650	0.802519520989	0.143394105716	0.001172294905
Particle	0.170121087932	0.643068732906	0.369414985734	0.001060937630
Particle	0.871879043075	0.321966685308	0.433541407263	0.001070680855
Particle	0.238660286474	0.534517686142	0.724211035238	0.001054178995
Particle	0.747465342753	0.528125721668	0.176370846488	0.001143099632
Particle	0.489023261655	0.123505319803	0.218511151608	0.001249830926
Particle	0.348690950415	0.176754218504	0.911248485093	0.001136976890
Particle	0.324589387822	0.641762248383	0.093694579735	0.001010317866
Particle	0.354509662006	0.249740343986	0.531627097600	0.001087244683
Particle	0.232034839225	0.443769154255	0.754266155938	0.001070446522
Particle	0.284854871080	0.919767338650	0.283624764576	0.000926485040
Particle	0.179599196685	0.179397338135	0.418055102040	0.001062510686
Particle	0.454964660632	0.740034261001	0.485784188770	0.001335549811
Particle	0.589211581523	0.730277542186	0.598250548298	0.001119793865
Particle	0.248944450626	0.509262297018	0.589613902895	0.001314712608
Particle	0.457618503647	0.676057491269	0.743895461708	0.001172150248
Particle	0.290479419364	0.668520547641	0.759383432534	0.001009391563
Particle	0.423683004582	0.137789717771	0.474192954809	0.001297484424
Particle	0.790550661816	0.107246630851	0.785941712738	0.001289695923
Particle	0.272058492841	0.133758140174	0.382003163110	0.001134497473
Particle	0.434698399886	0.458289469485	0.500281858907	0.001309672017
Particle	0.435023310185	0.422444368268	0.659237715900	0.001417160300
Particle	0.662663502963	0.486790359022	0.107274049217	0.001373613242
Particle	0.846051780971	0.479155615031	0.591292231347	0.001123447973
Particle	0.691118470560	0.306471942926	0.132567403542	0.001042635642
Particle	0.856465740256	0.109268559209	0.343797327975	0.001081093563
Particle	0.264610123340	0.109509981546	0.260188644604	0.001318027832
Particle	0.506069839339	0.921625261002	0.103705802443	0.001182849309
Particle	0.434450153227	0.357095445679	0.760128395609	0.001105116762
Particle	0.756746915039	0.149822417127	0.173795851615	0.001030878534
Particle	0.711906715309	0.535066178836	0.869884740120	0.001072197799
Particle	0.384142897317	0.928652841104	0.261510975874	0.000985891000
Particle	0.320489543506	0.742552133372	0.546588597674	0.001155858139
Particle	0.708861421748	0.746928943693	0.138433830594	0.000981187033
Particle	0.640826006538	0.392650928765	0.358382451512	0.000935223413
Particle	0.835793561831	0.109496455824	0.148561267129	0.001126279106
Particle	0.884476298535	0.718891823317	0.903213602038	0.001013589620
Particle	0.518077627526	0.628621974545	0.298630002411	0.001401455929
Particle	0.850051343707	0.239608526334	0.830939177997	0.000990012778
Particle	0.083011064208	0.719966731800	0.749687908849	0.001202469233
Particle	0.148446258417	0.751187642909	0.433017928329	0.000911828100
Particle	0.602575433618	0.422303305627	0.532607183582	0.001084591902
Particle	0.437417904810	0.621198473895	0.355733924388	0.001082192325
Particle	0.230079156613	0.823531454101	0.594236742205	0.001105564544
Particle	0.171647693356	0.909448594981	0.701959072901	0.001168138740
Particle	0.091319202745	0.276404762486	0.833094132867	0.001224377460
Particle	0.700596418586	0.138330659102	0.340261537056	0.001033280157
Particle	0.911354569582	0.583001774205	0.573278551530	0.001125220400
Particle	0.065753386892	0.470675699036	0.620883702799	0.001087948796
Particle	0.901388659899	0.081319782239	0.807369367711	0.001197387168
Particle	0.830902141407	0.402247978177	0.477155692460	0.001072640666
Particle	0.533024539321	0.467357072451	0.097848496149	0.001100810039
Particle	0.821151976897	0.876602729049	0.143761725757	0.000957243864
Particle	0.772086047560	0.228105489569	0.325468819740	0.000925953981
Particle	0.461006521022	0.212486573991	0.928931639003	0.001434611964
Particle	0.776469797942	0.092498111404	0.252168101972	0.001122041023
Particle	0.299596834796	0.814093546076	0.859310308435	0.001176190137
Particle	0.209333612965	0.555535880062	0.396817347701	0.001116682927
Particle	0.864292444752	0.270897223358	0.917742474888	0.000978950011
Particle	0.275066055840	0.872553664757	0.721496607441	0.001278822566
Particle	0.848890792163	0.614821783939	0.134351680365	0.001140063931
Particle	0.299301091737	0.854934530305	0.087667553381	0.001285029067
Particle	0.291288669596	0.229262725064	0.597174326460	0.001260557064
Particle	0.425361886572	0.194869517894	0.598310285134	0.001108362034
Particle	0.126796430681	0.666412099919	0.205125474361	0.001337157930
Particle	0.285456186453	0.428950868776	0.492956176577	0.001141970426
Particle	0.853756262002	0.808710712979	0.350966221172	0.001325082034
Particle	0.534738299634	0.063643479834	0.515143923859	0.001105394281
Particle	0.615120153804	0.079591938162	0.833709538365	0.001188961566
Particle	0.343710630733	0.114261822935	0.681431047101	0.001125626642
Particle	0.675237237195	0.318410293430	0.822870946452	0.000880864665
Particle	0.478271439512	0.103233505456	0.697391289528	0.001201099636
Particle	0.887239898928	0.532111885968	0.157491289196	0.001143450176
Particle	0.810529533931	0.864640384875	0.242170530547	0.000973996547
Particle	0.579419182369	0.365737104142	0.100750698183	0.001058476512
Particle	0.375775626501	0.169887924383	0.113213594917	0.001183451567
Particle	0.529034069531	0.301161066495	0.286505990684	0.001150796634
Particle	0.217547038538	0.705501404709	0.610568094027	0.000950832341
Particle	0.186746601579	0.464485355078	0.139737996101	0.001339770822
Particle	0.773537754566	0.760130313066	0.583390156770	0.000962043866
Particle	0.822829344748	0.604443858045	0.507871194944	0.001046521550
Particle	0.894488504654	0.633548406855	0.439002334101	0.001120749048
Particle	0.448553970380	0.261832321395	0.111505261382	0.001110953284
Particle	0.532009098460	0.645481398507	0.576299778119	0.000991659054
Particle	0.171300206358	0.441388449234	0.481979108286	0.001184390612
Particle	0.168825906020	0.664689447899	0.463291561377	0.000808060812
Particle	0.270343246621	0.747783045682	0.309468694605	0.001082268023
Particle	0.392030489307	0.656814739779	0.683025968975	0.001285458416
Particle	0.219808006754	0.222963615423	0.299300526944	0.001283730944
Particle	0.821033318654	0.885722409782	0.916767552330	0.001081703091
Particle	0.643909499905	0.599042726406	0.486691009459	0.001036717946
Particle	0.506697322763	0.173068158399	0.118854188098	0.001054742185
Particle	0.632151608847	0.426110910920	0.444523486053	0.001029046482
Particle	0.544392119988	0.246023159564	0.693405913903	0.001176788687
Particle	0.535353206701	0.358395686656	0.598886840266	0.001224846581
Particle	0.427889650231	0.819954556310	0.120153004919	0.001166049769
Particle	0.512321284232	0.802704181831	0.699556304554	0.001127292906
Particle	0.804019036885	0.891093189196	0.619789327309	0.001146307876
Particle	0.222425250592	0.512897630125	0.900278828127	0.001293692904
Particle	0.648512953353	0.792387830875	0.193823727230	0.001179970922
Particle	0.708007757482	0.868023381659	0.925280460021	0.001199319966
Particle	0.243089115558	0.700665994323	0.186915172414	0.001232226329
Particle	0.218022721869	0.240067376938	0.717672984646	0.001186020864
Particle	0.266277598306	0.438069900433	0.237954094374	0.001230289158
Particle	0.248934678992	0.616348888222	0.476165104579	0.000896397716
Particle	0.086211347961	0.393994975542	0.466359537660	0.001156790477
Particle	0.691545341392	0.694995027590	0.297905447373	0.001146921699
Particle	0.766032687157	0.923245534360	0.530611234449	0.001031136296
Particle	0.115344214582	0.831355167091	0.584624698641	0.001064765481
Particle	0.570792942168	0.178254183576	0.599733322473	0.001007925105
Particle	0.616605234342	0.910550026416	0.796055954294	0.001211393582
Particle	0.205556409010	0.387886462359	0.347507152949	0.001298838430
Particle	0.593381693430	0.806241166715	0.771900782083	0.000919264258
Particle	0.800795230528	0.564705013515	0.629849155282	0.001063081640
Particle	0.349141589238	0.922467966164	0.737787610591	0.001097316751
Particle	0.390966959664	0.203635356051	0.287712641901	0.001326625341
Particle	0.643843657996	0.722535780568	0.709844588333	0.001108088619
Particle	0.314931526211	0.262486486647	0.336329707120	0.001276641069
Particle	0.172682489800	0.216393829633	0.079859606671	0.001085994946
Particle	0.586887828592	0.827588304138	0.089045110215	0.001057589527
Particle	0.868726890868	0.081316672489	0.243520141984	0.001100423365
Particle	0.132544008652	0.383065681586	0.250970996875	0.001208347264
Particle	0.371018106320	0.748453466223	0.787799364267	0.001270402906
Particle	0.075244825195	0.580824954014	0.407324344034	0.001057660049
Particle	0.206191207800	0.634960800270	0.870613572116	0.001282314145
Particle	0.906867886374	0.907917546351	0.287031278805	0.001177220265
Particle	0.406634162633	0.847358629296	0.753183158019	0.001344524442
Particle	0.892420159817	0.475065822492	0.330312248765	0.001126258503
Particle	0.863739507681	0.381625020932	0.255111664471	0.001116750218
Particle	0.675048190766	0.698851343441	0.069556957339	0.000946074662
Particle	0.136729579066	0.288998281331	0.141920680371	0.000859988826
Particle	0.343345274527	0.503653579687	0.144649576014	0.001164595453
Particle	0.443397715456	0.283084057145	0.500469829641	0.001120960766
Particle	0.729554992318	0.105284899725	0.093560838669	0.001238444667
Particle	0.280742586553	0.875750859738	0.496085240517	0.001141398679
Particle	0.381407018435	0.319169574006	0.368004510333	0.000904827331
Particle	0.228780404459	0.277387308823	0.811831027972	0.001087833651
Particle	0.903861207362	0.599999261733	0.782306385777	0.001223533787
Particle	0.523847615171	0.642521939635	0.873400050549	0.001089648187
Particle	0.345903855135	0.651423208133	0.358603815363	0.001128411636
Particle	0.321306133077	0.493516299368	0.712999547831	0.001070185568
Particle	0.406514059350	0.674889391222	0.870245550532	0.001262297251
Particle	0.645972132319	0.549883808248	0.278831212412	0.001201397591
Particle	0.633412322047	0.441700519009	0.228006940306	0.001292011318
Particle	0.896011610546	0.230282660478	0.561466264723	0.001314726505
Particle	0.591546194231	0.737263662204	0.082470491419	0.000985830818
Particle	0.706025874875	0.832088394661	0.087263162961	0.001121490406
Particle	0.870796445120	0.395558057854	0.566006679605	0.000925249296
Particle	0.755761474383	0.798764462315	0.497915158735	0.001008001923
Particle	0.844817751549	0.679615589252	0.706932011649	0.001241516004
Particle	0.649048945889	0.509249090930	0.771434308503	0.001277976125
Particle	0.658988630649	0.366702037037	0.641023214004	0.001279205027
Particle	0.501585850779	0.088971071847	0.305694626831	0.001123948081
Particle	0.793038080118	0.610939016345	0.209642899095	0.000886343578
Particle	0.710956109836	0.577709035967	0.338703941395	0.000969451792
Particle	0.133767720985	0.481690831088	0.854092977682	0.001171722743
Particle	0.343487974760	0.816204079364	0.407104601757	0.001079132943
Particle	0.252844407264	0.773749775342	0.440587856555	0.001111318365
Particle	0.161074226578	0.740824474183	0.545465282700	0.000820980275
Particle	0.933328151656	0.489549474572	0.089897045334	0.001134685809
Particle	0.912970228112	0.346419015495	0.741818460588	0.001116593707
Particle	0.120035063486	0.789149624121	0.257989051700	0.001366362968
Particle	0.566278956590	0.693505633795	0.752827076476	0.001199926591
Particle	0.172586201999	0.075767930456	0.230709207089	0.000969559758
Particle	0.686195283802	0.920355932599	0.444092034460	0.001065399837
Particle	0.669912820681	0.381112207632	0.747845593112	0.001140518640
Particle	0.524937510290	0.897110197176	0.676285711359	0.001136420474
Particle	0.830115721333	0.716088504883	0.131785803641	0.000941601915
Particle	0.422488511037	0.171207617599	0.809725697154	0.001177481475
Particle	0.630434594660	0.112824884884	0.616254650877	0.001117522171
Particle	0.121314504502	0.271946458066	0.412159296305	0.001253985430
Particle	0.312382719389	0.356431991543	0.754761255927	0.001230746033
Particle	0.785169373052	0.790093719638	0.680608270034	0.001241163051
Particle	0.682178013278	0.489277290075	0.398889596179	0.000989610737
Particle	0.620197357447	0.637868731258	0.626780271333	0.000929046168
Particle	0.776317656885	0.357755616733	0.098031247854	0.001190090443
Particle	0.646807230579	0.898376598823	0.210625470510	0.001195551278
Particle	0.445798083130	0.734396491731	0.674187634128	0.000964294234
Particle	0.807035718639	0.222619443260	0.748243914243	0.001110002547
Particle	0.916675447590	0.525699781603	0.915701118036	0.000997299142
Particle	0.358907433056	0.338746679403	0.098123154316	0.001324373523
Particle	0.608383772665	0.065863466255	0.089685251970	0.000894651519
Particle	0.752845202248	0.132283419281	0.479939027576	0.001002977670
Particle	0.194096881000	0.889667008373	0.319294963489	0.001215464501
Particle	0.088878448736	0.368501341244	0.088313538453	0.001188791643
Particle	0.206601375533	0.176569703593	0.181901875341	0.001128911227
Particle	0.347448080753	0.303601398928	0.915420071404	0.001003567977
Particle	0.415273365616	0.688701861406	0.236318781941	0.001225011701
Particle	0.348885092130	0.314766456156	0.648967412961	0.001266534181
Particle	0.102475275188	0.530594860732	0.220868811463	0.001187489635
Particle	0.857620044890	0.742407148880	0.811369783591	0.000943076513
Particle	0.881799732791	0.790071224291	0.466667510566	0.001173553062
Particle	0.733046164547	0.568124941769	0.529952817319	0.000983087993
Particle	0.088131703321	0.436461771335	0.367961753363	0.001053330644
Particle	0.810361220687	0.288979792933	0.538593712956	0.001245074333
Particle	0.509669135158	0.312373436995	0.859313590297	0.001401472901
Particle	0.593016894721	0.139431927716	0.379597838324	0.001047019139
Particle	0.549172699023	0.460975951528	0.595543662064	0.001199559468
Particle	0.122062981301	0.414446214229	0.744008811859	0.001132565998
Particle	0.230189119504	0.918084805932	0.178629254604	0.001107226089
Particle	0.771685897277	0.721985808231	0.891701306753	0.001011999295
Particle	0.907894938259	0.852917344575	0.870531793435	0.001224881857
Particle	0.466854423978	0.565863365351	0.903960972193	0.001157317825
Particle	0.611385761928	0.653762675216	0.248283687224	0.001051261145
Particle	0.772404494541	0.907495412354	0.353810311453	0.001365280453
Particle	0.884298739769	0.244323118218	0.111027928735	0.001274430046
Particle	0.936445479369	0.880519634511	0.580499463058	0.001180065520
Particle	0.569082796772	0.107830863339	0.159100604674	0.001063085940
Particle	0.536078841878	0.838896215322	0.532082059696	0.000978551767
Particle	0.466971811600	0.914054523365	0.918032355381	0.000976354816
Particle	0.296754077541	0.631060900338	0.238427218930	0.001138097053
Particle	0.241843419602	0.739316993590	0.730662928547	0.001134059845
Particle	0.103933411928	0.337480888260	0.562816951765	0.001336453188
Particle	0.207935406702	0.615215426322	0.767429930872	0.000945872642
Particle	0.650027972683	0.241371460961	0.553101091577	0.001278176511
Particle	0.128680608846	0.079741804405	0.771671676178	0.001118927176
Particle	0.759306942177	0.341514002561	0.759620294843	0.001131578018
Particle	0.177130556765	0.912625500563	0.095681556810	0.001088689019
Particle	0.635709294950	0.232290590489	0.657319907718	0.001196587537
Particle	0.070002012281	0.783994258409	0.836718156989	0.001132885052
Particle	0.721947640029	0.517767098021	0.702311596913	0.001036600226
Particle	0.640476424895	0.169561048137	0.066965107779	0.001152655609
Particle	0.677486829338	0.312543513431	0.915945462187	0.001010236968
Particle	0.070667607453	0.090717293928	0.605359350644	0.000971237420
Particle	0.459452980754	0.898804687242	0.542177031686	0.001070649396
Particle	0.293130552051	0.315529435657	0.490093914146	0.001130148043
Particle	0.120825713942	0.329699685970	0.932005277856	0.000938665237
Particle	0.621191013623	0.855518901354	0.698630597876	0.001048290080
Particle	0.479953222801	0.745807625755	0.925902310261	0.001099582038
Particle	0.892523363176	0.191806417027	0.352089732163	0.001220311995
Particle	0.818996933458	0.396490417230	0.343222311568	0.001097822054
Particle	0.286680147542	0.428614196900	0.138126205062	0.001218919190
Particle	0.443587142073	0.559298022007	0.276895031941	0.001123384346
Particle	0.865986981436	0.103694725704	0.650467968026	0.001277743333
Particle	0.524637467858	0.465672670357	0.268463743204	0.001243160665
Particle	0.593712565867	0.739951015623	0.856649241371	0.001087122020
Particle	0.096011311177	0.077034980791	0.303159379603	0.000988579889
Particle	0.558292251729	0.807390159826	0.178905562521	0.001087927556
Particle	0.289436963951	0.213490757582	0.782558210581	0.001261646584
Particle	0.079228236799	0.057161129397	0.133460037304	0.000963844588
Particle	0.626870277757	0.828270371552	0.576378481577	0.000941052874
Particle	0.068221828597	0.726200129796	0.104647098473	0.001253205954
Particle	0.062139180486	0.743645382243	0.589458927964	0.001104945074
Particle	0.071907053432	0.854963943597	0.768700628927	0.001309826916
Particle	0.527588994715	0.226530646771	0.196385575314	0.001057459961
Particle	0.081776611444	0.668992115843	0.897765432130	0.001346518941
Particle	0.530449489282	0.204632058575	0.514625428295	0.001227507661
Particle	0.731474540905	0.917722597060	0.239979263457	0.001126497445
Particle	0.202480360370	0.405596886467	0.873608428921	0.001216502712
Particle	0.182274623068	0.601383993189	0.152953741867	0.001145357633
Particle	0.378306613901	0.897715897072	0.905193856500	0.001137621156
Particle	0.715890748488	0.676207618294	0.513726893344	0.001098531202
Particle	0.605078721178	0.497800123366	0.854204223445	0.000984538525
Particle	0.884076293130	0.192083375250	0.454577415856	0.001106753924
Particle	0.427225363646	0.574480288340	0.070924985370	0.001202975633
Particle	0.421446672522	0.375397152965	0.889756695939	0.001390373619
Particle	0.661975871980	0.909782091718	0.627584706852	0.001185327083
Particle	0.896807511620	0.754385782180	0.656651182230	0.001096629657
Particle	0.276117925289	0.562676012923	0.103346729681	0.001228908314
Particle	0.610627146697	0.909315421907	0.365048964639	0.001187912369
Particle	0.635425311389	0.522640760052	0.676392308140	0.000890829196
Particle	0.431384837040	0.883291972949	0.343422959450	0.001327363335
Particle	0.211967474474	0.875025811573	0.426707484722	0.001062045259
Particle	0.914365042159	0.573423776579	0.345978678108	0.001131884997
Particle	0.140785125553	0.542846739593	0.780509846767	0.001177350286
Particle	0.898644633840	0.819134600126	0.122009538334	0.001126774313
Particle	0.921082334445	0.601896422072	0.676683983055	0.001155133884
Particle	0.536634066544	0.170105659253	0.808966203595	0.001362009808
Particle	0.443201767419	0.289185492006	0.664262123273	0.001139446511
Particle	0.492426951918	0.410310471163	0.184764964408	0.001083532739
Particle	0.862443307500	0.903899379799	0.804624828814	0.001219532111
Particle	0.474948742766	0.269517918507	0.777471494396	0.001013115576
Particle	0.901157540407	0.926857119467	0.426084157880	0.001326017435
Particle	0.181775769632	0.087901997806	0.867950615595	0.001189155888
Particle	0.070210207819	0.283738539920	0.203662634831	0.001077701819
Particle	0.896992690283	0.368096921086	0.906215796358	0.000913964054
Particle	0.544629489016	0.439689635446	0.910690407150	0.001187291980
Particle	0.888560688321	0.382748354696	0.654011218419	0.001151462426
Particle	0.761612149177	0.475188557098	0.926311703606	0.000804509559
Particle	0.715050972364	0.442912016463	0.644686476132	0.001166170527
Particle	0.695896197933	0.797662854911	0.652134820109	0.000929442151
Particle	0.068299710258	0.154786999853	0.070138164566	0.000918157799
Particle	0.591306996392	0.601620434652	0.132347062459	0.001165286825
Particle	0.919777191878	0.687087778980	0.094653766138	0.001174518261
Particle	0.167264047944	0.277200159759	0.227660616957	0.001156436617
Particle	0.670492834747	0.808933664065	0.470165635500	0.001031986133
Particle	0.170865174049	0.111498029660	0.674996549709	0.001143179576
Particle	0.819028982935	0.578873779268	0.403523574091	0.000908655968
Particle	0.628493668666	0.627852723622	0.854520372299	0.001102500019
Particle	0.339923707559	0.554537674262	0.439308568762	0.001339639349
Particle	0.778806480240	0.704682258046	0.235526090581	0.001098075345
Particle	0.491758416384	0.793943306414	0.596554179440	0.001063234856
Particle	0.329231537380	0.485958411178	0.304084354789	0.001114170564
Particle	0.404309633100	0.693669215853	0.120824622697	0.001043419747
Particle	0.959560416704	0.839158768501	0.315131615322	0.000814612083
Particle	0.083770533414	0.739736274557	0.358138752212	0.001173001469
Particle	0.879210687823	0.269735369530	0.657641170163	0.001286125494
Particle	0.719207594224	0.389347604474	0.184317311724	0.001105390800
Particle	0.311702345270	0.388165850401	0.326397215617	0.001080420600
Particle	0.374199868622	0.102092962943	0.250772858824	0.001372726934
Particle	0.750702947507	0.568536259368	0.092054650059	0.001013089939
Particle	0.199276701036	0.176576567624	0.910644763862	0.001192217972
Particle	0.332718775365	0.680513793380	0.479821854828	0.001206200951
Particle	0.808615031690	0.879447996494	0.450347215472	0.001204792271
Particle	0.101613383943	0.123206124837	0.440258009374	0.001183873554
Particle	0.501308240767	0.167669936140	0.374878209939	0.001069777148
Particle	0.890836720143	0.628163699572	0.256588288480	0.001142235709
Particle	0.116037409193	0.914841325255	0.386957444886	0.000968736635
Particle	0.813403328744	0.191282441174	0.249674379658	0.001163156090
Particle	0.117021639929	0.379315626876	0.830854643898	0.001003116908
Particle	0.139667308940	0.513318505947	0.574923957860	0.000939814780
Particle	0.089220330559	0.218214715120	0.918760802341	0.001180959301
Particle	0.468324809819	0.791352787581	0.411037478674	0.001230170495
Particle	0.206331173556	0.916501855306	0.530743810757	0.000992910587
Particle	0.179031264786	0.749227617995	0.317482451833	0.001071456646
Particle	0.620402403380	0.236748419671	0.897068000813	0.001102849562
Particle	0.806139678972	0.445881887707	0.227800681970	0.001213938508
Particle	0.320290030999	0.074793220381	0.434995080777	0.001053299702
Particle	0.705318778397	0.677116997570	0.627979919760	0.001025146245
Particle	0.459776678302	0.953671792574	0.458357449194	0.000864188818
Particle	0.653254189433	0.121924988210	0.198120055452	0.001155667820
Particle	0.162508760607	0.655791458134	0.697600974071	0.001179806286
Particle	0.093406765914	0.482539121818	0.119447342846	0.001376583710
Particle	0.541396401202	0.310039304765	0.523027613452	0.000917699871
Particle	0.920242503995	0.409751716526	0.433223741856	0.000771563023
Particle	0.235481299287	0.368732543969	0.698453079172	0.001085294167
Particle	0.088451259983	0.874368849152	0.129844478300	0.001235558445
Particle	0.227242526058	0.804704620278	0.797145746439	0.001199719162
Particle	0.347931183517	0.082805189691	0.521170116743	0.000925792742
Particle	0.105287258901	0.157510551384	0.546928796360	0.001080816711
Particle	0.813822118289	0.184178682987	0.605193868421	0.001224291478
Particle	0.235645685206	0.364954814786	0.052828325459	0.001048928516
Particle	0.512687016285	0.560014310826	0.633667972853	0.001183198507
Particle	0.681310953595	0.338768035902	0.261924170221	0.001075007958
Particle	0.694512051873	0.218951312709	0.256592590175	0.001018635503
Particle	0.087051472077	0.614154737166	0.804762595201	0.001175844114
Particle	0.237054990675	0.925550791616	0.834429156894	0.000994438990
Particle	0.916175356728	0.075480814724	0.915765692708	0.000988065617
Particle	0.910461043958	0.362661285889	0.353132254987	0.000892063010
Particle	0.903972126369	0.416592225636	0.167893807033	0.001283190131
Particle	0.809280044233	0.786799291547	0.077432826082	0.000964297887
Particle	0.477544456579	0.342051532759	0.367680106614	0.001018784636
Particle	0.634027740307	0.573241072579	0.400376714343	0.001009911101
Particle	0.288255401968	0.679939243911	0.933564835877	0.001086608238
Particle	0.405237957748	0.776857759433	0.878930321313	0.001183710560
Particle	0.161076762323	0.732781043751	0.082077816173	0.000958211169
Particle	0.874336961633	0.512018512155	0.674132028371	0.001144013172
Particle	0.577543700930	0.079676692544	0.702648075205	0.001105927344
Particle	0.123491595600	0.337066588199	0.335212185722	0.001316346377
Particle	0.864281147219	0.918587948735	0.707972736351	0.001082210796
Particle	0.672234376782	0.166644515929	0.919631926685	0.000987263637
Particle	0.602381954473	0.959706630185	0.449079026219	0.000755352488
Particle	0.393063961915	0.822167521972	0.541548025974	0.001283955378
Particle	0.089777380428	0.205053441884	0.763860119923	0.001073213525
Particle	0.067179351397	0.451983638003	0.261868654263	0.000902676676
Particle	0.919146255658	0.895191984160	0.174787420083	0.001018990069
Particle	0.806528333911	0.089478528406	0.579557461784	0.000936227468
Particle	0.926511017405	0.552874457375	0.472430707370	0.000894079582
Particle	0.340033257734	0.910801587892	0.171610356560	0.001057264356
Particle	0.341093217996	0.579039873338	0.299950067968	0.000952125747
Particle	0.069609733813	0.135060658954	0.207094889977	0.001055632004
Particle	0.370212335145	0.739664090986	0.356221208681	0.001055186607
Particle	0.493529792953	0.526604419979	0.413734659915	0.001144718011
Particle	0.385360603360	0.074238811292	0.896314264359	0.001275933178
Particle	0.922935983366	0.336841826976	0.507744020029	0.000994017111
Particle	0.310247049572	0.416095136719	0.665493180252	0.001057641830
Particle	0.521315585829	0.755978914202	0.266720844374	0.000949767458
Particle	0.081118987237	0.155461331796	0.686593665378	0.000940624887
Particle	0.797511423155	0.654536264987	0.796741248996	0.000932488565
Particle	0.691576591274	0.356430927982	0.431439933030	0.001085068077
Particle	0.800178409119	0.633549172791	0.893262743472	0.001053841345
Particle	0.338593795032	0.739953001984	0.076302285792	0.001047263471
Particle	0.553108170918	0.391001963346	0.333435234177	0.001095868415
Particle	0.145718670487	0.871830428060	0.216565883139	0.001080100695
Particle	0.313765582515	0.691252045027	0.846803490150	0.000967391663
Particle	0.757578411384	0.274461784026	0.819740574388	0.000921685104
Particle	0.746062734667	0.655994086524	0.412143420799	0.001213233317
Particle	0.755172377012	0.253825677583	0.927395111079	0.001175807988
Particle	0.360825023596	0.105128805031	0.782804694034	0.001152435758
Particle	0.243147955353	0.107805294432	0.484914263301	0.001274856252
Particle	0.925464437356	0.840749125757	0.674150046245	0.000932015837
Particle	0.239306831921	0.781284386590	0.098897017189	0.001063157344
Particle	0.554288745554	0.341920494809	0.725266028804	0.001189756304
Particle	0.255471647342	0.152470333417	0.671570252781	0.001016427384
Particle	0.294510107500	0.888910895824	0.368347023443	0.001077503699
Particle	0.931828975871	0.299136883001	0.836318618567	0.001011622916
Particle	0.826566627137	0.727003285812	0.514274113885	0.001058109775
Particle	0.904193879700	0.439006594209	0.729774033445	0.001077852092
Particle	0.271763856197	0.228920900820	0.874411399854	0.000988407233
Particle	0.549978606444	0.212297645991	0.293072752772	0.001071529541
Particle	0.730322534029	0.928351574792	0.848546267475	0.001062422829
Particle	0.456614635458	0.702302524229	0.589545157000	0.001055317898
Particle	0.074910194908	0.685618716788	0.469694341215	0.001011322899
Particle	0.692457611847	0.778442511821	0.383141978772	0.001115937507
Particle	0.086710550021	0.626771108367	0.301982449159	0.001186687918
Particle	0.409352845880	0.079129298322	0.086175697971	0.001104142978
Particle	0.124523997609	0.824907512695	0.373024072346	0.001048372194
Particle	0.860743558710	0.533546035695	0.245798947811	0.001078970841
Particle	0.068501371064	0.885931563012	0.917305514987	0.000998546878
Particle	0.918580889724	0.620020496002	0.912899117555	0.001006619402
Particle	0.205004374248	0.295743273357	0.906840003324	0.001132719770
Particle	0.175824760857	0.140262834994	0.295865381655	0.001015464392
Particle	0.582800613826	0.920904962136	0.895718989801	0.001005620443
Particle	0.537098126613	0.671100043057	0.666930902332	0.000952373563
Particle	0.603428326987	0.685277171969	0.501566530628	0.001041892257
Particle	0.228058849348	0.530063869269	0.201914312622	0.001119920579
Particle	0.457384606806	0.365003871692	0.542559061042	0.001004994538
Particle	0.774823087937	0.052828929748	0.436676590968	0.001048351137
Particle	0.167010479668	0.105831695386	0.112593467353	0.001252170371
Particle	0.248037946715	0.243666628510	0.395022397245	0.000998599198
Particle	0.612052910610	0.388850285054	0.871638169451	0.001097533643
Particle	0.715124408115	0.085064427910	0.661919775466	0.001076958223
Particle	0.563351364285	0.628180223928	0.956332179598	0.000892243353
Particle	0.565841835523	0.535572814524	0.486131271183	0.001176373064
Particle	0.320623985307	0.692086710906	0.623375168421	0.000978341059
Particle	0.324775997210	0.369949898489	0.419554018137	0.000982555447
Particle	0.447292523882	0.579722641845	0.804030799230	0.001144215023
Particle	0.394186055815	0.380904911548	0.187520082453	0.001117165236
Particle	0.325065431624	0.505370776749	0.876242923070	0.001144599191
Particle	0.531916678950	0.894049429877	0.412799754463	0.001244759776
Particle	0.267685281198	0.697626755468	0.391197612637	0.001022509896
Particle	0.923457028714	0.712404531226	0.379979952324	0.001193698180
Particle	0.065818470543	0.269359800309	0.089756902850	0.000957063659
Particle	0.474182670653	0.727060654864	0.339625955023	0.001120513558
Particle	0.530894621857	0.094541456670	0.624349383482	0.000989666653
Particle	0.216730880682	0.920895854326	0.621962555370	0.000921572499
Particle	0.825314251352	0.294768237102	0.159557484096	0.001094283500
Particle	0.660888789490	0.060394075489	0.308095045371	0.000968737775
Particle	0.215324963243	0.668189371779	0.289581315046	0.000981717090
Particle	0.047978371755	0.939858882722	0.600532076803	0.001033839404
Particle	0.880434316106	0.144834862525	0.075120013499	0.001118363215
Particle	0.592331582670	0.256860760705	0.083475057535	0.001254322897
Particle	0.163915886911	0.412711306362	0.590447264260	0.001080820207
Particle	0.510375996739	0.083147032991	0.078460056387	0.000910379443
Particle	0.706917369689	0.099529028352	0.846403742879	0.000974739235
Particle	0.088136977999	0.925986632457	0.291872653632	0.001061866864
Particle	0.893262859581	0.817088188073	0.242427527407	0.001008453957
Particle	0.933446436653	0.897740770563	0.065537657991	0.000824221892
Particle	0.119177002760	0.183758577042	0.147104528722	0.000881653010
Particle	0.475294746529	0.933655256351	0.801764241062	0.001033239697
Particle	0.738655362972	0.916830390264	0.131716051898	0.001032496281
Particle	0.464250979030	0.631404534396	0.476018171140	0.001169567390
Particle	0.416691113253	0.456808327552	0.244700206884	0.001015597570
Particle	0.781723802680	0.456048584582	0.424296952262	0.000894643571
Particle	0.067014528337	0.255367213135	0.665792325381	0.000992495500
Particle	0.056040583048	0.493059677656	0.520020751311	0.000872813626
Particle	0.559164706060	0.527885054397	0.936365365387	0.000946474908
Particle	0.243259053846	0.470635081787	0.366694107523	0.001159383995
Particle	0.904866193196	0.109424700877	0.422860336741	0.001095075421
Particle	0.475948863278	0.746947736471	0.083117875516	0.000984258064
Particle	0.392241736178	0.907833472510	0.096254543364	0.001006317296
Particle	0.460572459234	0.761910194031	0.190626675067	0.000968902034
Particle	0.416497728025	0.176253534325	0.708591428059	0.001135389194
Particle	0.364974144947	0.580430065707	0.198218825050	0.001087284414
Particle	0.930322592076	0.160292217114	0.216390825793	0.001140361112
Particle	0.167623584105	0.336638983938	0.769004808420	0.001000473921
Particle	0.852139810334	0.444335340589	0.925419269658	0.000858175213
Particle	0.747088927293	0.538072326112	0.442429546675	0.000817833833
Particle	0.271581685826	0.222518264485	0.091951518586	0.001215294720
Particle	0.641453789933	0.906663133991	0.088272551208	0.001010526017
Particle	0.782653651293	0.646788970290	0.592481818925	0.000983847904
Particle	0.881766647827	0.172311287775	0.780011547252	0.000981145224
Particle	0.174436781980	0.365181496434	0.171675412315	0.000970942283
Particle	0.754803093336	0.219014079808	0.515175855338	0.000996914242
Particle	0.697333524553	0.582223939310	0.637629727937	0.000896669862
Particle	0.240465049737	0.700209043756	0.513434631424	0.000794186643
Particle	0.527894940563	0.557433180321	0.079951019415	0.000942997798
Particle	0.789239357741	0.786293226729	0.188247016166	0.000974477088
Particle	0.316342677086	0.514391763079	0.519060515170	0.000969654719
Particle	0.051326577060	0.619710691569	0.183907719391	0.000873630780
Particle	0.694697389438	0.252307294102	0.755389626133	0.000875762703
Particle	0.238053247263	0.665247620080	0.101894224523	0.000976641942
Particle	0.703763630187	0.051496395458	0.570592781140	0.000884710892
Particle	0.703722545946	0.617662057940	0.246165735386	0.000843040224
Particle	0.108215459435	0.501316775269	0.446945832683	0.000938923605
Particle	0.261192566236	0.546200949597	0.814706966503	0.000972696120
Particle	0.080512233422	0.257004669639	0.509715727865	0.001048844427
Particle	0.609935213315	0.285530055430	0.236382657543	0.000977985346
Particle	0.961926229570	0.358531089940	0.110721231318	0.000904647072
Particle	0.795733211961	0.609288776586	0.308860767644	0.000929676169
Particle	0.779229360011	0.654904874777	0.083628001978	0.000976106051
Particle	0.629660665179	0.691377210309	0.159006234442	0.000899754428
Particle	0.923870433157	0.739593941003	0.742137418897	0.000954938132
Particle	0.781453912482	0.153661592028	0.377189616684	0.000975879662
Particle	0.674384303998	0.068298576286	0.760289677755	0.000892921234
Particle	0.394461718925	0.539981653116	0.361063789921	0.000902652370
Particle	0.158873755797	0.071122196594	0.384488072087	0.001007891732
Particle	0.665828144031	0.075569802933	0.418250134997	0.000915491349
Particle	0.143522762996	0.747552981616	0.648781340571	0.000985832319
Particle	0.581198067221	0.916492717509	0.575219226173	0.001002851955
Particle	0.909816261154	0.291463997481	0.297892738868	0.000943252183
Particle	0.625647961416	0.341293149229	0.497218799725	0.000943998086
Particle	0.421783445461	0.193492382887	0.187386886864	0.001069616208
Particle	0.814820722638	0.498296529102	0.505706532374	0.000879230326
Particle	0.946816655171	0.097677979298	0.590166402375	0.001054837292
Particle	0.079619277955	0.495116080903	0.706725133092	0.001080449894
Particle	0.675192497692	0.180456780537	0.477865867053	0.000990197632
Particle	0.939175633828	0.744003257361	0.518750193075	0.000965249722
Particle	0.965667343630	0.355779933299	0.265169702931	0.000782144658
Particle	0.101428241141	0.421476803574	0.918333814191	0.000893718421
Particle	0.610107145634	0.740886326815	0.283118314132	0.001062235715
Particle	0.672105195942	0.453028722986	0.914136015752	0.000872505010
Particle	0.762841086266	0.381367400605	0.923620252618	0.000892929376
Particle	0.711362922614	0.630331277739	0.818428726259	0.000998064611
Particle	0.330087665773	0.827602740766	0.309916974482	0.000892711789
Particle	0.775312294452	0.429769918515	0.825018773967	0.001040116090
Particle	0.463707684141	0.351034966311	0.089688192682	0.000981038087
Particle	0.679098054902	0.753683538083	0.548428736679	0.000861732098
Particle	0.163539034732	0.733520281443	0.798397573447	0.001131961218
Particle	0.344878103308	0.146686175400	0.584817157892	0.000970878332
Particle	0.916516725633	0.463785588292	0.513574830181	0.000883993109
Particle	0.356624276016	0.128048760090	0.344511056340	0.001105338221
Particle	0.540395654229	0.562308563655	0.834922604921	0.001025925422
Particle	0.500796181271	0.243410470375	0.607504156810	0.000986678644
Particle	0.421022192711	0.350563641186	0.444062503962	0.000926252699
Particle	0.391951153317	0.439958066612	0.746799684296	0.000978017508
Particle	0.806349020392	0.808996838654	0.867029220574	0.001043619355
Particle	0.653381854037	0.546021271562	0.186290412721	0.000898829782
Particle	0.234578484244	0.508121987564	0.478141555270	0.000868689080
Particle	0.557803548858	0.923987119200	0.191546260051	0.000966108537
Particle	0.855023861675	0.958105687158	0.568739528832	0.000907189691
Particle	0.208266604804	0.818414805772	0.683295884035	0.000916921318
Particle	0.069289345100	0.073637465269	0.515858445994	0.000887256698
Particle	0.729017821144	0.850780175450	0.580756714553	0.000896382255
Particle	0.922590852531	0.792428121001	0.950398114306	0.000848852438
Particle	0.845959976441	0.931926028918	0.066943037230	0.000875364050
Particle	0.170934262683	0.649076425224	0.556570628888	0.000912343595
Particle	0.512960991740	0.101065983413	0.435110517101	0.000954638472
Particle	0.918547601062	0.675843119605	0.828785047994	0.000979242836
Particle	0.595980097746	0.314744338854	0.363662358080	0.000971313305
Particle	0.185982572916	0.829949959341	0.515375334859	0.000809965731
Particle	0.373070308802	0.844661311639	0.229749994341	0.000893306608
Particle	0.674427198292	0.595034152407	0.925582589338	0.000894445399
Particle	0.671141879149	0.380995835517	0.082468814354	0.000949864594
Particle	0.928146668519	0.097398977998	0.137713665826	0.000936667335
Particle	0.428161369644	0.194790284753	0.042026088931	0.000849860357
Particle	0.919514843519	0.253870145964	0.748751754256	0.000850659474
Particle	0.590439345105	0.560004012033	0.575834452413	0.000894657065
Particle	0.085983920211	0.777116021077	0.492773668102	0.000809075134
Particle	0.691003204100	0.806936811686	0.741547351027	0.000842178705
Particle	0.084307944844	0.536844011593	0.327997249480	0.000916818999
Particle	0.525389585030	0.865364458018	0.764122195851	0.000848364954
Particle	0.655137473655	0.760638508613	0.925614248468	0.000846367215
