# Type	nodeCrdX	nodeCrdY	nodeCrdZ
AuxNode	2.897190029733162e-01	1.000000000000000e-01	1.000000000000000e-08
AuxNode	5.147708120896402e-01	0.000000000000000e+00	1.000000000000000e-08
AuxNode	5.198639450221044e-01	0.000000000000000e+00	2.703313001946022e-02
AuxNode	2.897190029733162e-01	9.999999000000001e-02	0.000000000000000e+00
AuxNode	9.271704521699671e-02	0.000000000000000e+00	1.000000000000000e-08
AuxNode	9.271704521699671e-02	1.000000000000000e-08	0.000000000000000e+00
AuxNode	6.765687978154607e-02	1.000000000000000e-08	0.000000000000000e+00
AuxNode	1.480650639559269e-01	2.155661671688379e-02	0.000000000000000e+00
AuxNode	1.480650639559269e-01	0.000000000000000e+00	2.099974576979643e-02
AuxNode	1.342279061288195e-01	1.000000000000000e-08	0.000000000000000e+00
AuxNode	1.342279061288195e-01	0.000000000000000e+00	1.000000000000000e-08
AuxNode	6.637859372049205e-01	1.000000000000000e-01	9.999999000000001e-02
AuxNode	6.637859372049205e-01	9.999999000000001e-02	1.000000000000000e-01
AuxNode	6.511354189084376e-01	6.889117069619601e-02	1.000000000000000e-01
AuxNode	5.409078383001077e-01	0.000000000000000e+00	1.000000000000000e-08
AuxNode	4.927289116652249e-02	0.000000000000000e+00	4.171306859755056e-02
AuxNode	6.765687978154607e-02	0.000000000000000e+00	1.000000000000000e-08
AuxNode	6.078026039819641e-02	1.000000000000000e-08	1.000000000000000e-01
AuxNode	6.078026039819641e-02	0.000000000000000e+00	9.999999000000001e-02
AuxNode	5.936354699541405e-02	0.000000000000000e+00	6.882849744477708e-02
AuxNode	1.775455823061573e-01	3.773634418292311e-02	0.000000000000000e+00
AuxNode	1.614882839198881e-01	0.000000000000000e+00	1.000000000000000e-08
AuxNode	1.614882839198881e-01	1.000000000000000e-08	0.000000000000000e+00
AuxNode	2.869082294962828e-01	4.334989008839579e-02	0.000000000000000e+00
AuxNode	3.111893267435333e-01	9.999999000000001e-02	0.000000000000000e+00
AuxNode	1.643470343229119e-01	6.421757699167034e-02	0.000000000000000e+00
AuxNode	1.161211189171330e-01	3.666215905700415e-02	0.000000000000000e+00
AuxNode	6.763423468273703e-02	3.601052369810073e-02	0.000000000000000e+00
AuxNode	6.699641558842343e-01	1.000000000000000e-08	1.000000000000000e-01
AuxNode	6.699641558842343e-01	0.000000000000000e+00	9.999999000000001e-02
AuxNode	6.415948604237881e-01	9.999999000000001e-02	0.000000000000000e+00
AuxNode	5.309341993798715e-01	1.000000000000000e-01	1.000000000000000e-08
AuxNode	5.309341993798715e-01	9.999999000000001e-02	0.000000000000000e+00
AuxNode	5.376958723107091e-01	1.000000000000000e-01	4.274443146851775e-02
AuxNode	5.012042265465334e-01	7.088441437348872e-02	0.000000000000000e+00
AuxNode	0.000000000000000e+00	3.345722347484516e-02	3.254107979579826e-02
AuxNode	0.000000000000000e+00	1.644168626349351e-02	3.279313952374804e-02
AuxNode	1.000000000000000e-08	3.821185265747132e-02	0.000000000000000e+00
AuxNode	0.000000000000000e+00	3.821185265747132e-02	7.000190618801057e-04
AuxNode	4.957183929770909e-01	2.984315933823964e-02	1.000000000000000e-01
AuxNode	4.882280787280474e-01	3.233105649382408e-02	0.000000000000000e+00
AuxNode	6.039319180603697e-01	3.648617350493127e-02	1.000000000000000e-01
AuxNode	6.493189607203291e-01	2.980731590793939e-02	1.000000000000000e-01
AuxNode	4.983727766594337e-01	1.000000000000000e-01	1.000000000000000e-08
AuxNode	4.983727766594337e-01	9.999999000000001e-02	0.000000000000000e+00
AuxNode	1.049774826792350e-01	1.000000000000000e-08	1.000000000000000e-01
AuxNode	1.049774826792350e-01	0.000000000000000e+00	9.999999000000001e-02
AuxNode	8.327968654191054e-02	0.000000000000000e+00	9.999999000000001e-02
AuxNode	8.327968654191054e-02	1.000000000000000e-08	1.000000000000000e-01
AuxNode	8.018653658561965e-02	0.000000000000000e+00	5.381014544276003e-02
AuxNode	1.146556276454758e-01	0.000000000000000e+00	4.564664978636845e-02
AuxNode	8.976707809667578e-02	4.355015952966741e-02	1.000000000000000e-01
AuxNode	2.607640300746829e-01	1.000000000000000e-08	1.000000000000000e-01
AuxNode	2.871052319719677e-01	1.000000000000000e-08	1.000000000000000e-01
AuxNode	2.967985680855141e-01	0.000000000000000e+00	1.000000000000000e-08
AuxNode	3.323940834266793e-01	0.000000000000000e+00	1.000000000000000e-08
AuxNode	2.967985680855141e-01	1.000000000000000e-08	0.000000000000000e+00
AuxNode	3.200662861199334e-01	0.000000000000000e+00	9.999999000000001e-02
AuxNode	2.695300051416227e-01	0.000000000000000e+00	6.253654232019681e-02
AuxNode	2.405549929210900e-01	0.000000000000000e+00	3.260803096067458e-02
AuxNode	2.906014623088586e-01	0.000000000000000e+00	3.263371978930312e-02
AuxNode	2.607640300746829e-01	0.000000000000000e+00	9.999999000000001e-02
AuxNode	2.871052319719677e-01	0.000000000000000e+00	9.999999000000001e-02
AuxNode	2.240911277009784e-01	1.000000000000000e-08	0.000000000000000e+00
AuxNode	2.240911277009784e-01	0.000000000000000e+00	1.000000000000000e-08
AuxNode	2.416533362485887e-01	3.557608805934114e-02	0.000000000000000e+00
AuxNode	2.129173921337589e-01	3.214936954888997e-02	0.000000000000000e+00
AuxNode	2.020642605006294e-01	1.000000000000000e-08	0.000000000000000e+00
AuxNode	2.623437200118362e-01	1.000000000000000e-08	0.000000000000000e+00
AuxNode	2.020642605006294e-01	0.000000000000000e+00	1.000000000000000e-08
AuxNode	2.623437200118362e-01	0.000000000000000e+00	1.000000000000000e-08
AuxNode	2.779831568196778e-01	6.507561578506245e-02	0.000000000000000e+00
AuxNode	2.682608561794135e-01	1.000000000000000e-01	1.000000000000000e-08
AuxNode	2.682608561794135e-01	9.999999000000001e-02	0.000000000000000e+00
AuxNode	3.512928006565688e-01	5.503977429903698e-02	1.000000000000000e-01
AuxNode	3.668900162429032e-01	6.305346920115867e-02	1.000000000000000e-01
AuxNode	3.614373209526175e-01	7.779438907164786e-02	1.000000000000000e-01
AuxNode	3.323940834266793e-01	1.000000000000000e-08	0.000000000000000e+00
AuxNode	3.496549113825175e-01	4.038137170824773e-03	0.000000000000000e+00
AuxNode	3.417573280753165e-01	1.895173492882854e-02	0.000000000000000e+00
AuxNode	3.677573079974613e-01	2.069262884698545e-02	0.000000000000000e+00
AuxNode	4.351418013319581e-01	2.852250705220228e-02	0.000000000000000e+00
AuxNode	4.893412775922302e-01	0.000000000000000e+00	5.538977693427237e-02
AuxNode	4.842702440535387e-01	0.000000000000000e+00	9.999999000000001e-02
AuxNode	4.842702440535387e-01	1.000000000000000e-08	1.000000000000000e-01
AuxNode	1.342311199508325e-01	0.000000000000000e+00	9.999999000000001e-02
AuxNode	1.426038510731842e-01	0.000000000000000e+00	6.710664370680942e-02
AuxNode	1.681118071222378e-01	0.000000000000000e+00	4.432777737459195e-02
AuxNode	1.342311199508325e-01	1.000000000000000e-08	1.000000000000000e-01
AuxNode	1.779361868129601e-02	1.884007710906272e-02	0.000000000000000e+00
AuxNode	4.306591819072619e-02	1.000000000000000e-08	0.000000000000000e+00
AuxNode	5.999817858439687e-01	0.000000000000000e+00	9.999999000000001e-02
AuxNode	6.293505086552565e-01	0.000000000000000e+00	9.999999000000001e-02
AuxNode	5.999817858439687e-01	1.000000000000000e-08	1.000000000000000e-01
AuxNode	6.293505086552565e-01	1.000000000000000e-08	1.000000000000000e-01
AuxNode	5.458811033647295e-01	0.000000000000000e+00	3.414695439782139e-02
AuxNode	5.542401110073849e-01	2.900678554082893e-02	1.000000000000000e-01
AuxNode	6.629706164977697e-01	9.999999000000001e-02	0.000000000000000e+00
AuxNode	6.174907429881192e-01	9.999999000000001e-02	0.000000000000000e+00
AuxNode	5.747038917712104e-01	9.999999000000001e-02	0.000000000000000e+00
AuxNode	5.960833502227743e-01	9.999999000000001e-02	0.000000000000000e+00
AuxNode	5.531173758854541e-01	9.999999000000001e-02	0.000000000000000e+00
AuxNode	5.747038917712104e-01	1.000000000000000e-01	1.000000000000000e-08
AuxNode	5.531173758854541e-01	1.000000000000000e-01	1.000000000000000e-08
AuxNode	5.960833502227743e-01	1.000000000000000e-01	1.000000000000000e-08
AuxNode	5.713511551846587e-01	6.596913136932386e-02	0.000000000000000e+00
AuxNode	5.455876431528840e-01	3.710097139293302e-02	0.000000000000000e+00
AuxNode	5.306076672516343e-01	6.534400304027778e-02	0.000000000000000e+00
AuxNode	5.198639450221044e-01	2.171777538854455e-02	0.000000000000000e+00
AuxNode	5.409078383001077e-01	1.000000000000000e-08	0.000000000000000e+00
AuxNode	5.147708120896402e-01	1.000000000000000e-08	0.000000000000000e+00
AuxNode	5.631143706773200e-01	0.000000000000000e+00	1.000000000000000e-08
AuxNode	5.631143706773200e-01	1.000000000000000e-08	0.000000000000000e+00
AuxNode	4.306591819072619e-02	0.000000000000000e+00	1.000000000000000e-08
AuxNode	1.950591711475971e-02	0.000000000000000e+00	3.258473997536346e-02
AuxNode	1.000000000000000e-08	0.000000000000000e+00	3.293333333333334e-02
AuxNode	0.000000000000000e+00	1.000000000000000e-08	3.293333333333334e-02
AuxNode	1.000001000000000e-02	0.000000000000000e+00	3.293333333333334e-02
AuxNode	1.000001000000000e-02	1.000000000000000e-08	0.000000000000000e+00
AuxNode	1.000001000000000e-02	0.000000000000000e+00	1.000000000000000e-08
AuxNode	1.000001000000000e-02	0.000000000000000e+00	1.586666666666667e-02
AuxNode	1.875741136805132e-02	0.000000000000000e+00	6.519942693142002e-02
AuxNode	8.283952031779709e-02	7.484390138392093e-02	1.000000000000000e-01
AuxNode	2.723264293101614e-01	3.076256716336802e-02	1.000000000000000e-01
AuxNode	6.397672869082082e-01	9.999999000000001e-02	1.000000000000000e-01
AuxNode	2.921059884109952e-01	1.000000000000000e-01	3.878541783010058e-02
AuxNode	7.319848486824501e-01	1.000000000000000e-08	0.000000000000000e+00
AuxNode	6.952889022542690e-01	0.000000000000000e+00	9.999999000000001e-02
AuxNode	6.953541174849110e-01	0.000000000000000e+00	6.127734958397552e-02
AuxNode	5.314565395409945e-01	0.000000000000000e+00	9.999999000000001e-02
AuxNode	5.314565395409945e-01	1.000000000000000e-08	1.000000000000000e-01
AuxNode	5.608321527476767e-01	0.000000000000000e+00	9.999999000000001e-02
AuxNode	5.608321527476767e-01	1.000000000000000e-08	1.000000000000000e-01
AuxNode	5.650685578321336e-01	0.000000000000000e+00	6.672821499034150e-02
AuxNode	5.214892289839541e-01	0.000000000000000e+00	6.878592600436113e-02
AuxNode	5.274191085512271e-01	3.592707720986939e-02	1.000000000000000e-01
AuxNode	5.082805318774829e-01	0.000000000000000e+00	9.999999000000001e-02
AuxNode	5.082805318774829e-01	1.000000000000000e-08	1.000000000000000e-01
AuxNode	5.436987551254997e-01	6.373785090208352e-02	1.000000000000000e-01
AuxNode	4.233220635573526e-01	1.698747312539144e-02	0.000000000000000e+00
AuxNode	2.216954824338125e-01	9.999999000000001e-02	0.000000000000000e+00
AuxNode	2.216954824338125e-01	1.000000000000000e-01	1.000000000000000e-08
AuxNode	2.434299254817959e-01	9.999999000000001e-02	0.000000000000000e+00
AuxNode	2.434299254817959e-01	1.000000000000000e-01	1.000000000000000e-08
AuxNode	2.494881705340093e-01	6.373116764717385e-02	0.000000000000000e+00
AuxNode	2.088547615480295e-01	6.780419439615115e-02	0.000000000000000e+00
AuxNode	2.060017925324437e-01	1.000000000000000e-01	3.154333928787108e-02
AuxNode	1.959215538208008e-01	1.000000000000000e-01	1.000000000000000e-08
AuxNode	1.959215538208008e-01	9.999999000000001e-02	0.000000000000000e+00
AuxNode	3.422284658942122e-01	1.000000000000000e-01	6.962600275609118e-02
AuxNode	4.516345735882803e-01	4.521705696742851e-02	0.000000000000000e+00
AuxNode	4.573418411165478e-01	6.931170490428264e-02	0.000000000000000e+00
AuxNode	4.542674140406069e-01	0.000000000000000e+00	6.836696607882922e-02
AuxNode	1.591581717464203e-01	1.000000000000000e-01	1.000000000000000e-08
AuxNode	1.591581717464203e-01	9.999999000000001e-02	0.000000000000000e+00
AuxNode	1.430928300533844e-01	1.000000000000000e-01	3.019616265627784e-02
AuxNode	6.115186180075335e-02	9.999999000000001e-02	0.000000000000000e+00
AuxNode	4.025000000000000e-01	0.000000000000000e+00	1.160000000000001e-02
AuxNode	3.741876131644039e-01	1.000000000000000e-08	0.000000000000000e+00
AuxNode	3.741876131644039e-01	0.000000000000000e+00	1.000000000000000e-08
AuxNode	3.975000000000000e-01	0.000000000000000e+00	1.160000000000001e-02
AuxNode	6.964698203979756e-01	6.300320458559255e-02	0.000000000000000e+00
AuxNode	6.849463066902283e-01	9.999999000000001e-02	0.000000000000000e+00
AuxNode	7.073385408391787e-01	2.705443399024697e-02	0.000000000000000e+00
AuxNode	7.966164514649995e-01	1.000000000000000e-01	9.999999000000001e-02
AuxNode	7.455055496416061e-01	1.000000000000000e-01	1.000000000000000e-08
AuxNode	7.148564459033296e-01	1.000000000000000e-01	1.000000000000000e-08
AuxNode	7.272598981736408e-01	1.000000000000000e-01	3.605364526215008e-02
AuxNode	7.148564459033296e-01	9.999999000000001e-02	0.000000000000000e+00
AuxNode	6.174907429881192e-01	1.000000000000000e-01	1.000000000000000e-08
AuxNode	6.604499848115023e-01	1.000000000000000e-01	3.576164477970997e-02
AuxNode	6.415948604237881e-01	1.000000000000000e-01	1.000000000000000e-08
AuxNode	6.629706164977697e-01	1.000000000000000e-01	1.000000000000000e-08
AuxNode	6.849463066902283e-01	1.000000000000000e-01	1.000000000000000e-08
AuxNode	6.931223065146969e-01	1.000000000000000e-01	3.519897952296241e-02
AuxNode	6.115186180075335e-02	1.000000000000000e-01	1.000000000000000e-08
AuxNode	1.117978187711277e-01	1.000000000000000e-01	6.685686730693545e-02
AuxNode	0.000000000000000e+00	1.906393490457108e-02	5.914877995685565e-02
AuxNode	0.000000000000000e+00	1.000000000000000e-08	1.000000000000000e-08
AuxNode	1.000000000000000e-08	0.000000000000000e+00	1.000000000000000e-08
AuxNode	0.000000000000000e+00	1.000000000000000e-08	1.586666666666667e-02
AuxNode	1.000000000000000e-08	1.000000000000000e-08	0.000000000000000e+00
AuxNode	0.000000000000000e+00	1.925660734060484e-02	3.818836735220100e-03
AuxNode	1.000000000000000e-08	0.000000000000000e+00	1.586666666666667e-02
AuxNode	5.823546128646541e-03	1.925660734060484e-02	0.000000000000000e+00
AuxNode	1.000001000000000e-02	1.000000000000000e-08	1.000000000000000e-01
AuxNode	3.667740774166341e-02	1.000000000000000e-08	1.000000000000000e-01
AuxNode	3.667740774166341e-02	0.000000000000000e+00	9.999999000000001e-02
AuxNode	5.315192907325436e-01	9.999999000000001e-02	1.000000000000000e-01
AuxNode	5.315192907325436e-01	1.000000000000000e-01	9.999999000000001e-02
AuxNode	5.110621433304777e-01	6.394513157703334e-02	1.000000000000000e-01
AuxNode	5.750284503285467e-01	9.999999000000001e-02	1.000000000000000e-01
AuxNode	6.156718275267559e-01	6.830196099715620e-02	1.000000000000000e-01
AuxNode	5.769705699159792e-01	5.614856738240947e-02	1.000000000000000e-01
AuxNode	5.535562170522041e-01	9.999999000000001e-02	1.000000000000000e-01
AuxNode	5.535562170522041e-01	1.000000000000000e-01	9.999999000000001e-02
AuxNode	6.132246456284675e-01	9.999999000000001e-02	1.000000000000000e-01
AuxNode	4.025000000000000e-01	0.000000000000000e+00	1.493038835241716e-02
AuxNode	4.360926337748786e-01	0.000000000000000e+00	6.597885539797518e-02
AuxNode	3.200662861199334e-01	1.000000000000000e-08	1.000000000000000e-01
AuxNode	3.428787710321551e-01	4.478150543628410e-02	1.000000000000000e-01
AuxNode	3.431488284639856e-01	2.901085562389439e-02	1.000000000000000e-01
AuxNode	3.067170896601281e-01	3.663860433662568e-02	1.000000000000000e-01
AuxNode	4.583774588994001e-01	1.000000000000000e-08	0.000000000000000e+00
AuxNode	4.583774588994001e-01	0.000000000000000e+00	1.000000000000000e-08
AuxNode	4.512556917547031e-01	2.325085065867812e-02	0.000000000000000e+00
AuxNode	4.352112467800666e-01	1.000000000000000e-08	0.000000000000000e+00
AuxNode	4.352112467800666e-01	0.000000000000000e+00	1.000000000000000e-08
AuxNode	4.801145414628520e-01	0.000000000000000e+00	1.000000000000000e-08
AuxNode	4.801145414628520e-01	1.000000000000000e-08	0.000000000000000e+00
AuxNode	4.675323889681638e-01	0.000000000000000e+00	3.102348320462297e-02
AuxNode	7.319848486824501e-01	0.000000000000000e+00	1.000000000000000e-08
AuxNode	7.233802930051128e-01	0.000000000000000e+00	3.292513680199030e-02
AuxNode	7.966164514649995e-01	9.999999000000001e-02	1.000000000000000e-01
AuxNode	8.000000000000000e-01	9.999999000000001e-02	9.999999000000001e-02
AuxNode	7.455055496416061e-01	9.999999000000001e-02	0.000000000000000e+00
AuxNode	7.354841435347219e-01	4.601557906822264e-02	0.000000000000000e+00
AuxNode	7.835972904686058e-01	0.000000000000000e+00	4.939001909318499e-02
AuxNode	4.865946515416969e-01	1.000000000000000e-01	3.251942188359176e-02
AuxNode	4.363780944410457e-01	0.000000000000000e+00	3.888701453308329e-02
AuxNode	4.194377938962797e-01	0.000000000000000e+00	1.916777133270512e-02
AuxNode	4.343861882702879e-01	0.000000000000000e+00	2.469924621976706e-02
AuxNode	4.506003716214443e-01	0.000000000000000e+00	3.252246376940854e-02
AuxNode	4.406968136025677e-01	0.000000000000000e+00	5.778527470075752e-02
AuxNode	4.515919742978687e-01	0.000000000000000e+00	5.171573318853993e-02
AuxNode	4.488677443218657e-01	0.000000000000000e+00	1.655627229802945e-02
AuxNode	3.764037764857375e-01	1.249877182708219e-02	0.000000000000000e+00
AuxNode	3.811706190997429e-01	5.800643096758048e-02	0.000000000000000e+00
AuxNode	4.285538451552676e-01	4.066105450587214e-02	0.000000000000000e+00
AuxNode	4.382555198502844e-01	5.851709098540356e-02	0.000000000000000e+00
AuxNode	4.273702755980948e-01	7.087046241436498e-02	0.000000000000000e+00
AuxNode	4.025000000000000e-01	1.484857270707292e-02	0.000000000000000e+00
AuxNode	3.464692453875018e-01	1.000000000000000e-01	2.359460292057733e-02
AuxNode	3.398457007048140e-01	1.000000000000000e-01	4.146902006960535e-02
AuxNode	3.111893267435333e-01	1.000000000000000e-01	1.000000000000000e-08
AuxNode	3.445474720969450e-01	7.634502301223287e-02	1.000000000000000e-01
AuxNode	3.779747315505841e-01	1.000000000000000e-01	7.972262994633121e-02
AuxNode	3.834165901287659e-01	8.469962417750526e-02	1.000000000000000e-01
AuxNode	3.611206409232930e-01	1.000000000000000e-01	5.686136582631135e-02
AuxNode	3.557552031777145e-01	1.000000000000000e-01	3.681687900981073e-02
AuxNode	3.668689794702413e-01	1.000000000000000e-01	2.547726025568415e-02
AuxNode	3.434018906470080e-01	5.440648353146654e-02	0.000000000000000e+00
AuxNode	3.101944261600468e-01	3.211344637407023e-02	0.000000000000000e+00
AuxNode	3.100603300602366e-01	6.872619234899077e-02	0.000000000000000e+00
AuxNode	3.467187555043515e-01	7.222377540647593e-02	0.000000000000000e+00
AuxNode	3.418603577061275e-01	3.709432830394699e-02	0.000000000000000e+00
AuxNode	3.412187516699969e-01	8.323134955553592e-02	0.000000000000000e+00
AuxNode	3.635696513936741e-01	5.906222200480149e-02	0.000000000000000e+00
AuxNode	3.607130736871411e-01	4.216920743266545e-02	0.000000000000000e+00
AuxNode	1.593386932837765e-01	3.863372361415810e-02	1.000000000000000e-01
AuxNode	1.016212423197129e-01	9.999999000000001e-02	1.000000000000000e-01
AuxNode	1.242088238747835e-01	4.944315487219865e-02	1.000000000000000e-01
AuxNode	1.016212423197129e-01	1.000000000000000e-01	9.999999000000001e-02
AuxNode	1.075243332370631e-01	9.999999000000001e-02	0.000000000000000e+00
AuxNode	1.075243332370631e-01	1.000000000000000e-01	1.000000000000000e-08
AuxNode	1.322681438561667e-01	1.000000000000000e-01	1.000000000000000e-08
AuxNode	1.322681438561667e-01	9.999999000000001e-02	0.000000000000000e+00
AuxNode	1.276458675815614e-01	6.790927188632449e-02	0.000000000000000e+00
AuxNode	1.108837490615161e-01	1.000000000000000e-01	3.184591279923391e-02
AuxNode	9.214774215027335e-02	6.597149836613657e-02	0.000000000000000e+00
AuxNode	8.532607349209488e-02	1.000000000000000e-01	1.000000000000000e-08
AuxNode	8.532607349209488e-02	9.999999000000001e-02	0.000000000000000e+00
AuxNode	6.518440398912643e-01	0.000000000000000e+00	7.177696213519574e-02
AuxNode	6.267583571430853e-01	0.000000000000000e+00	7.092867253197853e-02
AuxNode	5.983539708604737e-01	0.000000000000000e+00	6.367284770581055e-02
AuxNode	4.025000000000000e-01	0.000000000000000e+00	2.805512572411054e-02
AuxNode	6.347986975421335e-01	5.674256095230719e-02	0.000000000000000e+00
AuxNode	6.074620051150439e-01	6.514959885889379e-02	0.000000000000000e+00
AuxNode	5.882530158301327e-01	3.692004954487679e-02	0.000000000000000e+00
AuxNode	6.670242410384004e-01	4.598020395372322e-02	0.000000000000000e+00
AuxNode	6.366011815777766e-01	3.256577990057526e-02	0.000000000000000e+00
AuxNode	6.100511444019198e-01	0.000000000000000e+00	1.000000000000000e-08
AuxNode	6.100511444019198e-01	1.000000000000000e-08	0.000000000000000e+00
AuxNode	5.863092918313761e-01	0.000000000000000e+00	1.000000000000000e-08
AuxNode	5.839123812303901e-01	0.000000000000000e+00	3.202718403656987e-02
AuxNode	6.209517696569993e-01	0.000000000000000e+00	3.364153510590746e-02
AuxNode	5.863092918313761e-01	1.000000000000000e-08	0.000000000000000e+00
AuxNode	7.999999900000000e-01	1.000000000000000e-01	7.238571582850548e-02
AuxNode	8.000000000000000e-01	8.341903398863937e-02	7.238571582850548e-02
AuxNode	7.902919269152260e-01	1.000000000000000e-01	4.641327489897257e-02
AuxNode	7.559055837809446e-01	1.000000000000000e-01	3.072570090978575e-02
AuxNode	7.870089699270424e-01	1.000000000000000e-01	1.000000000000000e-08
AuxNode	6.032152359882056e-01	1.000000000000000e-01	6.867311847906288e-02
AuxNode	6.264535993024933e-01	1.000000000000000e-01	4.490260756817929e-02
AuxNode	5.852427993118626e-01	1.000000000000000e-01	3.640312153850486e-02
AuxNode	5.613058981122443e-01	1.000000000000000e-01	6.601483577941683e-02
AuxNode	6.573900822922581e-01	1.000000000000000e-01	6.836871745686959e-02
AuxNode	5.750284503285467e-01	1.000000000000000e-01	9.999999000000001e-02
AuxNode	6.397672869082082e-01	1.000000000000000e-01	9.999999000000001e-02
AuxNode	6.132246456284675e-01	1.000000000000000e-01	9.999999000000001e-02
AuxNode	3.979699780504690e-02	9.999999000000001e-02	0.000000000000000e+00
AuxNode	3.979699780504690e-02	1.000000000000000e-01	1.000000000000000e-08
AuxNode	1.831704207922596e-02	9.999999000000001e-02	0.000000000000000e+00
AuxNode	3.454281996696525e-02	6.240394205140837e-02	0.000000000000000e+00
AuxNode	1.000000000000000e-08	7.241941563773828e-02	0.000000000000000e+00
AuxNode	1.000000000000000e-08	0.000000000000000e+00	5.000000000000001e-02
AuxNode	0.000000000000000e+00	1.000000000000000e-08	5.000000000000001e-02
AuxNode	1.000001000000000e-02	0.000000000000000e+00	5.000000000000001e-02
AuxNode	0.000000000000000e+00	6.735982086827171e-02	9.917799186778926e-02
AuxNode	0.000000000000000e+00	5.460391885424235e-02	6.292510197438224e-02
AuxNode	5.298271423539172e-02	3.915203009992801e-02	1.000000000000000e-01
AuxNode	0.000000000000000e+00	9.999999000000001e-02	9.999999000000001e-02
AuxNode	1.263065231933897e-02	1.620627288129141e-02	1.000000000000000e-01
AuxNode	1.000000000000000e-08	3.253974484233121e-02	1.000000000000000e-01
AuxNode	0.000000000000000e+00	3.253974484233121e-02	9.853893839035950e-02
AuxNode	1.000000000000000e-08	1.000000000000000e-08	1.000000000000000e-01
AuxNode	2.726888321272769e-02	9.999999000000001e-02	1.000000000000000e-01
AuxNode	6.198456116145713e-02	9.999999000000001e-02	1.000000000000000e-01
AuxNode	3.316296498495790e-02	7.017928775294553e-02	1.000000000000000e-01
AuxNode	3.699420722943723e-03	9.999999000000001e-02	1.000000000000000e-01
AuxNode	1.000000000000000e-08	6.735982086827171e-02	1.000000000000000e-01
AuxNode	3.699420722943723e-03	1.000000000000000e-01	9.999999000000001e-02
AuxNode	2.977925906727270e-02	1.000000000000000e-01	5.788377413792812e-02
AuxNode	5.971582917433350e-02	1.000000000000000e-01	3.267355030759453e-02
AuxNode	7.602533160317901e-02	1.000000000000000e-01	6.292171159059452e-02
AuxNode	6.198456116145713e-02	1.000000000000000e-01	9.999999000000001e-02
AuxNode	2.726888321272769e-02	1.000000000000000e-01	9.999999000000001e-02
AuxNode	3.787277333571334e-01	5.565447278268759e-02	1.000000000000000e-01
AuxNode	4.593598895214331e-01	5.747658200338110e-02	1.000000000000000e-01
AuxNode	4.933237877165533e-01	9.999999000000001e-02	1.000000000000000e-01
AuxNode	3.978674436194405e-01	1.000000000000000e-01	9.999999000000001e-02
AuxNode	3.978674436194405e-01	9.999999000000001e-02	1.000000000000000e-01
AuxNode	7.561832554173674e-01	0.000000000000000e+00	3.185819563016497e-02
AuxNode	6.952889022542690e-01	1.000000000000000e-08	1.000000000000000e-01
AuxNode	6.810074434121285e-01	4.762733649846940e-02	1.000000000000000e-01
AuxNode	7.295602822671503e-01	0.000000000000000e+00	6.575742860146630e-02
AuxNode	4.599235216257140e-01	1.000000000000000e-01	2.743834092392037e-02
AuxNode	4.025000000000000e-01	1.000000000000000e-08	0.000000000000000e+00
AuxNode	4.025000000000000e-01	0.000000000000000e+00	1.000000000000000e-08
AuxNode	4.025000000000000e-01	1.220000500000000e-02	0.000000000000000e+00
AuxNode	4.182855352431543e-01	0.000000000000000e+00	2.559645004573533e-03
AuxNode	4.182855352431543e-01	2.036021963461657e-03	0.000000000000000e+00
AuxNode	4.025000000000000e-01	0.000000000000000e+00	8.127270602684644e-03
AuxNode	3.975000000000000e-01	1.000000000000000e-08	0.000000000000000e+00
AuxNode	3.975000000000000e-01	0.000000000000000e+00	1.000000000000000e-08
AuxNode	3.975000000000000e-01	1.220000500000000e-02	0.000000000000000e+00
AuxNode	1.947872660742605e-01	1.000000000000000e-08	1.000000000000000e-01
AuxNode	1.947872660742605e-01	0.000000000000000e+00	9.999999000000001e-02
AuxNode	2.368888487189866e-01	1.000000000000000e-08	1.000000000000000e-01
AuxNode	2.368888487189866e-01	0.000000000000000e+00	9.999999000000001e-02
AuxNode	2.332401087961176e-01	3.207755398478240e-02	1.000000000000000e-01
AuxNode	2.360027980043485e-01	0.000000000000000e+00	6.737314001415683e-02
AuxNode	1.916480802968852e-01	3.473057645332484e-02	1.000000000000000e-01
AuxNode	2.019757901383469e-01	0.000000000000000e+00	5.829105638573340e-02
AuxNode	1.647214715362836e-01	1.000000000000000e-08	1.000000000000000e-01
AuxNode	1.647214715362836e-01	0.000000000000000e+00	9.999999000000001e-02
AuxNode	3.403177944467697e-01	0.000000000000000e+00	8.127871962563979e-02
AuxNode	3.527901980384147e-01	0.000000000000000e+00	9.999999000000001e-02
AuxNode	4.025000000000000e-01	5.000000000000000e-02	0.000000000000000e+00
AuxNode	4.212649724826333e-01	5.550619400998137e-02	0.000000000000000e+00
AuxNode	4.075504093265003e-01	6.562123713099062e-02	0.000000000000000e+00
AuxNode	3.857477061920844e-01	7.737119993388825e-02	0.000000000000000e+00
AuxNode	3.609862938302912e-01	8.032511093784113e-02	0.000000000000000e+00
AuxNode	3.975000000000000e-01	5.000000000000000e-02	0.000000000000000e+00
AuxNode	3.769992582677914e-01	4.284144232733779e-02	0.000000000000000e+00
AuxNode	3.747393716593214e-01	1.000000000000000e-01	4.762507617239378e-02
AuxNode	2.389927945510320e-01	1.000000000000000e-01	5.133771082108468e-02
AuxNode	2.499147263543846e-01	7.476873608942214e-02	1.000000000000000e-01
AuxNode	2.196676331744130e-01	6.220102419031105e-02	1.000000000000000e-01
AuxNode	3.975000000000000e-01	0.000000000000000e+00	2.440000000000001e-02
AuxNode	3.975000000000000e-01	0.000000000000000e+00	1.990256474378233e-02
AuxNode	3.975000000000000e-01	0.000000000000000e+00	3.112858044094683e-02
AuxNode	4.025000000000000e-01	0.000000000000000e+00	2.440000000000001e-02
AuxNode	3.764037764857375e-01	0.000000000000000e+00	1.391067813516309e-02
AuxNode	3.777256707224091e-01	0.000000000000000e+00	3.663616821229781e-02
AuxNode	3.975000000000000e-01	0.000000000000000e+00	9.999999000000001e-02
AuxNode	4.025000000000000e-01	0.000000000000000e+00	9.999999000000001e-02
AuxNode	4.025000000000000e-01	1.000000000000000e-08	1.000000000000000e-01
AuxNode	3.655315427003636e-01	1.626764022084956e-02	1.000000000000000e-01
AuxNode	3.527901980384147e-01	1.000000000000000e-08	1.000000000000000e-01
AuxNode	3.458034627340567e-01	2.099539202549604e-02	1.000000000000000e-01
AuxNode	3.644793181385223e-01	4.304272978944717e-02	1.000000000000000e-01
AuxNode	6.757412901804265e-01	0.000000000000000e+00	1.000000000000000e-08
AuxNode	6.464841623802364e-01	0.000000000000000e+00	1.000000000000000e-08
AuxNode	6.757412901804265e-01	1.000000000000000e-08	0.000000000000000e+00
AuxNode	6.981021596061330e-01	0.000000000000000e+00	1.000000000000000e-08
AuxNode	6.559375814060462e-01	0.000000000000000e+00	3.068985341575410e-02
AuxNode	6.464841623802364e-01	1.000000000000000e-08	0.000000000000000e+00
AuxNode	6.981021596061330e-01	1.000000000000000e-08	0.000000000000000e+00
AuxNode	4.427578042576179e-01	0.000000000000000e+00	9.999999000000001e-02
AuxNode	4.263978605173451e-01	1.534417947966679e-03	1.000000000000000e-01
AuxNode	4.263978605173451e-01	0.000000000000000e+00	9.797464649885891e-02
AuxNode	4.435926560119474e-01	0.000000000000000e+00	8.350478398871895e-02
AuxNode	4.582720324524338e-01	0.000000000000000e+00	9.879680734359987e-02
AuxNode	6.892225576109511e-01	1.000000000000000e-01	9.999999000000001e-02
AuxNode	6.892225576109511e-01	9.999999000000001e-02	1.000000000000000e-01
AuxNode	0.000000000000000e+00	9.999999000000001e-02	3.635295288365359e-02
AuxNode	3.053439180077056e-03	1.000000000000000e-01	3.635295288365359e-02
AuxNode	1.000000000000000e-08	1.000000000000000e-01	6.721431572621454e-02
AuxNode	0.000000000000000e+00	8.812201966223314e-02	6.721431572621454e-02
AuxNode	0.000000000000000e+00	6.862864055767479e-02	3.595900025398187e-02
AuxNode	0.000000000000000e+00	9.999999000000001e-02	1.000000000000000e-08
AuxNode	0.000000000000000e+00	7.241941563773828e-02	5.761612061990897e-03
AuxNode	1.831704207922596e-02	1.000000000000000e-01	1.000000000000000e-08
AuxNode	0.000000000000000e+00	1.000000000000000e-08	8.413333333333334e-02
AuxNode	1.000000000000000e-08	0.000000000000000e+00	8.413333333333334e-02
AuxNode	0.000000000000000e+00	1.000000000000000e-08	6.706666666666666e-02
AuxNode	1.000000000000000e-08	0.000000000000000e+00	6.706666666666666e-02
AuxNode	0.000000000000000e+00	1.475928326009865e-02	7.669710210070446e-02
AuxNode	1.000001000000000e-02	0.000000000000000e+00	8.413333333333334e-02
AuxNode	1.000000000000000e-08	0.000000000000000e+00	9.999999000000001e-02
AuxNode	0.000000000000000e+00	1.000000000000000e-08	9.999999000000001e-02
AuxNode	0.000000000000000e+00	1.620627288129141e-02	9.385097339291625e-02
AuxNode	1.000001000000000e-02	0.000000000000000e+00	6.706666666666666e-02
AuxNode	1.000001000000000e-02	0.000000000000000e+00	9.999999000000001e-02
AuxNode	2.991252311061096e-01	6.744868206220407e-02	1.000000000000000e-01
AuxNode	3.201238080712974e-01	9.999999000000001e-02	1.000000000000000e-01
AuxNode	3.201238080712974e-01	1.000000000000000e-01	9.999999000000001e-02
AuxNode	3.203247934982342e-01	1.000000000000000e-01	6.777236082649300e-02
AuxNode	2.688292700626654e-01	1.000000000000000e-01	9.999999000000001e-02
AuxNode	2.688292700626654e-01	9.999999000000001e-02	1.000000000000000e-01
AuxNode	2.499147263543846e-01	1.000000000000000e-01	8.095889762523947e-02
AuxNode	2.920500883962576e-01	1.000000000000000e-01	9.999999000000001e-02
AuxNode	2.746632574740497e-01	1.000000000000000e-01	6.617030588422600e-02
AuxNode	2.920500883962576e-01	9.999999000000001e-02	1.000000000000000e-01
AuxNode	4.933237877165533e-01	1.000000000000000e-01	9.999999000000001e-02
AuxNode	5.057471918722749e-01	1.000000000000000e-01	6.548990489453088e-02
AuxNode	4.193927895463558e-01	0.000000000000000e+00	3.628500554137887e-02
AuxNode	4.025000000000000e-01	0.000000000000000e+00	3.720000000000001e-02
AuxNode	3.975000000000000e-01	0.000000000000000e+00	3.720000000000001e-02
AuxNode	4.318878834164981e-01	5.425087565574545e-02	1.000000000000000e-01
AuxNode	4.144273757006625e-01	8.030471909203020e-02	0.000000000000000e+00
AuxNode	4.029352452489395e-01	9.114557215075317e-02	0.000000000000000e+00
AuxNode	4.453768180918146e-01	7.432877109476693e-02	1.000000000000000e-01
AuxNode	4.514936767759585e-01	1.000000000000000e-01	4.562775576504045e-02
AuxNode	7.899999900000000e-01	0.000000000000000e+00	3.293333333333334e-02
AuxNode	7.169954452748616e-01	1.000000000000000e-08	1.000000000000000e-01
AuxNode	7.169954452748616e-01	0.000000000000000e+00	9.999999000000001e-02
AuxNode	4.398132142106520e-01	8.148009285064448e-02	0.000000000000000e+00
AuxNode	4.590882976657192e-01	8.979266774692385e-02	0.000000000000000e+00
AuxNode	3.496395299920935e-01	0.000000000000000e+00	3.798438877030536e-02
AuxNode	3.636410119716202e-01	0.000000000000000e+00	2.918167895911999e-02
AuxNode	3.406841820349299e-01	0.000000000000000e+00	2.540290045322996e-02
AuxNode	3.424019990914912e-01	0.000000000000000e+00	5.838367121076931e-02
AuxNode	3.496549113825175e-01	0.000000000000000e+00	1.377880775024789e-02
AuxNode	3.217689597406315e-01	0.000000000000000e+00	5.915898121436906e-02
AuxNode	3.975000000000000e-01	4.408959823316130e-02	1.000000000000000e-01
AuxNode	4.025000000000000e-01	3.887082057030532e-02	1.000000000000000e-01
AuxNode	4.025000000000000e-01	3.780000500000000e-02	0.000000000000000e+00
AuxNode	4.184021868391348e-01	3.096135537041107e-02	0.000000000000000e+00
AuxNode	4.025000000000000e-01	3.253306903679566e-02	0.000000000000000e+00
AuxNode	3.975000000000000e-01	4.036085320301691e-02	0.000000000000000e+00
AuxNode	4.025000000000000e-01	4.553397410273687e-02	0.000000000000000e+00
AuxNode	3.975000000000000e-01	3.780000500000000e-02	0.000000000000000e+00
AuxNode	3.694550250819595e-01	1.000000000000000e-01	1.000000000000000e-08
AuxNode	3.694550250819595e-01	9.999999000000001e-02	0.000000000000000e+00
AuxNode	3.655455455640093e-01	1.000000000000000e-01	1.282239531841832e-02
AuxNode	3.469051086842597e-01	1.000000000000000e-01	1.000000000000000e-08
AuxNode	3.469051086842597e-01	9.999999000000001e-02	0.000000000000000e+00
AuxNode	3.582219515866499e-01	1.000000000000000e-01	9.715714291184048e-02
AuxNode	3.420661380470168e-01	1.000000000000000e-01	9.999999000000001e-02
AuxNode	3.582219515866499e-01	9.239321411189559e-02	1.000000000000000e-01
AuxNode	3.734313527271556e-01	1.000000000000000e-01	9.999999000000001e-02
AuxNode	3.563029199065040e-01	1.000000000000000e-01	7.864556860584934e-02
AuxNode	3.420661380470168e-01	9.999999000000001e-02	1.000000000000000e-01
AuxNode	3.409488499448148e-01	1.000000000000000e-01	8.605118290584042e-02
AuxNode	3.734313527271556e-01	9.999999000000001e-02	1.000000000000000e-01
AuxNode	3.409488499448148e-01	9.223640604776287e-02	1.000000000000000e-01
AuxNode	4.038487575045219e-01	1.000000000000000e-01	8.377334340929957e-02
AuxNode	3.893536048085463e-01	1.000000000000000e-01	7.745680381858597e-02
AuxNode	3.801079954362429e-01	1.000000000000000e-01	6.378246654078513e-02
AuxNode	3.975000000000000e-01	2.500000500000000e-02	0.000000000000000e+00
AuxNode	3.975000000000000e-01	2.168424362218883e-02	0.000000000000000e+00
AuxNode	3.815488811561236e-01	2.814001560971643e-02	0.000000000000000e+00
AuxNode	3.975000000000000e-01	3.042763359467518e-02	0.000000000000000e+00
AuxNode	4.025000000000000e-01	2.500000500000000e-02	0.000000000000000e+00
AuxNode	2.339132106334261e-01	1.000000000000000e-01	9.999999000000001e-02
AuxNode	2.339132106334261e-01	9.999999000000001e-02	1.000000000000000e-01
AuxNode	3.615108647354875e-01	0.000000000000000e+00	8.607987778022776e-02
AuxNode	3.744835871701056e-01	0.000000000000000e+00	9.999999000000001e-02
AuxNode	3.975000000000000e-01	0.000000000000000e+00	9.641716353223743e-02
AuxNode	3.610624121270020e-01	0.000000000000000e+00	5.260245773563653e-02
AuxNode	3.629697491074209e-01	0.000000000000000e+00	6.850045892338867e-02
AuxNode	4.444134637801831e-01	4.660646693983065e-02	1.000000000000000e-01
AuxNode	7.381153895247355e-01	1.000000000000000e-01	9.999999000000001e-02
AuxNode	7.629599616163631e-01	1.000000000000000e-01	9.999999000000001e-02
AuxNode	7.542198793378525e-01	1.000000000000000e-01	5.462148967904987e-02
AuxNode	7.117936817739343e-01	1.000000000000000e-01	9.999999000000001e-02
AuxNode	7.043100999626151e-01	1.000000000000000e-01	6.621994437471439e-02
AuxNode	7.629599616163631e-01	9.999999000000001e-02	1.000000000000000e-01
AuxNode	7.117936817739343e-01	9.999999000000001e-02	1.000000000000000e-01
AuxNode	7.381153895247355e-01	9.999999000000001e-02	1.000000000000000e-01
AuxNode	7.214585966051550e-01	6.551793921945080e-02	1.000000000000000e-01
AuxNode	7.120262436564135e-01	3.344445506482429e-02	1.000000000000000e-01
AuxNode	7.999999900000000e-01	5.325835675333950e-02	0.000000000000000e+00
AuxNode	8.000000000000000e-01	5.325835675333950e-02	1.782752607049402e-02
AuxNode	7.705162629511139e-01	5.909251664712556e-02	0.000000000000000e+00
AuxNode	7.870089699270424e-01	9.999999000000001e-02	0.000000000000000e+00
AuxNode	8.000000000000000e-01	9.999999000000001e-02	1.000000000000000e-08
AuxNode	7.831410894372663e-01	1.968446870334563e-02	0.000000000000000e+00
AuxNode	7.991071277209457e-01	1.620772634687272e-02	0.000000000000000e+00
AuxNode	8.000000000000000e-01	1.620772634687272e-02	9.720429573115781e-03
AuxNode	8.000000000000000e-01	9.999999000000001e-02	4.641327489897257e-02
AuxNode	8.000000000000000e-01	6.283194718879490e-02	5.927509621472719e-02
AuxNode	4.025000000000000e-01	0.000000000000000e+00	4.690410065851072e-02
AuxNode	4.193029079873001e-01	1.000000000000000e-01	1.000000000000000e-08
AuxNode	4.193029079873001e-01	9.999999000000001e-02	0.000000000000000e+00
AuxNode	4.029352452489395e-01	1.000000000000000e-01	1.265669293835368e-02
AuxNode	3.924459228612997e-01	1.000000000000000e-01	1.000000000000000e-08
AuxNode	3.924459228612997e-01	9.999999000000001e-02	0.000000000000000e+00
AuxNode	4.075130960436853e-01	1.000000000000000e-01	3.958248980302577e-02
AuxNode	4.036830740486925e-01	1.000000000000000e-01	3.022582747327384e-02
AuxNode	3.875143912669827e-01	1.000000000000000e-01	4.939800345887029e-02
AuxNode	4.064600637254505e-01	1.000000000000000e-01	6.905250697002009e-02
AuxNode	3.804754433253235e-01	1.000000000000000e-01	3.479227537470209e-02
AuxNode	3.891676227381529e-01	1.000000000000000e-01	2.020317953284458e-02
AuxNode	4.247731728578226e-01	1.000000000000000e-01	3.331181516813692e-02
AuxNode	4.148047641627900e-01	1.000000000000000e-01	1.992923188675659e-02
AuxNode	4.183514255258806e-01	1.000000000000000e-01	5.167228651934750e-02
AuxNode	4.444412164225636e-01	1.000000000000000e-01	3.256273501978926e-02
AuxNode	4.341778149026251e-01	1.000000000000000e-01	4.583529194395435e-02
AuxNode	7.899999900000000e-01	0.000000000000000e+00	5.000000000000001e-02
AuxNode	7.719129570465901e-01	6.853977237927510e-02	1.000000000000000e-01
AuxNode	7.468940654969528e-01	4.801996480081952e-02	1.000000000000000e-01
AuxNode	7.621269584954237e-01	0.000000000000000e+00	1.000000000000000e-08
AuxNode	7.621269584954237e-01	1.000000000000000e-08	0.000000000000000e+00
AuxNode	8.000000000000000e-01	1.000000000000000e-08	3.293333333333334e-02
AuxNode	8.000000000000000e-01	1.712548798024571e-02	3.087013538884517e-02
AuxNode	7.999999900000000e-01	0.000000000000000e+00	3.293333333333334e-02
AuxNode	7.550957789239237e-01	1.000000000000000e-08	1.000000000000000e-01
AuxNode	4.484895670822188e-01	1.000000000000000e-01	1.000000000000000e-08
AuxNode	4.484895670822188e-01	9.999999000000001e-02	0.000000000000000e+00
AuxNode	4.720544508032967e-01	1.000000000000000e-01	1.000000000000000e-08
AuxNode	4.590882976657192e-01	1.000000000000000e-01	7.536843715390222e-03
AuxNode	4.424530298653693e-01	1.000000000000000e-01	1.905441962562822e-02
AuxNode	4.297867122049538e-01	1.000000000000000e-01	1.345618897856757e-02
AuxNode	4.297867122049538e-01	9.988395804995984e-02	0.000000000000000e+00
AuxNode	4.720544508032967e-01	9.999999000000001e-02	0.000000000000000e+00
AuxNode	4.451664121646692e-01	1.000000000000000e-01	7.407701054975310e-02
AuxNode	4.422961355537716e-01	1.000000000000000e-01	6.027278139817979e-02
AuxNode	4.614692820423141e-01	1.000000000000000e-01	6.177640536171484e-02
AuxNode	3.975000000000000e-01	0.000000000000000e+00	5.000000000000001e-02
AuxNode	4.025000000000000e-01	0.000000000000000e+00	5.000000000000001e-02
AuxNode	4.025000000000000e-01	3.021517134258526e-02	1.000000000000000e-01
AuxNode	3.975000000000000e-01	2.944201594439961e-02	1.000000000000000e-01
AuxNode	3.975000000000000e-01	3.780000500000000e-02	1.000000000000000e-01
AuxNode	4.025000000000000e-01	3.780000500000000e-02	1.000000000000000e-01
AuxNode	4.025000000000000e-01	2.500000500000000e-02	1.000000000000000e-01
AuxNode	3.975000000000000e-01	2.500000500000000e-02	1.000000000000000e-01
AuxNode	3.975000000000000e-01	0.000000000000000e+00	7.560000000000000e-02
AuxNode	3.975000000000000e-01	0.000000000000000e+00	7.721833762620078e-02
AuxNode	3.772445058017488e-01	0.000000000000000e+00	8.307262906814362e-02
AuxNode	3.975000000000000e-01	1.000000000000000e-08	1.000000000000000e-01
AuxNode	4.025000000000000e-01	3.700182725740915e-03	1.000000000000000e-01
AuxNode	4.500010640044815e-01	2.132403269170419e-02	1.000000000000000e-01
AuxNode	4.427578042576179e-01	1.000000000000000e-08	1.000000000000000e-01
AuxNode	4.582720324524338e-01	6.626378856496600e-03	1.000000000000000e-01
AuxNode	4.282195583054547e-01	1.617414785147879e-02	1.000000000000000e-01
AuxNode	4.581109225324781e-01	4.073600620816997e-02	1.000000000000000e-01
AuxNode	4.316438897776380e-01	3.164026486919836e-02	1.000000000000000e-01
AuxNode	4.283207301017662e-01	7.690072765291843e-02	1.000000000000000e-01
AuxNode	4.143412853231267e-01	9.999999000000001e-02	1.000000000000000e-01
AuxNode	4.143412853231267e-01	1.000000000000000e-01	8.745597863908074e-02
AuxNode	4.302568079504467e-01	1.000000000000000e-01	7.506976942643213e-02
AuxNode	4.121005989935400e-01	8.503175684760558e-02	1.000000000000000e-01
AuxNode	4.596562954785413e-01	1.000000000000000e-01	8.297584056654367e-02
AuxNode	4.402585242160996e-01	1.000000000000000e-01	8.976976774823517e-02
AuxNode	8.000000000000000e-01	1.000000000000000e-08	6.706666666666666e-02
AuxNode	8.000000000000000e-01	1.000000000000000e-08	5.000000000000001e-02
AuxNode	7.999999900000000e-01	0.000000000000000e+00	5.000000000000001e-02
AuxNode	8.000000000000000e-01	5.454786927054594e-02	8.670722795445143e-02
AuxNode	7.999999900000000e-01	5.454786927054594e-02	1.000000000000000e-01
AuxNode	8.000000000000000e-01	4.019577275092779e-02	5.557689124237838e-02
AuxNode	8.000000000000000e-01	1.857935549603753e-02	6.009733411489250e-02
AuxNode	7.800621494432762e-01	1.735617293608771e-02	1.000000000000000e-01
AuxNode	8.000000000000000e-01	1.582497757252420e-02	7.527450051969586e-02
AuxNode	7.999999900000000e-01	0.000000000000000e+00	1.000000000000000e-08
AuxNode	7.899999900000000e-01	0.000000000000000e+00	1.000000000000000e-08
AuxNode	7.999999900000000e-01	0.000000000000000e+00	1.586666666666667e-02
AuxNode	8.000000000000000e-01	1.000000000000000e-08	1.000000000000000e-08
AuxNode	7.999999900000000e-01	1.000000000000000e-08	0.000000000000000e+00
AuxNode	7.899999900000000e-01	1.000000000000000e-08	0.000000000000000e+00
AuxNode	7.899999900000000e-01	0.000000000000000e+00	1.586666666666667e-02
AuxNode	8.000000000000000e-01	1.000000000000000e-08	1.586666666666667e-02
AuxNode	4.025000000000000e-01	0.000000000000000e+00	8.840000000000001e-02
AuxNode	4.025000000000000e-01	0.000000000000000e+00	8.243819128484892e-02
AuxNode	4.025000000000000e-01	0.000000000000000e+00	9.079594441841678e-02
AuxNode	3.975000000000000e-01	0.000000000000000e+00	8.626328696568382e-02
AuxNode	3.975000000000000e-01	0.000000000000000e+00	8.840000000000001e-02
AuxNode	3.809210438482827e-01	0.000000000000000e+00	6.796333734180642e-02
AuxNode	3.823816017666526e-01	0.000000000000000e+00	5.287729369749686e-02
AuxNode	3.975000000000000e-01	0.000000000000000e+00	6.035767930945238e-02
AuxNode	4.025000000000000e-01	5.000000000000000e-02	1.000000000000000e-01
AuxNode	3.975000000000000e-01	5.000000000000000e-02	1.000000000000000e-01
AuxNode	3.941008458772952e-01	6.637815864029231e-02	1.000000000000000e-01
AuxNode	4.107258347749747e-01	6.815638846140343e-02	1.000000000000000e-01
AuxNode	4.025000000000000e-01	4.958593891538158e-02	1.000000000000000e-01
AuxNode	4.195064900395294e-01	4.254799024990658e-02	1.000000000000000e-01
AuxNode	3.975000000000000e-01	1.220000500000000e-02	1.000000000000000e-01
AuxNode	3.744835871701056e-01	1.000000000000000e-08	1.000000000000000e-01
AuxNode	3.809306649040378e-01	2.684719731804169e-02	1.000000000000000e-01
AuxNode	3.975000000000000e-01	1.837386338827503e-02	1.000000000000000e-01
AuxNode	3.975000000000000e-01	9.433850205583301e-03	1.000000000000000e-01
AuxNode	4.025000000000000e-01	1.313569233507366e-02	1.000000000000000e-01
AuxNode	4.025000000000000e-01	1.220000500000000e-02	1.000000000000000e-01
AuxNode	4.512305855701782e-01	9.999999000000001e-02	1.000000000000000e-01
AuxNode	4.512305855701782e-01	1.000000000000000e-01	9.999999000000001e-02
AuxNode	4.272240422341735e-01	9.999999000000001e-02	1.000000000000000e-01
AuxNode	4.402585242160996e-01	8.920863629059353e-02	1.000000000000000e-01
AuxNode	4.579159810311960e-01	8.464366864007850e-02	1.000000000000000e-01
AuxNode	4.579159810311960e-01	1.000000000000000e-01	9.925384407739597e-02
AuxNode	4.272240422341735e-01	1.000000000000000e-01	9.999999000000001e-02
AuxNode	8.000000000000000e-01	1.000000000000000e-08	8.413333333333334e-02
AuxNode	4.025000000000000e-01	0.000000000000000e+00	6.571182646261377e-02
AuxNode	3.975000000000000e-01	0.000000000000000e+00	6.280000000000001e-02
AuxNode	4.025000000000000e-01	0.000000000000000e+00	6.280000000000001e-02
AuxNode	3.975000000000000e-01	0.000000000000000e+00	6.943322049444044e-02
AuxNode	4.239430865631267e-01	0.000000000000000e+00	5.585666104444958e-02
AuxNode	4.025000000000000e-01	0.000000000000000e+00	7.560000000000000e-02
AuxNode	4.198480364332423e-01	0.000000000000000e+00	8.295947723833150e-02
AuxNode	1.797573785335795e-01	9.999999000000001e-02	1.000000000000000e-01
AuxNode	1.797573785335795e-01	1.000000000000000e-01	9.999999000000001e-02
AuxNode	1.793503984237643e-01	6.503682594177514e-02	1.000000000000000e-01
AuxNode	1.472600951128255e-01	7.342085380674646e-02	1.000000000000000e-01
AuxNode	1.819116254382824e-01	1.000000000000000e-01	5.282322430289051e-02
AuxNode	1.392987036941651e-01	1.000000000000000e-01	9.999999000000001e-02
AuxNode	1.392987036941651e-01	9.999999000000001e-02	1.000000000000000e-01
AuxNode	2.123126509141234e-01	9.999999000000001e-02	1.000000000000000e-01
AuxNode	2.123126509141234e-01	1.000000000000000e-01	9.999999000000001e-02
AuxNode	1.454277382169073e-01	1.000000000000000e-01	6.237307897113525e-02
AuxNode	2.106296101309401e-01	1.000000000000000e-01	6.764646709958975e-02
AuxNode	7.899999900000000e-01	0.000000000000000e+00	8.413333333333334e-02
AuxNode	7.899999900000000e-01	0.000000000000000e+00	6.706666666666666e-02
AuxNode	7.999999900000000e-01	0.000000000000000e+00	8.413333333333334e-02
AuxNode	7.841877533418123e-01	0.000000000000000e+00	7.527450051969586e-02
AuxNode	7.550957789239237e-01	0.000000000000000e+00	9.999999000000001e-02
AuxNode	7.999999900000000e-01	0.000000000000000e+00	6.706666666666666e-02
AuxNode	7.999999900000000e-01	1.000000000000000e-08	1.000000000000000e-01
AuxNode	8.000000000000000e-01	1.000000000000000e-08	9.999999000000001e-02
AuxNode	7.999999900000000e-01	0.000000000000000e+00	9.999999000000001e-02
AuxNode	7.940029501874962e-01	1.985937299588528e-02	1.000000000000000e-01
AuxNode	7.899999900000000e-01	1.000000000000000e-08	1.000000000000000e-01
AuxNode	8.000000000000000e-01	1.985937299588528e-02	9.134424067673989e-02
AuxNode	7.899999900000000e-01	0.000000000000000e+00	9.999999000000001e-02
