# Type	nodeCrdX	nodeCrdY	nodeCrdZ
Particle	5.000010000000000e-03	1.000000000000000e-08	5.000000000000000e-02
Particle	7.949999900000000e-01	1.000000000000000e-08	5.000000000000000e-02
Particle	4.000000000000000e-01	9.999999000000001e-02	5.000000000000000e-02
