LTCBEAM	52	216	2	287	305	0
LTCBEAM	52	172	2	287	299	0
LTCBEAM	52	154	2	299	301	0
LTCBEAM	52	122	2	301	306	0
LTCBEAM	52	232	2	305	306	0
LTCBEAM	106	60	2	335	336	0
LTCBEAM	106	199	2	335	337	0
LTCBEAM	106	20	2	336	339	0
LTCBEAM	106	205	2	337	338	0
LTCBEAM	106	182	2	338	340	0
LTCBEAM	106	18	2	339	340	0
LTCBEAM	199	87	2	284	285	0
LTCBEAM	199	229	2	284	288	0
LTCBEAM	199	42	2	285	291	0
LTCBEAM	199	205	2	288	337	0
LTCBEAM	199	60	2	291	335	0
LTCBEAM	205	229	2	288	289	0
LTCBEAM	205	139	2	289	308	0
LTCBEAM	205	127	2	308	311	0
LTCBEAM	205	182	2	311	338	0
LTCBEAM	235	60	2	341	344	0
LTCBEAM	235	20	2	341	342	0
LTCBEAM	235	260	2	343	344	0
LTCBEAM	60	42	2	291	292	0
LTCBEAM	60	260	2	292	344	0
LTCBEAM	60	20	2	336	341	0
LTCBEAM	20	18	2	293	339	0
LTCBEAM	260	42	2	282	292	0
LTCBEAM	260	120	2	282	283	0
LTCBEAM	232	216	2	305	347	0
LTCBEAM	232	122	2	306	307	0
LTCBEAM	232	59	2	307	348	0
LTCBEAM	232	132	2	347	348	0
LTCBEAM	18	182	2	340	350	0
LTCBEAM	18	143	2	350	353	0
LTCBEAM	129	133	2	280	312	0
LTCBEAM	129	238	2	280	351	0
LTCBEAM	129	143	2	351	352	0
LTCBEAM	35	262	2	302	346	0
LTCBEAM	100	172	2	354	355	0
LTCBEAM	100	43	2	355	356	0
LTCBEAM	264	262	2	302	303	0
LTCBEAM	264	172	2	303	354	0
LTCBEAM	172	216	2	287	304	0
LTCBEAM	172	154	2	298	299	0
LTCBEAM	172	43	2	298	355	0
LTCBEAM	172	262	2	303	304	0
LTCBEAM	159	225	2	366	367	0
LTCBEAM	159	66	2	367	368	0
LTCBEAM	81	225	2	317	366	0
LTCBEAM	225	86	2	315	316	0
LTCBEAM	225	66	2	315	367	0
LTCBEAM	225	13	2	316	318	0
LTCBEAM	225	150	2	317	318	0
LTCBEAM	13	86	2	313	316	0
LTCBEAM	13	248	2	313	370	0
LTCBEAM	13	150	2	318	369	0
LTCBEAM	13	1	2	369	370	0
LTCBEAM	42	120	2	281	282	0
LTCBEAM	42	77	2	281	377	0
LTCBEAM	42	87	2	285	378	0
LTCBEAM	42	272	2	377	378	0
LTCBEAM	258	252	2	290	330	0
LTCBEAM	258	109	2	290	331	0
LTCBEAM	258	32	2	331	387	0
LTCBEAM	258	200	2	386	387	0
LTCBEAM	67	252	2	330	388	0
LTCBEAM	142	252	2	390	391	0
LTCBEAM	252	109	2	290	332	0
LTCBEAM	252	211	2	332	390	0
LTCBEAM	252	195	2	388	391	0
LTCBEAM	279	43	2	356	395	0
LTCBEAM	279	95	2	395	396	0
LTCBEAM	213	255	2	333	398	0
LTCBEAM	192	158	2	319	401	0
LTCBEAM	192	27	2	399	401	0
LTCBEAM	158	80	2	320	321	0
LTCBEAM	158	136	2	321	400	0
LTCBEAM	158	27	2	400	401	0
LTCBEAM	167	29	2	402	405	0
LTCBEAM	167	15	2	402	403	0
LTCBEAM	167	152	2	403	407	0
LTCBEAM	167	120	2	404	406	0
LTCBEAM	167	77	2	404	405	0
LTCBEAM	120	77	2	281	404	0
LTCBEAM	133	238	2	280	345	0
LTCBEAM	133	5	2	345	410	0
LTCBEAM	133	62	2	410	412	0
LTCBEAM	182	127	2	311	415	0
LTCBEAM	182	143	2	350	418	0
LTCBEAM	182	164	2	415	418	0
LTCBEAM	127	139	2	308	310	0
LTCBEAM	127	249	2	309	349	0
LTCBEAM	127	184	2	309	310	0
LTCBEAM	127	92	2	349	416	0
LTCBEAM	127	164	2	415	416	0
LTCBEAM	143	238	2	351	417	0
LTCBEAM	143	164	2	417	418	0
LTCBEAM	238	5	2	345	419	0
LTCBEAM	238	164	2	417	419	0
LTCBEAM	162	95	2	394	396	0
LTCBEAM	210	46	2	423	424	0
LTCBEAM	210	119	2	424	425	0
LTCBEAM	210	141	2	425	426	0
LTCBEAM	46	119	2	363	424	0
LTCBEAM	46	33	2	363	431	0
LTCBEAM	46	212	2	428	431	0
LTCBEAM	33	126	2	361	427	0
LTCBEAM	33	119	2	361	363	0
LTCBEAM	33	266	2	427	432	0
LTCBEAM	33	212	2	431	432	0
LTCBEAM	257	101	2	364	365	0
LTCBEAM	257	66	2	365	433	0
LTCBEAM	66	86	2	314	315	0
LTCBEAM	66	101	2	314	365	0
LTCBEAM	66	194	2	368	434	0
LTCBEAM	125	262	2	346	438	0
LTCBEAM	125	107	2	435	438	0
LTCBEAM	150	1	2	369	436	0
LTCBEAM	150	107	2	435	436	0
LTCBEAM	262	216	2	304	437	0
LTCBEAM	262	107	2	437	438	0
LTCBEAM	155	115	2	294	380	0
LTCBEAM	155	184	2	294	295	0
LTCBEAM	155	139	2	295	441	0
LTCBEAM	155	94	2	380	442	0
LTCBEAM	155	74	2	441	442	0
LTCBEAM	139	229	2	289	444	0
LTCBEAM	139	184	2	295	310	0
LTCBEAM	139	74	2	441	444	0
LTCBEAM	229	87	2	284	443	0
LTCBEAM	229	74	2	443	444	0
LTCBEAM	12	186	2	322	324	0
LTCBEAM	12	227	2	322	445	0
LTCBEAM	12	160	2	323	446	0
LTCBEAM	12	53	2	323	324	0
LTCBEAM	12	4	2	445	446	0
LTCBEAM	212	269	2	429	430	0
LTCBEAM	212	223	2	430	452	0
LTCBEAM	212	266	2	432	454	0
LTCBEAM	212	110	2	452	454	0
LTCBEAM	186	227	2	322	457	0
LTCBEAM	186	53	2	324	372	0
LTCBEAM	186	34	2	372	382	0
LTCBEAM	186	140	2	382	458	0
LTCBEAM	186	6	2	457	458	0
LTCBEAM	269	223	2	430	461	0
LTCBEAM	269	243	2	461	462	0
LTCBEAM	41	208	2	464	468	0
LTCBEAM	41	141	2	464	465	0
LTCBEAM	41	119	2	465	466	0
LTCBEAM	41	126	2	466	467	0
LTCBEAM	41	14	2	467	468	0
LTCBEAM	119	126	2	361	466	0
LTCBEAM	119	141	2	425	465	0
LTCBEAM	47	255	2	333	472	0
LTCBEAM	47	196	2	389	473	0
LTCBEAM	47	57	2	472	473	0
LTCBEAM	102	200	2	386	475	0
LTCBEAM	102	49	2	475	476	0
LTCBEAM	43	154	2	298	397	0
LTCBEAM	43	95	2	395	479	0
LTCBEAM	43	170	2	397	480	0
LTCBEAM	43	40	2	479	480	0
LTCBEAM	95	244	2	394	483	0
LTCBEAM	95	40	2	479	485	0
LTCBEAM	95	22	2	483	485	0
LTCBEAM	244	22	2	483	484	0
LTCBEAM	270	255	2	398	486	0
LTCBEAM	270	22	2	484	486	0
LTCBEAM	40	170	2	480	482	0
LTCBEAM	40	265	2	481	482	0
LTCBEAM	40	90	2	481	487	0
LTCBEAM	40	22	2	485	487	0
LTCBEAM	136	80	2	321	376	0
LTCBEAM	136	183	2	375	376	0
LTCBEAM	136	146	2	375	489	0
LTCBEAM	136	27	2	400	488	0
LTCBEAM	136	174	2	488	489	0
LTCBEAM	146	64	2	334	373	0
LTCBEAM	146	29	2	334	490	0
LTCBEAM	146	183	2	373	375	0
LTCBEAM	146	174	2	489	490	0
LTCBEAM	29	64	2	334	449	0
LTCBEAM	29	15	2	402	491	0
LTCBEAM	29	77	2	405	448	0
LTCBEAM	29	177	2	448	449	0
LTCBEAM	29	174	2	490	491	0
LTCBEAM	190	89	2	492	493	0
LTCBEAM	190	59	2	492	495	0
LTCBEAM	190	220	2	493	494	0
LTCBEAM	190	23	2	494	496	0
LTCBEAM	190	132	2	495	496	0
LTCBEAM	59	231	2	286	300	0
LTCBEAM	59	156	2	286	408	0
LTCBEAM	59	122	2	300	307	0
LTCBEAM	59	132	2	348	495	0
LTCBEAM	59	89	2	408	492	0
LTCBEAM	220	112	2	409	414	0
LTCBEAM	220	145	2	409	497	0
LTCBEAM	220	23	2	414	494	0
LTCBEAM	220	89	2	493	498	0
LTCBEAM	220	163	2	497	498	0
LTCBEAM	101	86	2	314	501	0
LTCBEAM	101	62	2	411	499	0
LTCBEAM	101	166	2	499	501	0
LTCBEAM	86	248	2	313	500	0
LTCBEAM	86	166	2	500	501	0
LTCBEAM	25	121	2	357	506	0
LTCBEAM	25	246	2	357	420	0
LTCBEAM	25	236	2	358	505	0
LTCBEAM	25	104	2	358	421	0
LTCBEAM	25	151	2	420	421	0
LTCBEAM	25	261	2	505	506	0
LTCBEAM	7	93	2	384	509	0
LTCBEAM	7	259	2	384	385	0
LTCBEAM	7	61	2	385	510	0
LTCBEAM	7	275	2	509	511	0
LTCBEAM	7	230	2	510	511	0
LTCBEAM	275	93	2	507	509	0
LTCBEAM	275	246	2	507	508	0
LTCBEAM	275	151	2	508	512	0
LTCBEAM	275	230	2	511	512	0
LTCBEAM	151	246	2	420	508	0
LTCBEAM	151	104	2	421	422	0
LTCBEAM	151	277	2	422	513	0
LTCBEAM	151	230	2	512	513	0
LTCBEAM	266	126	2	427	514	0
LTCBEAM	266	110	2	453	454	0
LTCBEAM	266	85	2	453	517	0
LTCBEAM	266	207	2	514	517	0
LTCBEAM	126	14	2	362	467	0
LTCBEAM	126	259	2	362	515	0
LTCBEAM	126	207	2	514	515	0
LTCBEAM	259	14	2	362	383	0
LTCBEAM	259	93	2	383	384	0
LTCBEAM	259	61	2	385	516	0
LTCBEAM	259	207	2	515	516	0
LTCBEAM	267	107	2	518	522	0
LTCBEAM	267	1	2	518	520	0
LTCBEAM	267	132	2	519	521	0
LTCBEAM	267	0	2	519	520	0
LTCBEAM	267	216	2	521	522	0
LTCBEAM	107	1	2	436	518	0
LTCBEAM	107	216	2	437	522	0
LTCBEAM	1	248	2	370	371	0
LTCBEAM	1	0	2	371	520	0
LTCBEAM	132	216	2	347	521	0
LTCBEAM	132	23	2	413	496	0
LTCBEAM	132	0	2	413	519	0
LTCBEAM	263	34	2	523	526	0
LTCBEAM	263	99	2	524	525	0
LTCBEAM	263	140	2	525	526	0
LTCBEAM	183	64	2	373	374	0
LTCBEAM	183	241	2	374	530	0
LTCBEAM	183	80	2	376	527	0
LTCBEAM	183	79	2	527	530	0
LTCBEAM	160	53	2	323	528	0
LTCBEAM	160	4	2	446	447	0
LTCBEAM	160	241	2	447	529	0
LTCBEAM	160	79	2	528	529	0
LTCBEAM	75	171	2	531	532	0
LTCBEAM	75	115	2	531	534	0
LTCBEAM	75	173	2	532	533	0
LTCBEAM	75	157	2	533	535	0
LTCBEAM	75	94	2	534	535	0
LTCBEAM	171	137	2	325	326	0
LTCBEAM	171	251	2	325	329	0
LTCBEAM	171	118	2	326	328	0
LTCBEAM	171	233	2	327	328	0
LTCBEAM	171	115	2	327	531	0
LTCBEAM	171	187	2	329	440	0
LTCBEAM	171	173	2	440	532	0
LTCBEAM	115	184	2	294	297	0
LTCBEAM	115	233	2	297	327	0
LTCBEAM	115	94	2	380	534	0
LTCBEAM	241	64	2	374	538	0
LTCBEAM	241	4	2	447	536	0
LTCBEAM	241	79	2	529	530	0
LTCBEAM	241	58	2	536	538	0
LTCBEAM	64	177	2	449	539	0
LTCBEAM	64	58	2	538	539	0
LTCBEAM	272	77	2	377	542	0
LTCBEAM	272	87	2	378	540	0
LTCBEAM	272	97	2	540	542	0
LTCBEAM	87	74	2	443	541	0
LTCBEAM	87	97	2	540	541	0
LTCBEAM	77	177	2	448	543	0
LTCBEAM	77	97	2	542	543	0
LTCBEAM	4	227	2	445	544	0
LTCBEAM	4	58	2	536	537	0
LTCBEAM	4	11	2	537	546	0
LTCBEAM	4	37	2	544	546	0
LTCBEAM	110	131	2	450	451	0
LTCBEAM	110	83	2	450	547	0
LTCBEAM	110	85	2	451	453	0
LTCBEAM	110	223	2	452	548	0
LTCBEAM	110	271	2	547	548	0
LTCBEAM	223	243	2	461	549	0
LTCBEAM	223	271	2	548	549	0
LTCBEAM	138	91	2	550	551	0
LTCBEAM	138	222	2	550	552	0
LTCBEAM	138	268	2	551	554	0
LTCBEAM	138	96	2	552	553	0
LTCBEAM	138	189	2	553	554	0
LTCBEAM	215	131	2	555	556	0
LTCBEAM	215	85	2	555	557	0
LTCBEAM	215	91	2	556	560	0
LTCBEAM	215	207	2	557	558	0
LTCBEAM	215	61	2	558	559	0
LTCBEAM	215	268	2	559	560	0
LTCBEAM	131	70	2	381	455	0
LTCBEAM	131	83	2	381	450	0
LTCBEAM	131	85	2	451	555	0
LTCBEAM	131	91	2	455	556	0
LTCBEAM	85	207	2	517	557	0
LTCBEAM	91	70	2	455	456	0
LTCBEAM	91	222	2	456	550	0
LTCBEAM	91	268	2	551	560	0
LTCBEAM	207	61	2	516	558	0
LTCBEAM	227	6	2	457	562	0
LTCBEAM	227	37	2	544	563	0
LTCBEAM	227	180	2	562	563	0
LTCBEAM	111	278	2	564	570	0
LTCBEAM	111	161	2	564	566	0
LTCBEAM	111	181	2	565	566	0
LTCBEAM	111	242	2	565	567	0
LTCBEAM	111	6	2	567	568	0
LTCBEAM	111	140	2	568	569	0
LTCBEAM	111	99	2	569	570	0
LTCBEAM	278	99	2	459	570	0
LTCBEAM	278	161	2	460	564	0
LTCBEAM	6	140	2	458	568	0
LTCBEAM	6	180	2	561	562	0
LTCBEAM	6	242	2	561	567	0
LTCBEAM	140	34	2	382	526	0
LTCBEAM	140	99	2	525	569	0
LTCBEAM	202	181	2	571	574	0
LTCBEAM	202	161	2	571	572	0
LTCBEAM	202	243	2	572	573	0
LTCBEAM	202	271	2	573	575	0
LTCBEAM	202	83	2	574	575	0
LTCBEAM	161	243	2	463	572	0
LTCBEAM	161	181	2	566	571	0
LTCBEAM	243	271	2	549	573	0
LTCBEAM	271	83	2	547	575	0
LTCBEAM	28	141	2	576	577	0
LTCBEAM	28	208	2	577	578	0
LTCBEAM	193	141	2	360	576	0
LTCBEAM	141	208	2	464	577	0
LTCBEAM	208	14	2	468	469	0
LTCBEAM	208	16	2	469	470	0
LTCBEAM	208	175	2	470	578	0
LTCBEAM	153	93	2	579	581	0
LTCBEAM	153	14	2	579	580	0
LTCBEAM	153	246	2	581	582	0
LTCBEAM	93	14	2	383	579	0
LTCBEAM	93	246	2	507	581	0
LTCBEAM	14	16	2	469	580	0
LTCBEAM	246	121	2	357	359	0
LTCBEAM	246	168	2	359	582	0
LTCBEAM	21	234	2	586	588	0
LTCBEAM	21	203	2	587	588	0
LTCBEAM	236	104	2	358	474	0
LTCBEAM	236	234	2	474	586	0
LTCBEAM	104	277	2	422	591	0
LTCBEAM	104	234	2	474	592	0
LTCBEAM	104	116	2	591	592	0
LTCBEAM	116	98	2	589	590	0
LTCBEAM	116	26	2	589	595	0
LTCBEAM	116	277	2	590	591	0
LTCBEAM	116	234	2	592	597	0
LTCBEAM	116	178	2	595	597	0
LTCBEAM	234	203	2	588	596	0
LTCBEAM	234	178	2	596	597	0
LTCBEAM	203	19	2	587	598	0
LTCBEAM	203	178	2	594	596	0
LTCBEAM	203	148	2	594	599	0
LTCBEAM	203	30	2	598	599	0
LTCBEAM	63	49	2	476	601	0
LTCBEAM	187	251	2	329	602	0
LTCBEAM	187	173	2	439	440	0
LTCBEAM	187	45	2	439	603	0
LTCBEAM	187	219	2	602	603	0
LTCBEAM	44	122	2	605	608	0
LTCBEAM	44	154	2	605	606	0
LTCBEAM	44	170	2	606	607	0
LTCBEAM	44	265	2	607	610	0
LTCBEAM	44	231	2	608	609	0
LTCBEAM	44	36	2	609	610	0
LTCBEAM	122	231	2	300	608	0
LTCBEAM	122	154	2	301	605	0
LTCBEAM	154	170	2	397	606	0
LTCBEAM	170	265	2	482	607	0
LTCBEAM	265	90	2	481	611	0
LTCBEAM	265	36	2	610	612	0
LTCBEAM	265	185	2	611	612	0
LTCBEAM	123	96	2	392	393	0
LTCBEAM	123	221	2	392	614	0
LTCBEAM	123	189	2	393	583	0
LTCBEAM	123	253	2	583	585	0
LTCBEAM	123	201	2	585	613	0
LTCBEAM	123	39	2	613	614	0
LTCBEAM	178	148	2	594	617	0
LTCBEAM	178	26	2	595	616	0
LTCBEAM	178	250	2	616	617	0
LTCBEAM	169	217	2	618	621	0
LTCBEAM	169	90	2	618	619	0
LTCBEAM	169	22	2	619	620	0
LTCBEAM	169	255	2	620	623	0
LTCBEAM	169	237	2	621	622	0
LTCBEAM	169	57	2	622	623	0
LTCBEAM	22	255	2	486	620	0
LTCBEAM	22	90	2	487	619	0
LTCBEAM	255	57	2	472	623	0
LTCBEAM	57	196	2	471	473	0
LTCBEAM	57	237	2	471	622	0
LTCBEAM	90	185	2	611	624	0
LTCBEAM	90	217	2	618	626	0
LTCBEAM	90	31	2	624	627	0
LTCBEAM	90	103	2	626	627	0
LTCBEAM	27	174	2	488	628	0
LTCBEAM	174	15	2	491	629	0
LTCBEAM	118	137	2	296	326	0
LTCBEAM	118	254	2	296	630	0
LTCBEAM	118	233	2	328	632	0
LTCBEAM	118	114	2	630	632	0
LTCBEAM	89	156	2	408	634	0
LTCBEAM	89	163	2	498	631	0
LTCBEAM	89	114	2	631	634	0
LTCBEAM	209	233	2	635	636	0
LTCBEAM	209	184	2	635	637	0
LTCBEAM	209	163	2	636	640	0
LTCBEAM	209	249	2	637	638	0
LTCBEAM	209	92	2	638	639	0
LTCBEAM	209	145	2	639	640	0
LTCBEAM	233	184	2	297	635	0
LTCBEAM	233	114	2	632	633	0
LTCBEAM	233	163	2	633	636	0
LTCBEAM	184	249	2	309	637	0
LTCBEAM	163	145	2	497	640	0
LTCBEAM	163	114	2	631	633	0
LTCBEAM	249	92	2	349	638	0
LTCBEAM	92	164	2	416	504	0
LTCBEAM	92	256	2	503	504	0
LTCBEAM	92	145	2	503	639	0
LTCBEAM	145	112	2	409	502	0
LTCBEAM	145	256	2	502	503	0
LTCBEAM	166	62	2	499	641	0
LTCBEAM	166	248	2	500	645	0
LTCBEAM	166	135	2	641	645	0
LTCBEAM	23	0	2	413	642	0
LTCBEAM	23	112	2	414	643	0
LTCBEAM	23	135	2	642	643	0
LTCBEAM	0	248	2	371	644	0
LTCBEAM	0	135	2	642	644	0
LTCBEAM	248	135	2	644	645	0
LTCBEAM	38	98	2	646	648	0
LTCBEAM	38	277	2	646	647	0
LTCBEAM	38	230	2	647	651	0
LTCBEAM	38	189	2	648	649	0
LTCBEAM	38	268	2	649	650	0
LTCBEAM	38	61	2	650	651	0
LTCBEAM	277	230	2	513	647	0
LTCBEAM	277	98	2	590	646	0
LTCBEAM	230	61	2	510	651	0
LTCBEAM	189	96	2	393	553	0
LTCBEAM	189	268	2	554	649	0
LTCBEAM	189	253	2	583	584	0
LTCBEAM	189	98	2	584	648	0
LTCBEAM	268	61	2	559	650	0
LTCBEAM	11	58	2	537	654	0
LTCBEAM	11	37	2	545	546	0
LTCBEAM	11	117	2	545	652	0
LTCBEAM	11	247	2	652	654	0
LTCBEAM	177	58	2	539	655	0
LTCBEAM	177	97	2	543	653	0
LTCBEAM	177	247	2	653	655	0
LTCBEAM	58	247	2	654	655	0
LTCBEAM	82	74	2	656	657	0
LTCBEAM	82	94	2	656	659	0
LTCBEAM	82	97	2	657	658	0
LTCBEAM	82	247	2	658	661	0
LTCBEAM	82	51	2	659	660	0
LTCBEAM	82	117	2	660	661	0
LTCBEAM	74	94	2	442	656	0
LTCBEAM	74	97	2	541	657	0
LTCBEAM	94	157	2	379	535	0
LTCBEAM	94	51	2	379	659	0
LTCBEAM	97	247	2	653	658	0
LTCBEAM	247	117	2	652	661	0
LTCBEAM	221	96	2	392	665	0
LTCBEAM	221	69	2	477	615	0
LTCBEAM	221	48	2	477	663	0
LTCBEAM	221	39	2	614	615	0
LTCBEAM	221	105	2	663	665	0
LTCBEAM	96	222	2	552	664	0
LTCBEAM	96	105	2	664	665	0
LTCBEAM	48	69	2	477	478	0
LTCBEAM	48	45	2	478	666	0
LTCBEAM	48	105	2	662	663	0
LTCBEAM	48	165	2	662	667	0
LTCBEAM	48	226	2	666	667	0
LTCBEAM	242	180	2	561	670	0
LTCBEAM	242	181	2	565	669	0
LTCBEAM	242	72	2	669	670	0
LTCBEAM	98	253	2	584	673	0
LTCBEAM	98	26	2	589	672	0
LTCBEAM	98	3	2	672	673	0
LTCBEAM	253	201	2	585	674	0
LTCBEAM	253	3	2	673	674	0
LTCBEAM	237	196	2	471	593	0
LTCBEAM	237	224	2	593	675	0
LTCBEAM	237	217	2	621	677	0
LTCBEAM	237	204	2	675	677	0
LTCBEAM	217	103	2	626	678	0
LTCBEAM	217	204	2	677	678	0
LTCBEAM	196	211	2	389	680	0
LTCBEAM	196	224	2	593	679	0
LTCBEAM	196	24	2	679	680	0
LTCBEAM	211	109	2	332	682	0
LTCBEAM	211	24	2	680	682	0
LTCBEAM	109	32	2	331	681	0
LTCBEAM	109	24	2	681	682	0
LTCBEAM	19	30	2	598	683	0
LTCBEAM	137	254	2	296	688	0
LTCBEAM	137	251	2	325	687	0
LTCBEAM	137	2	2	687	688	0
LTCBEAM	69	45	2	478	604	0
LTCBEAM	69	219	2	604	689	0
LTCBEAM	69	39	2	615	690	0
LTCBEAM	69	198	2	689	690	0
LTCBEAM	3	26	2	672	695	0
LTCBEAM	3	201	2	674	693	0
LTCBEAM	3	206	2	693	695	0
LTCBEAM	26	250	2	616	694	0
LTCBEAM	26	206	2	694	695	0
LTCBEAM	17	103	2	625	702	0
LTCBEAM	17	31	2	625	698	0
LTCBEAM	17	245	2	698	700	0
LTCBEAM	17	56	2	700	701	0
LTCBEAM	17	55	2	701	702	0
LTCBEAM	103	31	2	625	627	0
LTCBEAM	103	204	2	678	705	0
LTCBEAM	103	55	2	702	705	0
LTCBEAM	204	224	2	675	676	0
LTCBEAM	204	65	2	676	704	0
LTCBEAM	204	55	2	704	705	0
LTCBEAM	15	152	2	403	706	0
LTCBEAM	88	62	2	707	708	0
LTCBEAM	88	5	2	707	709	0
LTCBEAM	88	135	2	708	712	0
LTCBEAM	88	164	2	709	710	0
LTCBEAM	88	256	2	710	711	0
LTCBEAM	88	112	2	711	712	0
LTCBEAM	62	5	2	410	707	0
LTCBEAM	62	135	2	641	708	0
LTCBEAM	5	164	2	419	709	0
LTCBEAM	135	112	2	643	712	0
LTCBEAM	164	256	2	504	710	0
LTCBEAM	256	112	2	502	711	0
LTCBEAM	80	79	2	527	713	0
LTCBEAM	80	149	2	713	714	0
LTCBEAM	222	70	2	456	715	0
LTCBEAM	222	105	2	664	716	0
LTCBEAM	222	10	2	715	716	0
LTCBEAM	173	45	2	439	717	0
LTCBEAM	173	157	2	533	719	0
LTCBEAM	173	71	2	717	719	0
LTCBEAM	45	219	2	603	604	0
LTCBEAM	45	226	2	666	718	0
LTCBEAM	45	71	2	717	718	0
LTCBEAM	51	157	2	379	721	0
LTCBEAM	51	117	2	660	720	0
LTCBEAM	51	197	2	720	721	0
LTCBEAM	157	71	2	719	722	0
LTCBEAM	157	197	2	721	722	0
LTCBEAM	71	226	2	718	723	0
LTCBEAM	71	197	2	722	723	0
LTCBEAM	188	276	2	724	730	0
LTCBEAM	188	240	2	724	725	0
LTCBEAM	188	224	2	725	728	0
LTCBEAM	188	200	2	726	729	0
LTCBEAM	188	32	2	726	727	0
LTCBEAM	188	24	2	727	728	0
LTCBEAM	188	49	2	729	730	0
LTCBEAM	224	240	2	600	725	0
LTCBEAM	224	65	2	600	676	0
LTCBEAM	224	24	2	679	728	0
LTCBEAM	200	32	2	387	726	0
LTCBEAM	200	49	2	475	729	0
LTCBEAM	32	24	2	681	727	0
LTCBEAM	50	128	2	733	735	0
LTCBEAM	50	231	2	733	734	0
LTCBEAM	50	156	2	734	736	0
LTCBEAM	50	54	2	735	739	0
LTCBEAM	50	114	2	736	737	0
LTCBEAM	50	254	2	737	738	0
LTCBEAM	50	2	2	738	739	0
LTCBEAM	231	156	2	286	734	0
LTCBEAM	231	36	2	609	686	0
LTCBEAM	231	128	2	686	733	0
LTCBEAM	156	114	2	634	736	0
LTCBEAM	114	254	2	630	737	0
LTCBEAM	254	2	2	688	738	0
LTCBEAM	39	201	2	613	740	0
LTCBEAM	39	198	2	690	741	0
LTCBEAM	39	9	2	740	741	0
LTCBEAM	201	206	2	692	693	0
LTCBEAM	201	78	2	692	742	0
LTCBEAM	201	9	2	740	742	0
LTCBEAM	191	206	2	744	745	0
LTCBEAM	191	113	2	744	746	0
LTCBEAM	191	78	2	745	749	0
LTCBEAM	191	56	2	746	747	0
LTCBEAM	191	176	2	747	748	0
LTCBEAM	191	228	2	748	749	0
LTCBEAM	206	250	2	691	694	0
LTCBEAM	206	113	2	691	744	0
LTCBEAM	206	78	2	692	745	0
LTCBEAM	78	9	2	742	743	0
LTCBEAM	78	228	2	743	749	0
LTCBEAM	56	245	2	699	700	0
LTCBEAM	56	176	2	699	747	0
LTCBEAM	56	55	2	701	703	0
LTCBEAM	56	113	2	703	746	0
LTCBEAM	250	148	2	617	750	0
LTCBEAM	250	113	2	691	752	0
LTCBEAM	250	68	2	750	752	0
LTCBEAM	148	30	2	599	684	0
LTCBEAM	148	147	2	684	697	0
LTCBEAM	148	273	2	697	751	0
LTCBEAM	148	68	2	750	751	0
LTCBEAM	73	245	2	753	757	0
LTCBEAM	73	31	2	753	755	0
LTCBEAM	73	185	2	754	755	0
LTCBEAM	73	36	2	754	756	0
LTCBEAM	73	128	2	756	759	0
LTCBEAM	73	176	2	757	758	0
LTCBEAM	73	274	2	758	759	0
LTCBEAM	245	31	2	698	753	0
LTCBEAM	245	176	2	699	757	0
LTCBEAM	31	185	2	624	755	0
LTCBEAM	185	36	2	612	754	0
LTCBEAM	36	128	2	686	756	0
LTCBEAM	128	274	2	731	759	0
LTCBEAM	128	54	2	731	735	0
LTCBEAM	176	274	2	732	758	0
LTCBEAM	176	228	2	732	748	0
LTCBEAM	124	149	2	760	761	0
LTCBEAM	124	79	2	761	762	0
LTCBEAM	124	53	2	762	763	0
LTCBEAM	124	34	2	763	764	0
LTCBEAM	149	79	2	713	761	0
LTCBEAM	79	53	2	528	762	0
LTCBEAM	53	34	2	372	763	0
LTCBEAM	105	165	2	662	765	0
LTCBEAM	105	10	2	716	766	0
LTCBEAM	105	76	2	765	766	0
LTCBEAM	165	226	2	667	668	0
LTCBEAM	165	108	2	668	767	0
LTCBEAM	165	76	2	765	767	0
LTCBEAM	8	226	2	769	770	0
LTCBEAM	8	108	2	769	773	0
LTCBEAM	8	197	2	770	771	0
LTCBEAM	8	117	2	771	772	0
LTCBEAM	8	37	2	772	774	0
LTCBEAM	8	180	2	773	774	0
LTCBEAM	226	108	2	668	769	0
LTCBEAM	226	197	2	723	770	0
LTCBEAM	108	72	2	671	768	0
LTCBEAM	108	180	2	671	773	0
LTCBEAM	108	76	2	767	768	0
LTCBEAM	197	117	2	720	771	0
LTCBEAM	117	37	2	545	772	0
LTCBEAM	37	180	2	563	774	0
LTCBEAM	180	72	2	670	671	0
LTCBEAM	30	144	2	683	776	0
LTCBEAM	30	147	2	684	775	0
LTCBEAM	30	130	2	775	776	0
LTCBEAM	214	198	2	777	778	0
LTCBEAM	214	219	2	777	779	0
LTCBEAM	214	9	2	778	781	0
LTCBEAM	214	251	2	779	780	0
LTCBEAM	214	2	2	780	782	0
LTCBEAM	214	228	2	781	784	0
LTCBEAM	214	54	2	782	783	0
LTCBEAM	214	274	2	783	784	0
LTCBEAM	198	219	2	689	777	0
LTCBEAM	198	9	2	741	778	0
LTCBEAM	219	251	2	602	779	0
LTCBEAM	9	228	2	743	781	0
LTCBEAM	251	2	2	687	780	0
LTCBEAM	2	54	2	739	782	0
LTCBEAM	228	274	2	732	784	0
LTCBEAM	54	274	2	731	783	0
LTCBEAM	218	55	2	785	787	0
LTCBEAM	218	113	2	785	786	0
LTCBEAM	218	68	2	786	789	0
LTCBEAM	218	65	2	787	791	0
LTCBEAM	218	273	2	788	789	0
LTCBEAM	218	84	2	788	790	0
LTCBEAM	218	240	2	790	791	0
LTCBEAM	55	113	2	703	785	0
LTCBEAM	55	65	2	704	787	0
LTCBEAM	113	68	2	752	786	0
LTCBEAM	68	273	2	751	789	0
LTCBEAM	65	240	2	600	791	0
LTCBEAM	273	147	2	696	697	0
LTCBEAM	273	84	2	696	788	0
LTCBEAM	240	276	2	685	724	0
LTCBEAM	240	84	2	685	790	0
LTCBEAM	239	76	2	792	795	0
LTCBEAM	239	10	2	792	797	0
LTCBEAM	239	181	2	793	794	0
LTCBEAM	239	83	2	793	796	0
LTCBEAM	239	72	2	794	795	0
LTCBEAM	239	70	2	796	797	0
LTCBEAM	76	10	2	766	792	0
LTCBEAM	76	72	2	768	795	0
LTCBEAM	10	70	2	715	797	0
LTCBEAM	181	83	2	574	793	0
LTCBEAM	181	72	2	669	794	0
LTCBEAM	83	70	2	381	796	0
LTCBEAM	179	130	2	798	803	0
LTCBEAM	179	134	2	798	799	0
LTCBEAM	179	49	2	799	800	0
LTCBEAM	179	276	2	800	801	0
LTCBEAM	179	84	2	801	802	0
LTCBEAM	179	147	2	802	803	0
LTCBEAM	130	147	2	775	803	0
LTCBEAM	134	49	2	601	799	0
LTCBEAM	49	276	2	730	800	0
LTCBEAM	276	84	2	685	801	0
LTCBEAM	84	147	2	696	802	0
